<?xml version="1.0" encoding="UTF-8" standalone="no"?>
<!-- Created with Inkscape (http://www.inkscape.org/) -->

<svg
   xmlns:dc="http://purl.org/dc/elements/1.1/"
   xmlns:cc="http://creativecommons.org/ns#"
   xmlns:rdf="http://www.w3.org/1999/02/22-rdf-syntax-ns#"
   xmlns:svg="http://www.w3.org/2000/svg"
   xmlns="http://www.w3.org/2000/svg"
   xmlns:xlink="http://www.w3.org/1999/xlink"
   xmlns:sodipodi="http://sodipodi.sourceforge.net/DTD/sodipodi-0.dtd"
   xmlns:inkscape="http://www.inkscape.org/namespaces/inkscape"
   id="svg2"
   version="1.1"
   inkscape:version="0.92.2 (5c3e80d, 2017-08-06)"
   width="2481"
   height="3503"
   sodipodi:docname="Pepper-and-Carrot_by-David-Revoy_E16P04.svg"
   inkscape:export-filename="E:\Users\jamesmichael\Downloads\Compressed\eps\peppercarrot_ep16_translation-master\peppercarrot_ep16_translation-master\ph\Pepper-and-Carrot_by-David-Revoy_E16P04.png"
   inkscape:export-xdpi="98.181801"
   inkscape:export-ydpi="98.181801">
  <metadata
     id="metadata8">
    <rdf:RDF>
      <cc:Work
         rdf:about="">
        <dc:format>image/svg+xml</dc:format>
        <dc:type
           rdf:resource="http://purl.org/dc/dcmitype/StillImage" />
        <dc:title />
      </cc:Work>
    </rdf:RDF>
  </metadata>
  <defs
     id="defs6">
    <mask
       maskUnits="userSpaceOnUse"
       id="mask993">
      <path
         style="color:#000000;display:inline;overflow:visible;visibility:visible;opacity:0.68599997;fill:#ffffff;fill-opacity:1;fill-rule:nonzero;stroke:none;stroke-width:0.88582641px;marker:none;enable-background:accumulate"
         d="m 1168.7538,1387.5415 c -3.2985,-39.7475 5.4974,-145.3267 73.1161,-136.6318 67.6187,8.6948 78.6136,58.3789 80.2627,73.2843 1.6493,14.9053 15.9427,99.3687 -36.8329,121.7267 -52.7755,22.3578 -100.0536,-1.2422 -116.5459,-58.3792 z"
         id="path995"
         inkscape:connector-curvature="0" />
    </mask>
    <filter
       inkscape:collect="always"
       style="color-interpolation-filters:sRGB"
       id="filter1037"
       x="-0.003069635"
       width="1.0061393"
       y="-0.0019702038"
       height="1.0039404">
      <feGaussianBlur
         inkscape:collect="always"
         stdDeviation="0.54518942"
         id="feGaussianBlur1039" />
    </filter>
    <clipPath
       clipPathUnits="userSpaceOnUse"
       id="clipPath1048">
      <path
         style="fill:#000000;stroke:none;stroke-width:1px;stroke-linecap:butt;stroke-linejoin:miter;stroke-opacity:1;filter:url(#filter1037)"
         d="m 1793.6405,947.26886 16.5771,113.33504 c 0.037,0.017 13.5727,-1.7426 34.2687,-5.1263 4.5252,-0.7398 27.073,-8.8816 38.9617,-12.0102 16.2711,-0.5073 26.0537,2.1292 26.3246,31.9186 -4.9737,17.7873 -6.5641,31.7403 -27.2766,67.3649 0.046,0.031 -18.2581,37.1378 -20.7393,34.1061 -1.0792,-1.3187 5.7609,7.9984 9.0672,14.1976 3.3062,6.1993 7.8272,16.2226 7.8272,16.2226 l -9.2633,-2.3422 c 14.6536,13.7457 9.9306,15.748 13.1082,22.5385 2.2124,-5.3823 12.4707,-3.8514 11.5719,-10.7453 2.7095,7.1904 -0.8588,13.1252 -1.603,19.6248 8.7055,4.6025 11.1959,-0.6109 15.8844,-0.7556 -1.305,3.0832 -2.1621,6.4108 -7.6023,7.2385 9.4061,10.2693 12.9777,20.8686 9.0256,30.7185 0.3604,-2.4657 -4.8402,-10.2886 -8.6789,-10.1254 0.8294,12.9674 7.1732,26.5095 2.0664,38.8484 2.4354,-0.9829 6.1203,-2.673 10.9666,-12.0396 1.1853,6.3439 3.8557,23.2289 -7.2471,29.6041 3.5611,2.1537 6.2847,-0.2534 8.2656,-0.2067 -2.7206,11.7828 -5.6448,21.7604 -13.225,20.0442 1.6103,6.6376 -4.6279,18.4246 -10.1254,18.391 0.4377,-6.9176 0.1296,-10.0016 -3.0996,-9.5055 -0.6993,2.1053 -1.5265,5.2275 -5.1659,5.3727 6.8898,9.1789 11.5836,18.6687 -0.2067,33.0625 -3.3012,-6.4292 -6.342,-10.515 -9.0922,-11.9852 -0.7284,8.4474 2.4443,16.2105 -9.0922,28.5164 -0.299,-5.4466 1.9039,-11.1711 -2.893,-16.1179 -22.4509,29.5271 -24.7141,9.9938 -30.5227,20.2691 1.4486,6.0237 4.2336,3.3609 6.7214,2.6301 -2.5891,11.912 -19.208,4.7835 -28.9312,7.0136 1.7534,1.0904 3.5068,6.3927 5.2602,15.1962 -1.544,-2.0398 -4.763,-4.7496 -9.0592,-7.8903 -3.138,9.5463 4.2636,19.0926 -18.4108,28.6389 l -1.4612,-7.8903 -17.534,15.4884 -13.1505,39.4516 158.2196,111.0696 c 7.8043,-5.5872 27.9443,-11.9149 51.1263,-7.362 -1.0848,-13.5425 0.8985,-12.9908 4.5693,-16.6219 -24.2266,-29.0544 -16.126,-48.7979 7.9783,-55.4336 21.0473,-5.7941 53.4073,-7.9894 65.6647,-19.6706 28.0024,-29.2751 38.3426,-52.4528 62.6084,-71.5637 16.0254,-12.6209 28.3376,-15.6834 66.9283,-34.582 -4.9517,-11.5367 -25.2283,-40.2638 2.9309,-91.7701 3.5384,-10.91 8.7093,-29.0525 4.8824,-39.9626 -15.391,-26.7881 -32.0466,-37.4706 -31.2691,-53.1866 -0.746,-14.5143 4.1783,-37.2111 11.6894,-55.5244 9.7104,-10.044 4.6279,-27.1055 1.3254,-31.697 -2.7487,-7.0714 -6.3543,-21.3481 3.749,-61.5049 12.6641,-16.3599 -7.0435,-27.3617 -19.9783,-45.317 -7.3114,-9.9896 -16.2019,-13.031 -21.0409,-33.89917 -55.0269,11.60977 -140.0738,1.16894 -168.3268,1.75341 -30.0096,-10.27553 -59.5037,-24.59952 -83.9983,-47.37736 z"
         id="path1050"
         inkscape:connector-curvature="0"
         sodipodi:nodetypes="ccscccsccccccccccccccccccccccccccccccccccscscccccccccccc" />
    </clipPath>
    <filter
       inkscape:collect="always"
       style="color-interpolation-filters:sRGB"
       id="filter1088"
       x="-0.014089466"
       width="1.0281789"
       y="-0.010450232"
       height="1.0209005">
      <feGaussianBlur
         inkscape:collect="always"
         stdDeviation="1.9680944"
         id="feGaussianBlur1090" />
    </filter>
  </defs>
  <sodipodi:namedview
     pagecolor="#ffffff"
     bordercolor="#666666"
     borderopacity="1"
     objecttolerance="10"
     gridtolerance="10"
     guidetolerance="10"
     inkscape:pageopacity="0"
     inkscape:pageshadow="2"
     inkscape:window-width="1366"
     inkscape:window-height="705"
     id="namedview4"
     showgrid="false"
     inkscape:zoom="0.30245749"
     inkscape:cx="1394.6347"
     inkscape:cy="933.05247"
     inkscape:window-x="-8"
     inkscape:window-y="-8"
     inkscape:window-maximized="1"
     inkscape:current-layer="layer1" />
  <g
     inkscape:groupmode="layer"
     id="layer2"
     inkscape:label="artwork"
     sodipodi:insensitive="true">
    <image
       sodipodi:absref="E:\Users\jamesmichael\Downloads\Compressed\eps\peppercarrot_ep16_translation-master\peppercarrot_ep16_translation-master\ph\../gfx_Pepper-and-Carrot_by-David-Revoy_E16P04.png"
       xlink:href="../gfx_Pepper-and-Carrot_by-David-Revoy_E16P04.png"
       y="0"
       x="0"
       id="image10"
       height="3503"
       width="2481" />
  </g>
  <g
     inkscape:groupmode="layer"
     id="layer3"
     inkscape:label="speechbubbles">
    <path
       style="fill:#1a1a1a;stroke:none;stroke-width:1.25892973"
       d="m 154.70386,431.91336 c 4.90919,-90.55931 5.40205,-188.20757 54.38653,-266.40555 27.28802,-47.3012 82.7997,-60.9283 131.03398,-65.48042 58.01284,-3.057103 120.42275,13.56726 163.09771,57.4788 52.90047,66.33649 60.94565,158.00066 61.22034,241.76544 0.78885,92.94615 11.76839,192.21298 -29.54346,277.96424 C 470.8503,765.97891 302.13582,762.02839 225.68815,725.6995 194.90072,709.04005 175.36318,675.11659 170.23037,639.19753 154.43893,571.43493 158.8428,501.00094 154.70386,431.91336 Z"
       id="path3270"
       inkscape:connector-curvature="0"
       sodipodi:nodetypes="ccccccccc" />
    <path
       style="color:#000000;display:inline;overflow:visible;visibility:visible;fill:#000000;fill-opacity:1;fill-rule:nonzero;stroke:none;stroke-width:1.24228668px;marker:none;enable-background:accumulate"
       d="m 590.36879,243.88618 c 26.40245,-66.83202 221.8614,-113.62147 322.6935,-43.99374 -1.45969,27.28274 -1.2053,40.45421 1.42109,49.77091 3.65415,7.67461 9.05871,16.08468 14.46463,25.8916 12.71361,23.06385 32.13324,38.93445 56.44863,59.1478 20.39276,124.41313 -2.60764,298.4444 -43.69064,346.51405 -52.38974,61.29925 -226.67052,49.80089 -303.05394,22.00939 -72.72752,-26.46144 -84.93969,-106.33201 -88.51708,-267.1509 -1.46007,-65.63643 9.45681,-114.28386 40.23381,-192.18911 z"
       id="path4040-4"
       inkscape:connector-curvature="0"
       sodipodi:nodetypes="sccscssss" />
    <path
       style="color:#000000;display:inline;overflow:visible;visibility:visible;fill:#000000;fill-opacity:1;fill-rule:nonzero;stroke:none;stroke-width:0.43261021px;marker:none;enable-background:accumulate"
       d="m 827.70715,489.28077 c 61.43217,186.48492 125.17846,239.60038 178.78865,197.245 -57.24603,63.80217 -110.10517,117.1031 -192.94804,-180.38377 -4.25014,-15.26216 14.15939,-16.86123 14.15939,-16.86123 z"
       id="path4008"
       inkscape:connector-curvature="0"
       sodipodi:nodetypes="ccsc" />
    <path
       style="fill:#ffffff;stroke:none;stroke-width:1px;stroke-linecap:butt;stroke-linejoin:miter;stroke-opacity:1"
       d="m 1271.8022,1188.507 -208.0706,-0.5844 11.6894,296.3252 14.0272,57.8623 299.8321,-22.7942 4.6757,-51.4332 c -7.7282,13.47 -21.4513,9.3436 -29.2234,2.0456 3.5801,-2.0679 8.8731,-0.6927 10.7886,-2.3654 12.2402,-10.6881 -6.9096,-15.1517 -11.3731,-28.3191 -1.448,2.3046 -0.5498,4.911 2.3379,12.2738 -20.5421,-6.0327 -19.3344,-24.4372 -15.7806,-38.5749 l -4.3836,8.1825 c -4.9091,-4.9448 -6.4633,-13.3637 -4.6757,-22.2097 -5.3158,-0.073 -6.2406,-8.3819 -11.3971,-9.936 -1.3225,2.4676 -1.4212,2.7179 0.8767,13.1505 -13.9457,-6.3411 -14.3509,-21.0179 -10.8127,-29.5156 -8.4749,-6.6463 -10.7021,-17.618 -9.0592,-31.269 -8.6184,-5.1194 -7.4198,-20.5832 -2.0456,-33.0225 v -7.598 c 0,0 -19.2875,11.1049 -54.3556,-14.6117 -35.068,-25.7166 -31.5612,-51.4332 -18.7029,-58.4468 12.8583,-7.0136 53.771,-37.406 53.771,-37.406 z"
       id="path991"
       inkscape:connector-curvature="0"
       sodipodi:nodetypes="cccccccsccccccccccccscc"
       mask="url(#mask993)" />
    <path
       style="color:#000000;display:inline;overflow:visible;visibility:visible;opacity:0.837;fill:#ffffff;fill-opacity:1;fill-rule:nonzero;stroke:none;stroke-width:1.01076829px;marker:none;enable-background:accumulate;filter:url(#filter1088)"
       d="M 1991.1875 1051.8281 C 1964.2066 1051.9652 1936.6605 1057.5068 1917.1152 1073.8047 C 1869.004 1113.9225 1855.7367 1192.779 1855.3594 1264.457 C 1854.9819 1336.135 1865.1707 1373.6736 1884.9043 1412.0508 C 1904.369 1449.906 1942.462 1458.1592 1965.7832 1473.1309 C 1966.06 1473.3086 1966.3644 1473.4811 1966.6699 1473.6523 C 1966.5445 1474.1554 1966.4131 1474.6616 1966.2539 1475.1836 C 1964.6823 1482.651 1958.4282 1482.676 1954.6992 1483.7207 C 1944.0193 1484.3538 1938.8888 1486.0865 1930.6309 1480.1758 C 1941.8142 1490.9149 1953.4674 1500.8821 1966.3945 1503.334 C 1970.8251 1504.0153 1975.4381 1504.202 1979.7559 1502.373 C 1983.996 1498.788 1985.8581 1490.4951 1985.5605 1482.873 C 1985.564 1481.5274 1985.5255 1480.1723 1985.4629 1478.8125 C 2028.8852 1485.2028 2119.2441 1477.6436 2136.3398 1465.4316 C 2156.9065 1450.7405 2181.081 1403.6878 2187.7324 1354.8457 C 2194.384 1306.0031 2189.3464 1237.1886 2173.6152 1182.2891 C 2157.8842 1127.3893 2101.0054 1082.3225 2079.1309 1069.1602 C 2068.848 1062.9728 2030.6211 1051.6278 1991.1875 1051.8281 z M 1930.6309 1480.1758 C 1928.3644 1477.9993 1926.1107 1475.8042 1923.877 1473.6191 C 1924.8063 1474.7983 1925.7336 1475.9704 1926.7188 1477.0156 C 1928.1112 1478.2592 1929.4048 1479.2982 1930.6309 1480.1758 z "
       id="path3373"
       clip-path="url(#clipPath1048)" />
    <path
       style="color:#000000;display:inline;overflow:visible;visibility:visible;fill:#ffffff;fill-opacity:1;fill-rule:nonzero;stroke:none;stroke-width:1.09648514px;marker:none;enable-background:accumulate"
       d="m 576.89262,1898.316 c -5.72895,27.8281 -38.04106,30.1615 -49.93604,24.505 23.97754,31.1309 23.14161,50.473 -9.41312,53.4763 54.59484,56.106 9.98067,47.6158 1.18084,61.8428 42.86705,19.3352 23.6879,43.3987 16.05607,67.3531 49.27144,0.8229 33.14715,39.2213 35.22384,69.8032 4.17702,-14.3504 24.02093,-58.0394 25.21495,-9.3946 32.59019,-46.4096 71.84421,-76.3881 74.9611,4.8293 13.13114,-40.8584 26.22286,-58.1268 25.21492,-9.3949 32.53485,-63.3816 61.77192,-40.5671 91.18225,-22.6531 7.72447,-19.1303 8.62453,-48.5196 33.615,-41.6324 -3.50396,-18.9615 4.93388,-31.9953 23.9893,-39.7355 -25.32164,-11.4541 -29.98833,-23.2685 17.02828,-35.9828 -35.77688,-1.2299 -69.13908,-3.7495 -27.16501,-47.109 -13.16843,-1.0495 -44.41191,35.131 -29.84496,-70.7516 -22.64386,33.8969 -46.80283,52.6054 -77.10033,-18.3996 -14.33833,35.4727 -39.20782,53.0261 -50.02728,8.7179 -3.88873,18.8892 -20.01346,25.9933 -33.70219,26.8547 -5.29345,-7.5032 -10.75304,-17.6944 -16.45035,-31.0468 -9.31182,28.0362 -23.24125,46.9706 -50.02727,8.718 z"
       id="path3549-3-7"
       inkscape:connector-curvature="0"
       sodipodi:nodetypes="cccccccccccccccccccc" />
    <path
       style="color:#000000;display:inline;overflow:visible;visibility:visible;fill:#ffffff;fill-opacity:1;fill-rule:nonzero;stroke:none;stroke-width:1.1249007px;marker:none;enable-background:accumulate"
       d="m 546.85426,1727.3266 c 15.10275,-36.3427 142.58711,-75.7907 187.39325,-0.8958 44.80616,74.8948 17.62866,164.7685 -8.07982,193.3646 -25.70843,28.5961 -101.36473,59.9158 -135.88747,35.4048 -34.5228,-24.5111 -61.41386,-61.1503 -63.16933,-136.1722 -0.7165,-30.6196 4.64058,-55.3586 19.74337,-91.7014 z"
       id="path4040"
       inkscape:connector-curvature="0"
       sodipodi:nodetypes="zssssz" />
    <path
       style="fill:#ffffff;fill-rule:evenodd;stroke:none;stroke-width:1.23682177px;stroke-linecap:butt;stroke-linejoin:miter;stroke-opacity:1"
       d="m 1758.6849,2011.0515 c 57.0862,-57.9137 68.9338,-19.6659 81.2212,-90.855 9.2595,-85.4736 50.0884,-85.1241 54.3035,-111.4284 -12.6208,42.7458 0,0 6.7341,19.0005 -15.1518,40.071 -52.0198,52.7573 -60.0186,119.9107 -7.9986,67.153 -56.3109,45.49 -82.2402,63.3722 z"
       id="path4407"
       inkscape:connector-curvature="0"
       sodipodi:nodetypes="cccczc" />
    <path
       style="color:#000000;display:inline;overflow:visible;visibility:visible;fill:#ffffff;fill-opacity:1;fill-rule:nonzero;stroke:none;stroke-width:1px;marker:none;enable-background:accumulate"
       d="m 694.34737,2030.5399 c 40.79871,-3.3555 89.15002,-3.4947 100.56467,-2.6784 -7.35919,10.012 -11.61802,19.8278 -15.11517,27.4395 21.43459,0.027 121.32329,-4.4562 144.14156,-13.4466 -55.29174,23.9816 -130.95639,31.7024 -165.91915,29.4534 2.37066,-10.6197 5.59961,-16.8288 6.67234,-22.4397 -17.34731,-1.8257 -75.31085,2.3098 -75.31085,2.3098 z"
       id="path5066"
       inkscape:connector-curvature="0"
       inkscape:transform-center-x="-114.63728"
       inkscape:transform-center-y="12.193833" />
    <path
       style="fill:#ffffff;stroke:none;stroke-width:1.18935192"
       d="m 274.90111,2294.4205 c 1.08449,-129.4584 42.25697,-148.4723 70.03322,-142.8293 23.09474,4.6921 111.90816,-27.9727 137.21867,90.1979 10.80795,50.4604 9.05696,182.1507 -5.9656,236.9695 -12.8107,46.7473 -36.09638,48.1856 -64.47438,62.8194 -35.23696,18.1707 -85.75029,-13.8262 -113.42617,-37.1848 -13.02782,-10.9956 -24.47026,-80.5146 -23.38574,-209.9727 z"
       id="path3100"
       inkscape:connector-curvature="0"
       sodipodi:nodetypes="zsssssz" />
    <path
       style="color:#000000;display:inline;overflow:visible;visibility:visible;fill:#ffffff;fill-opacity:1;fill-rule:nonzero;stroke:none;stroke-width:0.92357624px;marker:none;enable-background:accumulate"
       d="m 472.8645,2430.6349 c -1.84991,-192.1051 74.72976,-171.515 129.24435,-186.4982 29.75154,-8.1773 137.7232,13.2285 147.98577,183.6603 5.91148,98.1736 -30.74301,181.9986 -45.26489,196.7396 -14.5218,14.7408 -84.69233,33.8585 -107.27803,29.3666 -22.58559,-4.492 -126.87444,34.8561 -124.6872,-223.2683 z"
       id="path4974"
       inkscape:connector-curvature="0"
       sodipodi:nodetypes="cssssc" />
    <path
       style="fill:#ffffff;stroke:none;stroke-width:1.23468006"
       d="m 901.72916,2400.4971 c 52.89788,-0.8026 111.57104,10.887 147.59954,52.8538 35.9131,45.8238 38.3994,107.2329 34.9222,162.9267 -1.4001,50.5038 -5.1854,105.0721 -35.9533,147.2603 -35.1855,35.4589 -87.36353,42.7871 -134.71499,48.1937 -135.67238,1.0361 -184.99228,-66.8756 -197.39262,-183.9177 0.47383,-200.2196 70.86731,-226.5162 185.53917,-227.3168 z"
       id="path3100-7"
       inkscape:connector-curvature="0"
       sodipodi:nodetypes="ccccccc" />
    <path
       style="fill:none;stroke:#ffffff;stroke-width:3;stroke-linecap:round;stroke-linejoin:miter;stroke-opacity:1;stroke-miterlimit:4;stroke-dasharray:none"
       d="m 1002.0101,2738.5749 c 0.7023,-0.3622 136.043,90.1505 62.7308,148.5386 -44.2485,35.2409 -19.8081,88.6756 45.3325,82.7537 90.9219,-8.2656 43.8078,38.8484 43.8078,38.8484 -15.2185,37.3097 51.1314,-3.8757 74.3906,-3.3062 34.5739,2.4336 -12.6835,48.557 33.0625,62.8187"
       id="path1165"
       inkscape:connector-curvature="0"
       sodipodi:nodetypes="cssccc" />
  </g>
  <g
     inkscape:groupmode="layer"
     id="layer1"
     inkscape:label="txt">
    <text
       xml:space="preserve"
       style="font-style:normal;font-variant:normal;font-weight:normal;font-stretch:normal;line-height:0%;font-family:Lavi;-inkscape-font-specification:Lavi;text-align:center;letter-spacing:0px;word-spacing:0px;text-anchor:middle;fill:#ffffff;fill-opacity:1;stroke:none;"
       x="741.7486"
       y="296.06219"
       id="text4246-9"><tspan
         sodipodi:role="line"
         style="font-size:45px;line-height:1.25;fill:#ffffff;"
         x="741.7486"
         y="296.06219"
         id="tspan3580">Ipapayo ko</tspan><tspan
         sodipodi:role="line"
         style="font-size:45px;line-height:1.25;fill:#ffffff;"
         x="749.65875"
         y="352.31219"
         id="tspan929">na magpatulong </tspan><tspan
         sodipodi:role="line"
         style="font-size:45px;line-height:1.25;fill:#ffffff;"
         x="749.65875"
         y="408.56219"
         id="tspan931">sa                </tspan></text>
    <text
       xml:space="preserve"
       style="font-style:normal;font-variant:normal;font-weight:normal;font-stretch:normal;line-height:0.25;font-family:Lavi;-inkscape-font-specification:Lavi;text-align:center;letter-spacing:0px;word-spacing:0px;text-anchor:middle;fill:#ffffff;fill-opacity:1;stroke:none"
       x="1811.9479"
       y="1082.8782"
       id="text4246-9-6"
       transform="skewX(-29.008763)"><tspan
         sodipodi:role="line"
         style="font-size:45px;line-height:0.25;fill:#ffffff"
         x="1819.858"
         y="1082.8782"
         id="tspan4183-4">Hih </tspan><tspan
         sodipodi:role="line"
         style="font-size:45px;line-height:0.25;fill:#ffffff"
         x="1819.858"
         y="1099.5946"
         id="tspan1092">          hi </tspan><tspan
         sodipodi:role="line"
         style="font-size:45px;line-height:0.25;fill:#ffffff"
         x="1811.9479"
         y="1116.3112"
         id="tspan1096">                    hih!</tspan></text>
    <text
       xml:space="preserve"
       style="font-style:normal;font-variant:normal;font-weight:normal;font-stretch:normal;line-height:1;font-family:Lavi;-inkscape-font-specification:Lavi;text-align:center;letter-spacing:0px;word-spacing:0px;text-anchor:middle;fill:#000000;fill-opacity:1;stroke:none"
       x="1980.0786"
       y="1347.9274"
       id="text4246-9-6-2"
       transform="skewX(-28.830853)"><tspan
         sodipodi:role="line"
         style="font-size:45px;line-height:1"
         x="1987.9888"
         y="1347.9274"
         id="tspan4183-4-1">Ang </tspan><tspan
         sodipodi:role="line"
         style="font-size:45px;line-height:1"
         x="1980.0786"
         y="1392.9274"
         id="tspan954">    Guro?</tspan></text>
    <text
       xml:space="preserve"
       style="font-style:normal;font-variant:normal;font-weight:normal;font-stretch:normal;font-size:37.33333206px;line-height:1;font-family:Lavi;-inkscape-font-specification:Lavi;text-align:center;letter-spacing:0px;word-spacing:0px;text-anchor:middle;fill:#000000;fill-opacity:1;stroke:none"
       x="2012.7914"
       y="1173.9971"
       id="text4246-9-6-2-4"><tspan
         sodipodi:role="line"
         style="font-size:37.33333206px;line-height:1"
         x="2012.7914"
         y="1173.9971"
         id="tspan3593">Hindi kaya</tspan><tspan
         sodipodi:role="line"
         style="font-size:37.33333206px;line-height:1"
         x="2019.3539"
         y="1211.3304"
         id="tspan965">masyado pa </tspan><tspan
         sodipodi:role="line"
         style="font-size:37.33333206px;line-height:1"
         x="2019.3539"
         y="1248.6637"
         id="tspan981"> silang bubwit </tspan><tspan
         sodipodi:role="line"
         style="font-size:37.33333206px;line-height:1"
         x="2019.3539"
         y="1285.9971"
         id="tspan969">para </tspan><tspan
         sodipodi:role="line"
         style="font-size:37.33333206px;line-height:1"
         x="2019.3539"
         y="1323.3304"
         id="tspan999">  makatikim </tspan><tspan
         sodipodi:role="line"
         style="font-size:37.33333206px;line-height:1"
         x="2019.3539"
         y="1360.6637"
         id="tspan975">  ng leskyon </tspan><tspan
         sodipodi:role="line"
         style="font-size:37.33333206px;line-height:1"
         x="2012.7914"
         y="1397.9971"
         id="tspan971"> sa guro?</tspan></text>
    <text
       xml:space="preserve"
       style="font-style:normal;font-variant:normal;font-weight:normal;font-stretch:normal;line-height:0%;font-family:Lavi;-inkscape-font-specification:Lavi;text-align:center;letter-spacing:0px;word-spacing:0px;text-anchor:middle;fill:#000000;fill-opacity:1;stroke:none"
       x="633.76587"
       y="1782.1036"
       id="text4246-9-6-2-4-7"><tspan
         sodipodi:role="line"
         style="font-size:45px;line-height:1.25"
         x="641.67603"
         y="1782.1036"
         id="tspan3597">Bubwit? </tspan><tspan
         sodipodi:role="line"
         style="font-size:45px;line-height:1.25"
         x="641.67603"
         y="1838.3536"
         id="tspan1104">anong </tspan><tspan
         sodipodi:role="line"
         style="font-size:45px;line-height:1.25"
         x="633.76587"
         y="1894.6036"
         id="tspan1106">bubwit!?</tspan></text>
    <text
       xml:space="preserve"
       style="font-style:normal;font-variant:normal;font-weight:normal;font-stretch:normal;line-height:0%;font-family:Lavi;-inkscape-font-specification:Lavi;text-align:center;letter-spacing:0px;word-spacing:0px;text-anchor:middle;fill:#000000;fill-opacity:1;stroke:none"
       x="706.41107"
       y="1926.2217"
       id="text4246-9-6-2-4-7-3"
       transform="scale(0.96046588,1.0411614)"><tspan
         sodipodi:role="line"
         style="font-size:56.78048325px;line-height:1.25"
         x="716.39203"
         y="1926.2217"
         id="tspan4359">Pupunta </tspan><tspan
         sodipodi:role="line"
         style="font-size:56.78048325px;line-height:1.25"
         x="706.41107"
         y="1997.1973"
         id="tspan1102">kami!</tspan></text>
    <path
       style="color:#000000;display:inline;overflow:visible;visibility:visible;fill:#ffffff;fill-opacity:1;fill-rule:nonzero;stroke:none;stroke-width:1.20800757px;marker:none;enable-background:accumulate"
       d="m 1810.2722,1984.53 c -18.1602,-23.5078 -24.5162,-45.3365 -22.7001,-58.7696 1.816,-13.433 18.1601,-82.2775 38.1362,-90.6732 19.9762,-8.3957 71.7326,-18.4704 83.5368,-10.0747 11.8042,8.3955 45.4005,63.8071 45.4005,92.3522 0,28.5453 -6.3561,83.9567 -24.5163,100.7479 -18.1601,16.7914 -98.0649,26.8662 -119.8571,-33.5826 z"
       id="path3349"
       inkscape:connector-curvature="0" />
    <text
       xml:space="preserve"
       style="font-style:normal;font-variant:normal;font-weight:normal;font-stretch:normal;line-height:0%;font-family:Lavi;-inkscape-font-specification:Lavi;text-align:center;letter-spacing:0px;word-spacing:0px;text-anchor:middle;fill:#000000;fill-opacity:1;stroke:none"
       x="1875.2543"
       y="1940.5841"
       id="text4246-9-6-2-4-7-38"><tspan
         sodipodi:role="line"
         style="font-size:45px;line-height:1.25"
         x="1875.2543"
         y="1940.5841"
         id="tspan4364-4">&quot;Kami&quot;</tspan><tspan
         sodipodi:role="line"
         style="font-size:45px;line-height:1.25"
         x="1875.2543"
         y="1996.8341"
         id="tspan1108">?</tspan></text>
    <text
       xml:space="preserve"
       style="font-style:normal;font-variant:normal;font-weight:normal;font-stretch:normal;font-size:32px;line-height:0%;font-family:Lavi;-inkscape-font-specification:Lavi;text-align:center;letter-spacing:0px;word-spacing:0px;text-anchor:middle;fill:#000000;fill-opacity:1;stroke:none"
       x="386.06516"
       y="2256.429"
       id="text4246-9-6-2-4-7-3-4-8-5"><tspan
         sodipodi:role="line"
         style="font-size:32px;line-height:1.25"
         x="386.06516"
         y="2265.7297"
         id="tspan4251" /><tspan
         sodipodi:role="line"
         style="font-size:32px;line-height:1.25"
         x="391.69016"
         y="2285.7297"
         id="tspan1114">Mga </tspan><tspan
         sodipodi:role="line"
         style="font-size:32px;line-height:1.25"
         x="386.06516"
         y="2325.7297"
         id="tspan1118">nene,</tspan><tspan
         sodipodi:role="line"
         style="font-size:32px;line-height:1.25"
         x="391.69016"
         y="2365.7297"
         id="tspan3604">Andito </tspan><tspan
         sodipodi:role="line"
         style="font-size:32px;line-height:1.25"
         x="386.06516"
         y="2405.7297"
         id="tspan1110">na tayo,</tspan></text>
    <text
       xml:space="preserve"
       style="font-style:normal;font-variant:normal;font-weight:normal;font-stretch:normal;font-size:32px;line-height:0%;font-family:Lavi;-inkscape-font-specification:Lavi;text-align:center;letter-spacing:0px;word-spacing:0px;text-anchor:middle;fill:#000000;fill-opacity:1;stroke:none;"
       x="610.89648"
       y="2380.2437"
       id="text4246-9-6-2-4-7-3-4-8-5-3"><tspan
         sodipodi:role="line"
         style="font-size:32px;line-height:1.25;"
         x="615.58398"
         y="2380.2437"
         id="tspan4580-41"> </tspan><tspan
         sodipodi:role="line"
         style="font-size:32px;line-height:1.25;"
         x="615.58398"
         y="2413.5769"
         id="tspan3613">papayagan </tspan><tspan
         sodipodi:role="line"
         style="font-size:32px;line-height:1.25;"
         x="615.58398"
         y="2446.9104"
         id="tspan1125">ko kayong </tspan><tspan
         sodipodi:role="line"
         style="font-size:32px;line-height:1.25;"
         x="615.58398"
         y="2480.2437"
         id="tspan1127">makilala </tspan><tspan
         sodipodi:role="line"
         style="font-size:32px;line-height:1.25;"
         x="610.89648"
         y="2513.5769"
         id="tspan1129">ang guro.</tspan><tspan
         sodipodi:role="line"
         style="font-size:32px;line-height:1.25;"
         x="615.58398"
         y="2546.9104"
         id="tspan4251-3"> </tspan></text>
    <text
       xml:space="preserve"
       style="font-style:normal;font-variant:normal;font-weight:normal;font-stretch:normal;font-size:32px;line-height:0%;font-family:Lavi;-inkscape-font-specification:Lavi;text-align:center;letter-spacing:0px;word-spacing:0px;text-anchor:middle;fill:#000000;fill-opacity:1;stroke:none"
       x="900.01062"
       y="2563.3235"
       id="text4246-9-6-2-4-7-3-4-8-5-3-2"><tspan
         sodipodi:role="line"
         style="font-size:32px;line-height:1.25"
         x="905.63562"
         y="2563.3235"
         id="tspan3624">Matatagpuan </tspan><tspan
         sodipodi:role="line"
         style="font-size:32px;line-height:1.25"
         x="905.63562"
         y="2603.3235"
         id="tspan1133">siya duon sa </tspan><tspan
         sodipodi:role="line"
         style="font-size:32px;line-height:1.25"
         x="905.63562"
         y="2643.3235"
         id="tspan1139">tuktok nitong </tspan><tspan
         sodipodi:role="line"
         style="font-size:32px;line-height:1.25"
         x="900.01062"
         y="2683.3235"
         id="tspan1141">bundok.</tspan><tspan
         sodipodi:role="line"
         style="font-size:32px;line-height:1.25"
         x="905.63562"
         y="2723.3235"
         id="tspan4251-3-4"> </tspan></text>
    <path
       style="fill:#ffffff;fill-rule:evenodd;stroke:none;stroke-width:1.00822318"
       d="m 1678.7289,2873.1242 c 8.5898,16.5933 28.1289,40.1018 31.4024,53.336 -24.4892,16.6548 -44.7522,-10.8735 -64.3692,-45.1563 14.6939,64.406 -8.5904,64.3451 -44.3984,43.0235 18.2967,38.6871 -34.2456,8.3734 -76.8574,-13.7442 49.2621,35.4035 100.8598,71.9274 51.0996,59.8399 38.9743,43.7748 16.0289,42.2615 -1.1622,44.955 24.6921,20.3577 -16.9267,11.0525 -41.1914,9.5118 37.7672,14.1144 55.5125,26.4661 43.5215,36.1972 29.6601,5.6916 9.7781,15.7129 -4.0996,22.793 40.9432,31.6406 39.156,105.524 9.4375,132.875 12.6941,10.428 44.9419,21.9781 -9.293,42.7188 30.8122,6.878 34.8777,16.0149 6.2989,27.9101 40.6881,17.8045 7.9175,19.7302 -3.0215,26.375 31.1288,3.1533 36.6082,12.0316 -29.0274,36.7793 54.9972,-6.9315 52.555,15.6535 64.7208,30.7324 -1.7168,-28.9103 14.8845,-3.4563 23.4453,-1.8672 -1.5304,-21.1406 12.3096,-18.7053 40.7871,6.1856 -0.3993,-7.7877 1.5249,-11.9113 5.1816,-13.2988 -1.4044,3.9632 -3.1112,8.3656 -5.1816,13.2988 5.0714,-5.4372 9.5811,-9.7281 13.5957,-13.0059 7.1687,2.0698 16.6651,7.8137 27.2422,15.2617 0.01,0.3604 0.019,0.7086 0.022,1.0762 0.1689,-0.2415 0.3373,-0.4678 0.5058,-0.7051 14.9466,10.5692 31.9972,24.4573 47.7129,36.2403 -8.5898,-16.5933 -28.127,-40.1017 -31.4004,-53.336 24.4889,-16.6539 44.7504,10.8738 64.3672,45.1563 -14.6939,-64.406 8.5904,-64.345 44.3984,-43.0235 -18.2967,-38.6871 34.2457,-8.3734 76.8575,13.7442 -49.2621,-35.4035 -100.8599,-71.9274 -51.0997,-59.8399 -38.9743,-43.7748 -16.0288,-42.2614 1.1622,-44.955 -24.692,-20.3576 16.9267,-11.0524 41.1914,-9.5117 -37.7672,-14.1144 -55.5125,-26.4662 -43.5215,-36.1973 -29.6601,-5.6916 -9.7781,-15.7129 4.0996,-22.793 -40.9432,-31.6406 -39.156,-105.524 -9.4375,-132.875 -12.6941,-10.428 -44.9418,-21.978 9.293,-42.7187 -30.8121,-6.878 -34.8777,-16.015 -6.2989,-27.9102 -40.6881,-17.8045 -7.9175,-19.7302 3.0215,-26.375 -31.1288,-3.1533 -36.6081,-12.0316 29.0274,-36.7793 -54.9971,6.9315 -52.5549,-15.6535 -64.7207,-30.7324 1.7168,28.9103 -14.8846,3.4563 -23.4454,1.8672 1.5304,21.1406 -12.3096,18.7053 -40.7871,-6.1856 0.3993,7.7877 -1.523,11.9113 -5.1797,13.2989 1.4044,-3.9633 3.1093,-8.3657 5.1797,-13.2989 -5.0717,5.4375 -9.5809,9.7281 -13.5957,13.0059 -7.1685,-2.0701 -16.6657,-7.8141 -27.2422,-15.2617 -0.01,-0.3604 -0.019,-0.7086 -0.021,-1.0762 -0.1694,0.2421 -0.337,0.4692 -0.5059,0.707 -14.9469,-10.5692 -31.9968,-24.459 -47.7129,-36.2422 z"
       id="path4656"
       inkscape:connector-curvature="0" />
    <path
       style="fill:#ffffff;fill-rule:evenodd;stroke:none;stroke-width:1.17008042px;stroke-linecap:butt;stroke-linejoin:miter;stroke-opacity:1"
       d="m 1354.5906,3144.0409 163.1752,69.1782 -1.5839,-33.8487 113.5078,45.0833 6.9759,-29.1891 -141.7075,-45.5434 0.034,38.633 z"
       id="path4667"
       inkscape:connector-curvature="0"
       inkscape:transform-center-x="103.12252"
       inkscape:transform-center-y="-6.237049" />
    <text
       xml:space="preserve"
       style="font-style:normal;font-variant:normal;font-weight:normal;font-stretch:normal;line-height:1;font-family:Lavi;-inkscape-font-specification:Lavi;text-align:center;letter-spacing:0px;word-spacing:0px;text-anchor:middle;fill:#ffffff;fill-opacity:1;stroke:#ffffff;stroke-width:1.54220855;stroke-miterlimit:4;stroke-dasharray:none;stroke-opacity:1"
       x="887.05945"
       y="386.32269"
       id="text4246-6-6-6-3-9-0"
       transform="matrix(0.92481111,0,-0.17497469,1.0813019,0,0)"><tspan
         sodipodi:role="line"
         style="font-size:51.40695572px;line-height:1;fill:#ffffff;stroke:#ffffff;stroke-width:1.54220855;stroke-miterlimit:4;stroke-dasharray:none;stroke-opacity:1"
         x="896.09583"
         y="386.32269"
         id="tspan4182-3-7-6">Guro ng </tspan><tspan
         sodipodi:role="line"
         style="font-size:51.40695572px;line-height:1;fill:#ffffff;stroke:#ffffff;stroke-width:1.54220855;stroke-miterlimit:4;stroke-dasharray:none;stroke-opacity:1"
         x="887.05945"
         y="437.72964"
         id="tspan906">Tuktok-Bundok</tspan></text>
    <text
       xml:space="preserve"
       style="font-style:normal;font-variant:normal;font-weight:normal;font-stretch:normal;line-height:1;font-family:Lavi;-inkscape-font-specification:Lavi;text-align:center;letter-spacing:0px;word-spacing:0px;text-anchor:middle;fill:#ffffff;fill-opacity:1;stroke:none"
       x="780.61798"
       y="541.94611"
       id="text4246-9-9"><tspan
         sodipodi:role="line"
         style="font-size:45px;line-height:1;fill:#ffffff"
         x="788.52814"
         y="541.94611"
         id="tspan3584">kailangan nating </tspan><tspan
         sodipodi:role="line"
         style="font-size:45px;line-height:1;fill:#ffffff"
         x="788.52814"
         y="586.94611"
         id="tspan914">    lahat ng                  </tspan></text>
    <flowRoot
       xml:space="preserve"
       id="flowRoot886"
       style="fill:black;fill-opacity:1;stroke:none;font-family:sans-serif;font-style:normal;font-weight:normal;font-size:40px;line-height:1.25;letter-spacing:0px;word-spacing:0px"><flowRegion
         id="flowRegion888"><rect
           id="rect890"
           width="495.62881"
           height="369.38373"
           x="741.10535"
           y="398.3064" /></flowRegion><flowPara
         id="flowPara892" /></flowRoot>    <flowRoot
       xml:space="preserve"
       id="flowRoot894"
       style="font-style:normal;font-variant:normal;font-weight:normal;font-stretch:normal;font-size:45.33333206px;line-height:1.25;font-family:Lavi;-inkscape-font-specification:Lavi;text-align:center;letter-spacing:0px;word-spacing:0px;text-anchor:middle;fill:#ffffff;fill-opacity:1;stroke:none;"
       transform="translate(-571.45431,-189.34038)"><flowRegion
         id="flowRegion896"
         style="font-style:normal;font-variant:normal;font-weight:normal;font-stretch:normal;font-size:45.33333206px;font-family:Lavi;-inkscape-font-specification:Lavi;text-align:center;text-anchor:middle;fill:#ffffff;"><rect
           id="rect898"
           width="357.69427"
           height="523.68323"
           x="759.80829"
           y="393.63065"
           style="font-style:normal;font-variant:normal;font-weight:normal;font-stretch:normal;font-size:45.33333206px;font-family:Lavi;-inkscape-font-specification:Lavi;text-align:center;text-anchor:middle;fill:#ffffff;" /></flowRegion><flowPara
         id="flowPara900">Hindi na tayo sing-bata tulad ng dati...</flowPara><flowPara
         id="flowPara902">napapanahon na naman ang pagkakataon</flowPara><flowPara
         id="flowPara904">para sa isang malaking </flowPara><flowPara
         id="flowPara952">leksyon.</flowPara></flowRoot>    <text
       xml:space="preserve"
       style="font-style:normal;font-variant:normal;font-weight:normal;font-stretch:normal;font-size:56.33301926px;line-height:0.80000001;font-family:Lavi;-inkscape-font-specification:Lavi;text-align:end;letter-spacing:0px;word-spacing:0px;text-anchor:end;fill:#ffffff;fill-opacity:1;stroke:none;stroke-width:1.40832555"
       x="1343.2853"
       y="641.68744"
       id="text946"
       transform="skewX(-34.809448)"><tspan
         sodipodi:role="line"
         id="tspan944"
         x="1363.0898"
         y="641.68744"
         style="line-height:0.80000001;text-align:end;text-anchor:end;fill:#ffffff;stroke-width:1.40832555">munting  </tspan><tspan
         sodipodi:role="line"
         x="1363.0898"
         y="686.75385"
         id="tspan948"
         style="line-height:0.80000001;text-align:end;text-anchor:end;fill:#ffffff;stroke-width:1.40832555">     aral.... </tspan><tspan
         sodipodi:role="line"
         x="1343.2853"
         y="731.82025"
         id="tspan950"
         style="line-height:0.80000001;text-align:end;text-anchor:end;fill:#ffffff;stroke-width:1.40832555" /></text>
    <text
       xml:space="preserve"
       style="font-style:normal;font-variant:normal;font-weight:normal;font-stretch:normal;line-height:0%;font-family:Lavi;-inkscape-font-specification:Lavi;text-align:center;letter-spacing:0px;word-spacing:0px;text-anchor:middle;fill:#000000;fill-opacity:1;stroke:none"
       x="1716.8142"
       y="3006.9893"
       id="text4246-9-6-2-4-7-3-4-8-5-9"><tspan
         sodipodi:role="line"
         style="font-size:45px;line-height:1.25"
         x="1724.7244"
         y="3006.9893"
         id="tspan4445">Handa </tspan><tspan
         sodipodi:role="line"
         style="font-size:45px;line-height:1.25"
         x="1724.7244"
         y="3063.2393"
         id="tspan1171">na ba </tspan><tspan
         sodipodi:role="line"
         style="font-size:45px;line-height:1.25"
         x="1716.8142"
         y="3119.4893"
         id="tspan1177">kayong</tspan></text>
    <text
       xml:space="preserve"
       style="font-style:normal;font-variant:normal;font-weight:normal;font-stretch:normal;line-height:0.89999998;font-family:Lavi;-inkscape-font-specification:Lavi;text-align:center;letter-spacing:0px;word-spacing:0px;text-anchor:middle;fill:#000000;fill-opacity:1;stroke:#000000;stroke-width:1.59401214;stroke-miterlimit:4;stroke-dasharray:none;stroke-opacity:1"
       x="2478.3452"
       y="2865.4231"
       id="text4246-6-6-6-3-9"
       transform="matrix(0.89466356,0,-0.16927076,1.1177386,0,0)"><tspan
         sodipodi:role="line"
         style="font-size:53.13374329px;line-height:0.89999998;stroke:#000000;stroke-width:1.59401214;stroke-miterlimit:4;stroke-dasharray:none;stroke-opacity:1"
         x="2487.6851"
         y="2865.4231"
         id="tspan4182-3-7">matuto </tspan><tspan
         sodipodi:role="line"
         style="font-size:53.13374329px;line-height:0.89999998;stroke:#000000;stroke-width:1.59401214;stroke-miterlimit:4;stroke-dasharray:none;stroke-opacity:1"
         x="2487.6851"
         y="2913.2434"
         id="tspan1179">ng </tspan><tspan
         sodipodi:role="line"
         style="font-size:53.13374329px;line-height:0.89999998;stroke:#000000;stroke-width:1.59401214;stroke-miterlimit:4;stroke-dasharray:none;stroke-opacity:1"
         x="2478.3452"
         y="2961.0637"
         id="tspan1181">leksyon?</tspan></text>
  </g>
</svg>
