<?xml version="1.0" encoding="UTF-8" standalone="no"?>
<!-- Created with Inkscape (http://www.inkscape.org/) -->

<svg
   xmlns:dc="http://purl.org/dc/elements/1.1/"
   xmlns:cc="http://creativecommons.org/ns#"
   xmlns:rdf="http://www.w3.org/1999/02/22-rdf-syntax-ns#"
   xmlns:svg="http://www.w3.org/2000/svg"
   xmlns="http://www.w3.org/2000/svg"
   xmlns:xlink="http://www.w3.org/1999/xlink"
   xmlns:sodipodi="http://sodipodi.sourceforge.net/DTD/sodipodi-0.dtd"
   xmlns:inkscape="http://www.inkscape.org/namespaces/inkscape"
   id="svg2"
   version="1.1"
   inkscape:version="0.92.2 (5c3e80d, 2017-08-06)"
   width="2481"
   height="3503"
   sodipodi:docname="E24P01.svg"
   inkscape:export-filename="E:\Users\jamesmichael\Downloads\Compressed\eps\ep24_The-Unity-Tree_lang-pack\lang\ph\E24P01.png"
   inkscape:export-xdpi="90"
   inkscape:export-ydpi="90">
  <metadata
     id="metadata8">
    <rdf:RDF>
      <cc:Work
         rdf:about="">
        <dc:format>image/svg+xml</dc:format>
        <dc:type
           rdf:resource="http://purl.org/dc/dcmitype/StillImage" />
        <dc:title />
      </cc:Work>
    </rdf:RDF>
  </metadata>
  <defs
     id="defs6">
    <filter
       style="color-interpolation-filters:sRGB"
       id="filter4375-4-1-1-1-9"
       inkscape:label="deevad outline effect">
      <feFlood
         id="feFlood4377-7-9-0-8-1"
         flood-opacity="1"
         flood-color="rgb(0,0,0)"
         result="flood" />
      <feComposite
         id="feComposite4379-3-8-8-2-77"
         in2="SourceGraphic"
         in="flood"
         operator="in"
         result="composite1" />
      <feMorphology
         id="feMorphology4393-1-0-49-8-9"
         operator="dilate"
         radius="4"
         result="result3" />
      <feComposite
         id="feComposite4385-9-5-7-0-8"
         in2="result3"
         in="SourceGraphic"
         operator="over"
         result="composite2" />
    </filter>
  </defs>
  <sodipodi:namedview
     pagecolor="#ffffff"
     bordercolor="#666666"
     borderopacity="1"
     objecttolerance="10"
     gridtolerance="10"
     guidetolerance="10"
     inkscape:pageopacity="0"
     inkscape:pageshadow="2"
     inkscape:window-width="1920"
     inkscape:window-height="1056"
     id="namedview4"
     showgrid="false"
     inkscape:zoom="0.17391305"
     inkscape:cx="576.84153"
     inkscape:cy="1470.4449"
     inkscape:window-x="1920"
     inkscape:window-y="0"
     inkscape:window-maximized="1"
     inkscape:current-layer="layer3"
     inkscape:snap-global="false" />
  <g
     inkscape:groupmode="layer"
     id="layer2"
     inkscape:label="artwork"
     sodipodi:insensitive="true">
    <image
       sodipodi:absref="E:\Users\jamesmichael\Downloads\Compressed\eps\ep24_The-Unity-Tree_lang-pack\lang\ph\../gfx_Pepper-and-Carrot_by-David-Revoy_E24P01.png"
       xlink:href="../gfx_Pepper-and-Carrot_by-David-Revoy_E24P01.png"
       y="0"
       x="0"
       id="image10"
       height="3503"
       width="2481" />
  </g>
  <g
     inkscape:groupmode="layer"
     id="layer3"
     inkscape:label="speechbubbles">
    <path
       style="fill:#ffffff;fill-rule:evenodd;stroke:none;stroke-width:1.27195597px;stroke-linecap:butt;stroke-linejoin:miter;stroke-opacity:1"
       d="m 836.89217,448.75701 c -14.95076,34.63582 -24.24602,65.94418 37.76466,55.29996 -84.18877,61.30764 -26.53088,52.51308 -6.29405,62.21246 -59.47067,36.44962 -50.99567,67.81157 12.58813,95.04681 -91.71663,15.39648 -47.27929,47.61511 -33.56857,76.03739 -25.79216,-0.0701 -55.36743,-7.82972 -39.86277,76.03751 -23.29477,-23.97983 -44.44196,-32.9244 -56.64712,20.73748 -18.72976,-37.27597 -38.65963,-57.74728 -62.94134,-17.2813 -35.37267,-21.49724 -56.39453,-7.11904 -71.33334,22.46566 -2.06876,-69.27009 -5.5044,-78.26553 -23.83798,-67.15237 37.69373,-58.97603 6.5778,-41.5501 -22.31887,-36.53506 16.57653,-27.44991 55.7568,-47.73899 4.19596,-96.77486 17.11224,-14.58386 38.72513,-28.02697 -14.68623,-60.48438 46.58937,-2.28964 44.83675,-26.02002 18.88232,-60.48436 43.6922,-9.09016 21.50823,-43.22398 -6.2942,-79.4937 42.64452,29.60437 78.27057,31.74963 98.60802,-25.92185 24.39573,55.8885 44.07354,45.71169 62.94119,24.19373 17.74228,21.25906 37.06936,35.1202 71.33347,-20.73748 -5.32682,32.65862 -12.19448,67.43243 31.47072,32.83436 z"
       id="path4582"
       inkscape:connector-curvature="0"
       sodipodi:nodetypes="ccccccccccccccccccc" />
    <path
       style="color:#000000;display:inline;overflow:visible;visibility:visible;fill:#ffffff;fill-opacity:1;fill-rule:nonzero;stroke:none;stroke-width:1.48114908px;marker:none;enable-background:accumulate"
       d="m 238.80865,1562.5189 c 15.3988,9.1463 32.08092,35.4603 -23.87522,29.6463 55.64694,42.1883 21.31435,77.5772 5.29088,70.0996 28.97024,5.2904 35.49456,57.761 0.35542,93.2607 29.77151,-3.885 74.56157,15.2882 65.83002,64.8847 22.55493,-2.7189 35.4063,13.1741 39.60012,45.6745 19.3035,-39.7139 33.95952,-45.4494 37.00246,33.7211 10.16258,-58.5017 21.22282,-112.8719 60.56738,-37.0779 4.42303,-21.4374 -29.33465,-78.4772 88.2612,-37.6582 -33.24632,-42.5677 -48.74046,-85.1799 39.92431,-123.5417 -29.80285,-19.7578 -48.05895,-45.6174 2.26823,-83.4519 -30.44159,-13.846 -25.16691,-67.2437 -15.78313,-85.8557 -41.49054,34.3646 -63.41652,29.9232 -58.88649,-23.9683 -77.562,80.6068 -56.96485,8.7611 -71.0911,-7.9499 -32.61531,67.2407 -55.41925,31.933 -80.96269,15.5841 -12.99902,80.7065 -52.99849,48.1122 -88.50139,46.6326 z"
       id="path3549-3"
       inkscape:connector-curvature="0"
       sodipodi:nodetypes="cccccccccccccccc" />
    <path
       style="color:#000000;display:inline;overflow:visible;visibility:visible;fill:#ffffff;fill-opacity:1;fill-rule:nonzero;stroke:none;stroke-width:1.16356885px;marker:none;enable-background:accumulate"
       d="m 1549.8481,1629.9689 c 88.2211,5.9542 158.3348,98.9511 138.8722,307.0086 -10.425,111.4471 -13.448,252.3243 -142.7039,244.8941 -129.2554,-7.4299 -127.9862,-203.6066 -130.4972,-241.1183 -2.5115,-37.5121 2.7344,-242.0435 47.2093,-276.5067 27.8402,-21.5739 59.7777,-34.7171 87.1196,-34.2777 z"
       id="path4546-6"
       inkscape:connector-curvature="0"
       sodipodi:nodetypes="cssssc" />
    <path
       style="color:#000000;display:inline;overflow:visible;visibility:visible;fill:#ffffff;fill-opacity:1;fill-rule:nonzero;stroke:none;stroke-width:1px;marker:none;enable-background:accumulate"
       d="m 1707.9376,1885.2986 31.5141,6.9248 4.2729,-17.2204 43.1705,1.271 -34.6999,8.0734 0.1804,21.2585 z"
       id="path4448"
       inkscape:connector-curvature="0"
       sodipodi:nodetypes="ccccccc" />
    <path
       style="color:#000000;display:inline;overflow:visible;visibility:visible;fill:#ffffff;fill-opacity:1;fill-rule:nonzero;stroke:none;stroke-width:0.99999994px;marker:none;enable-background:accumulate"
       d="m 148.35042,2688.5569 c -9.5518,52.3849 -44.4522,47.9738 -56.5004,33.7138 43.0392,58.6171 29.5332,95.886 -13.739799,66.0433 59.398599,101.9405 9.602499,84.293 -17.058,76.8152 56.622399,48.556 36.251799,81.7461 1.3511,101.6256 36.215399,0.4869 38.233499,62.2295 13.071399,81.9443 62.4997,25.5788 43.2211,52.1387 27.7551,101.0112 23.4952,-37.1186 44.112,-65.1948 74.1768,34.5155 -8.7063,-53.4415 13.2354,-75.066 37.5362,16.8064 1.1681,-91.0891 35.1465,-97.4938 51.053,-0.767 -0.1161,-93.9501 22.7804,-91.7379 52.0878,-48.8615 -8.1812,-65.9472 18.7952,-82.3722 61.9865,-20.7927 -38.8577,-103.2017 -14.8638,-108.3004 35.1869,-101.4112 -54.8036,-58.2253 -29.2696,-53.4208 22.6566,-65.0751 -38.1747,-12.2801 -66.7007,-43.8701 -22.1355,-109.1116 -24.8099,10.052 -51.9294,10.5697 -23.6201,-78.552 -29.8318,47.6922 -69.0032,16.5879 -68.3374,-122.3579 -19.7124,64.8295 -61.445,142.3063 -67.5984,53.3833 -6.4836,35.5583 -24.6287,44.8759 -39.3984,42.7608 -4.7498,-16.0157 -9.3478,-37.2905 -13.8126,-64.7612 -13.4153,51.7973 -30.6605,84.6657 -54.6608,3.0708 z"
       id="path3549-3-7"
       inkscape:connector-curvature="0"
       sodipodi:nodetypes="ccccccccccccccccccccc" />
    <path
       style="fill:#ffffff;stroke:none;stroke-width:1"
       d="m 1312.0471,2636.6402 c 24.8572,-23.3618 23.0898,-34.098 20.1693,-46.0928 -2.9204,-11.9949 -6.7783,-22.4564 -2.996,-29.6912 3.7822,-7.2345 11.9314,-13.7504 18.5182,-17.7105 6.5867,-3.9602 0.6895,-11.8462 0.1992,-20.4782 -0.4905,-8.632 11.6694,-54.4912 11.6694,-54.4912 0,0 15.4128,29.8223 17.3984,40.7257 1.9857,10.9032 2.7616,14.8752 2.4762,19.5352 -0.2855,4.6599 -2.4809,16.1126 -8.3834,22.0982 -5.9026,5.9855 -13.8607,8.5198 -19.1677,11.9592 -5.307,3.4394 -4.2207,13.2301 -3.7625,22.963 0.4583,9.7331 -0.6146,16.9839 -10.2491,30.0137 -8.2583,11.169 -25.872,21.1689 -25.872,21.1689 z"
       id="path3023-2"
       inkscape:connector-curvature="0"
       sodipodi:nodetypes="csssscssssssc" />
    <path
       style="color:#000000;display:inline;overflow:visible;visibility:visible;fill:#ffffff;fill-opacity:1;fill-rule:nonzero;stroke:none;stroke-width:0.90808564px;marker:none;enable-background:accumulate"
       d="m 1367.6612,2764.76 c 61.9807,-0.9777 99.5237,31.0132 104.6787,37.147 46.525,55.3604 29.3302,227.8065 -2.7546,258.0747 -26.1698,25.4165 -44.0753,31.2819 -67.4904,28.3491 -23.4149,-2.9326 -85.3957,-18.5736 -103.3013,-54.7432 -17.9055,-36.1693 -26.1697,-120.2391 -12.3961,-164.2294 13.7735,-43.9899 27.5469,-108.5085 81.2637,-104.5982 z"
       id="path3517"
       inkscape:connector-curvature="0"
       sodipodi:nodetypes="cscsccc" />
    <path
       style="color:#000000;display:inline;overflow:visible;visibility:visible;fill:#ffffff;fill-opacity:1;fill-rule:nonzero;stroke:none;stroke-width:1.21192551px;marker:none;enable-background:accumulate"
       d="m 1361.6631,3040.5935 c 43.6602,-1.2494 89.1383,22.688 103.1094,35.1823 13.9714,12.4946 27.6437,88.3136 27.6437,117.0505 0,28.737 -7.7512,150.3287 -39.1867,171.5693 -31.4353,21.2402 -55.1193,45.8325 -107.5115,32.0888 -52.3921,-13.744 -78.5884,-99.9549 -83.8275,-118.6965 -5.2392,-18.7415 -8.7321,-72.4673 -6.9858,-89.9594 1.7466,-17.4921 35.1555,-150.9832 106.7584,-147.235 z"
       id="path3357"
       inkscape:connector-curvature="0"
       inkscape:transform-center-x="-203.36004"
       inkscape:transform-center-y="267.3723"
       sodipodi:nodetypes="ccsscccc" />
    <path
       style="fill:#ffffff;fill-rule:evenodd;stroke:none;stroke-width:1.21316886px;stroke-linecap:butt;stroke-linejoin:miter;stroke-opacity:1"
       d="m 1417.0143,2352.2005 c 35.1121,8.9148 61.7528,32.9214 79.537,59.049 8.5861,12.4339 14.8781,26.6461 13.2231,41.1894 -0.9889,14.448 -6.8931,28.5601 -4.8423,43.1678 0.6773,17.7627 3.6325,35.8372 -0.5902,53.3959 -4.6076,15.609 -6.9939,31.6907 -7.1323,47.7982 2.9246,11.3633 -4.8704,21.7614 -9.5325,31.9096 -5.0362,9.1104 -10.32,18.4159 -18.11,26.0681 -10.9356,7.05 -20.4493,15.4914 -31.2875,22.6237 -5.9251,4.6669 -14.1093,4.2185 -21.6839,4.0035 -15.5106,-0.6061 -31.266,-1.6325 -46.2093,-5.4423 -9.4869,-2.2798 -12.6266,-10.7065 -16.9861,-17.1814 -9.2027,-15.3207 -16.1813,-31.5892 -27.0111,-46.2109 -5.5452,-14.4858 -2.9515,-29.8803 -2.1135,-44.7362 1.6506,-12.4483 3.9525,-24.9706 2.033,-37.5258 -1.4047,-15.9798 -5.042,-31.9111 -4.5762,-47.9482 3.197,-20.0899 11.0688,-39.3306 17.3833,-58.7995 5.5659,-17.4671 16.0315,-33.387 27.2272,-48.6624 6.3577,-8.1596 13.7475,-16.7975 25.4639,-19.6772 8.0677,-2.3606 16.7063,-2.9168 25.2074,-3.0213 z"
       id="path4365"
       inkscape:connector-curvature="0" />
    <path
       style="color:#000000;display:inline;overflow:visible;visibility:visible;fill:#ffffff;fill-opacity:1;fill-rule:nonzero;stroke:none;stroke-width:0.95303065px;marker:none;enable-background:accumulate"
       d="m 2138.3765,2310.4805 c 1.0192,26.6409 -26.0808,20.2841 -51.7366,7.0104 20.4254,53.0371 -13.4471,57.1747 -64.7579,31.9212 51.7894,52.9038 -0.1666,45.2654 -63.8949,11.5006 61.4504,52.7098 109.2539,101.9421 -11.3243,69.9975 71.4494,34.9014 103.3644,51.6967 37.9144,69.3319 63.6894,20.4263 51.8703,45.8842 -11.7295,49.5234 114.0819,31.6378 33.6148,46.6269 -12.9668,57.0819 128.697,17.2805 43.7671,39.929 -25.9405,82.7816 80.6205,-13.1685 157.8233,-29.3307 76.1624,27.5429 146.2793,-33.1417 102.5458,-6.293 21.562,48.7342 46.251,-16.6016 167.4874,-43.234 131.8189,0.1944 59.0357,-27.4544 34.4732,9.9806 30.1039,31.9747 7.7287,-7.2159 33.0062,-50.395 41.2679,-21.1522 15.0605,-21.106 27.7659,-16.9991 26.1596,12.864 12.9899,-17.3517 43.5943,-35.8112 32.5402,0.6885 19.2424,-36.5214 23.966,-6.6755 14.7559,22.5418 48.107,-56.7764 55.0606,-59.5773 59.4626,3.9012 41.8535,13.3865 125.0384,-65.5277 125.0384,-65.5277 l 10.3579,-445.3343 c 0,0 -203.9167,6.1176 -364.7936,4.424 z"
       id="path4024"
       inkscape:connector-curvature="0"
       sodipodi:nodetypes="ccccccccccccccccccccc" />
    <path
       style="fill:#ffffff;fill-rule:evenodd;stroke:none;stroke-width:0.99999994px;stroke-linecap:butt;stroke-linejoin:miter;stroke-opacity:1"
       d="m 2320.0189,2966.9466 -102.8737,31.1414 30.781,-65.8394 -54.3109,13.511 73.467,-174.0894 -83.4186,10.4305 -22.2012,199.1888 46.5569,-15.7553 -28.3923,68.2411 z"
       id="path5002"
       inkscape:connector-curvature="0"
       sodipodi:nodetypes="cccccccccc" />
    <text
       xml:space="preserve"
       style="font-style:normal;font-variant:normal;font-weight:normal;font-stretch:normal;line-height:0%;font-family:Lavi;-inkscape-font-specification:Lavi;letter-spacing:0px;word-spacing:0px;fill:#ffffff;fill-opacity:1;stroke:#000000;stroke-width:0.57625628;stroke-miterlimit:4;stroke-dasharray:none;stroke-opacity:1;filter:url(#filter4375-4-1-1-1-9)"
       x="787.65729"
       y="1584.5073"
       id="text4580"
       transform="matrix(0.47590856,-0.23101257,-0.08785973,0.61214035,2051.4196,1281.2253)"><tspan
         sodipodi:role="line"
         id="tspan4582"
         x="787.65729"
         y="1584.5073"
         style="font-size:70px;line-height:1.25;letter-spacing:5.62810278px;fill:#ffffff;stroke-width:0.57625628;stroke-miterlimit:4;stroke-dasharray:none"><tspan
           style="font-size:61.46733856px"
           id="tspan896">PAF</tspan><tspan
           style="font-size:80.40014648px;letter-spacing:5.62810278px;fill:#ffffff;stroke-width:0.57625628;stroke-miterlimit:4;stroke-dasharray:none"
           id="tspan4617">!</tspan></tspan></text>
    <path
       style="fill:#ffffff;fill-rule:evenodd;stroke:none;stroke-width:1.24519587px;stroke-linecap:butt;stroke-linejoin:miter;stroke-opacity:1"
       d="m 1911.5508,663.46635 c 18.3171,66.96583 -25.1735,57.67694 -66.1747,51.45945 54.2893,47.07455 37.1709,68.81844 -17.6466,77.18921 77.4833,41.87002 38.4877,73.78648 13.2349,106.87733 38.0796,1.2743 57.5937,20.87254 19.8525,96.9813 55.0446,-40.08441 89.3581,-35.68754 86.0272,49.48016 19.892,-77.0279 52.4369,-76.00279 92.6447,-27.7089 -33.4861,-56.4989 -38.5058,-92.83319 24.2641,-81.14757 -61.9727,-56.78782 -23.3748,-64.98576 11.029,-75.20999 -72.039,-23.61186 -50.9727,-56.11095 -4.4115,-91.04365 -44.8954,0.9414 -71.2117,-12.70375 -35.2933,-75.20998 -32.6111,10.7047 -77.5915,42.02068 -59.5573,-31.66736 -19.1766,39.47895 -39.7311,53.61574 -63.969,0 z"
       id="path907"
       inkscape:connector-curvature="0"
       sodipodi:nodetypes="ccccccccccccc" />
    <path
       sodipodi:nodetypes="ccccccccccccccccccccc"
       inkscape:connector-curvature="0"
       id="path5001"
       d="m 154.10042,2853.8694 c -9.5518,52.3849 -44.4522,47.9738 -56.5004,33.7138 43.0392,58.6171 29.5332,95.886 -13.739799,66.0433 59.398599,101.9405 9.602499,84.293 -17.058,76.8152 56.622399,48.556 36.251799,81.7461 1.3511,101.6256 36.215399,0.4869 38.233499,62.2295 13.071399,81.9443 62.4997,25.5788 43.2211,52.1387 27.7551,101.0112 23.4952,-37.1186 44.112,-65.1948 74.1768,34.5155 -8.7063,-53.4415 13.2354,-75.066 37.5362,16.8064 1.1681,-91.0891 35.1465,-97.4938 51.053,-0.767 -0.1161,-93.9501 22.7804,-91.7379 52.0878,-48.8615 -8.1812,-65.9472 18.7952,-82.3722 61.9865,-20.7927 -38.8577,-103.2017 -14.8638,-108.3004 35.1869,-101.4112 -54.8036,-58.2253 -29.2696,-53.4208 22.6566,-65.0751 -38.1747,-12.2801 -66.7007,-43.8701 -22.1355,-109.1116 -24.8099,10.052 -51.9294,10.5697 -23.6201,-78.552 -29.8318,47.6922 -69.0032,16.5879 -68.3374,-122.3579 -19.7124,64.8295 -61.445,142.3063 -67.5984,53.3833 -6.4836,35.5583 -24.6287,44.8759 -39.3984,42.7608 -4.7498,-16.0157 -9.3478,-37.2905 -13.8126,-64.7612 -13.4153,51.7973 -30.6605,84.6657 -54.6608,3.0708 z"
       style="color:#000000;display:inline;overflow:visible;visibility:visible;fill:#ffffff;fill-opacity:1;fill-rule:nonzero;stroke:none;stroke-width:0.99999994px;marker:none;enable-background:accumulate" />
    <path
       sodipodi:nodetypes="cccccccccccccccccccc"
       inkscape:connector-curvature="0"
       id="path5061"
       d="m 2147.0015,2552.4273 c 1.0192,29.3316 -26.0808,22.3328 -51.7366,7.7184 20.4254,58.3937 -13.4471,62.9492 -64.7579,35.1452 51.7894,58.2469 -0.1666,49.8371 -63.8949,12.6621 61.4504,58.0333 109.2539,112.238 -11.3243,77.0671 71.4494,38.4263 103.3644,56.9179 37.9144,76.3342 63.6894,22.4893 51.8703,50.5184 -11.7295,54.5251 114.0819,34.8331 33.6148,51.3361 -12.9668,62.847 128.697,19.0258 43.7671,43.9617 -25.9405,91.1423 80.6205,-14.4985 157.8233,-32.293 76.1624,30.3246 146.2793,-36.4889 102.5458,-6.9285 21.562,53.6563 46.251,-18.2784 167.4874,-47.6005 131.8189,0.214 59.0357,-30.2272 34.4732,10.9886 30.1039,35.204 7.7287,-7.9446 33.0062,-55.4847 41.2679,-23.2885 15.0605,-23.2376 27.7659,-18.7159 26.1596,14.1633 12.9899,-19.1042 43.5943,-39.4281 32.5402,0.758 19.2424,-40.21 23.966,-7.3497 14.7559,24.8185 48.107,-62.5107 59.4626,4.2952 59.4626,4.2952 l 86.7389,-508.9363 c 0,0 -160.411,-46.9164 -316.1362,-48.6505 z"
       style="color:#000000;display:inline;overflow:visible;visibility:visible;fill:#ffffff;fill-opacity:1;fill-rule:nonzero;stroke:none;stroke-width:0.99999988px;marker:none;enable-background:accumulate" />
  </g>
  <g
     inkscape:groupmode="layer"
     id="layer1"
     inkscape:label="txt"
     style="display:inline">
    <path
       style="color:#000000;display:inline;overflow:visible;visibility:visible;fill:#ffffff;fill-opacity:1;fill-rule:nonzero;stroke:none;stroke-width:1px;marker:none;enable-background:accumulate"
       d="m 572.86342,3039.9957 -83.39663,34.6228 -10.29733,-21.207 -54.64778,5.5614 62.7279,-27.1037 14.99068,21.2359 z"
       id="path4456"
       inkscape:connector-curvature="0"
       sodipodi:nodetypes="ccccccc" />
    <text
       xml:space="preserve"
       style="font-style:normal;font-variant:normal;font-weight:normal;font-stretch:normal;line-height:0%;font-family:Lavi;-inkscape-font-specification:Lavi;text-align:center;letter-spacing:0px;word-spacing:0px;text-anchor:middle;fill:#000000;fill-opacity:1;stroke:none"
       x="709.48663"
       y="563.39404"
       id="text4246"><tspan
         sodipodi:role="line"
         style="font-size:45px;line-height:1.25"
         x="717.39679"
         y="563.39404"
         id="tspan4812">Gusto </tspan><tspan
         sodipodi:role="line"
         style="font-size:45px;line-height:1.25"
         x="717.39679"
         y="619.64404"
         id="tspan4989">mo ng </tspan><tspan
         sodipodi:role="line"
         style="font-size:45px;line-height:1.25"
         x="717.39679"
         y="675.89404"
         id="tspan4991">unity </tspan><tspan
         sodipodi:role="line"
         style="font-size:45px;line-height:1.25"
         x="709.48663"
         y="732.14404"
         id="tspan4993">tree...</tspan></text>
    <text
       xml:space="preserve"
       style="font-style:normal;font-variant:normal;font-weight:normal;font-stretch:normal;line-height:0%;font-family:Lavi;-inkscape-font-specification:Lavi;text-align:center;letter-spacing:0px;word-spacing:0px;text-anchor:middle;fill:#000000;fill-opacity:1;stroke:none"
       x="1552.9264"
       y="1731.5458"
       id="text4246-7"><tspan
         sodipodi:role="line"
         style="font-size:45px;line-height:1.25"
         x="1560.8365"
         y="1731.5458"
         id="tspan934">Mga </tspan><tspan
         sodipodi:role="line"
         style="font-size:45px;line-height:1.25"
         x="1560.8365"
         y="1787.7958"
         id="tspan4997">bruha tayo </tspan><tspan
         sodipodi:role="line"
         style="font-size:45px;line-height:1.25"
         x="1560.8365"
         y="1844.0458"
         id="tspan4836">ng Gulo at </tspan><tspan
         sodipodi:role="line"
         style="font-size:45px;line-height:1.25"
         x="1552.9264"
         y="1900.2958"
         id="tspan4842">Pagkawasak!</tspan><tspan
         sodipodi:role="line"
         style="font-size:45px;line-height:1.25"
         x="1560.8365"
         y="1956.5458"
         id="tspan4834">Hindi tayo </tspan><tspan
         sodipodi:role="line"
         style="font-size:45px;line-height:1.25"
         x="1560.8365"
         y="2012.7959"
         id="tspan4838">gumagawa </tspan><tspan
         sodipodi:role="line"
         style="font-size:45px;line-height:1.25"
         x="1552.9264"
         y="2069.0459"
         id="tspan4840">ng ganyan</tspan><tspan
         sodipodi:role="line"
         style="font-size:45px;line-height:1.25"
         x="1552.9264"
         y="2125.2959"
         id="tspan4999">!!!</tspan></text>
    <text
       xml:space="preserve"
       style="font-style:normal;font-variant:normal;font-weight:normal;font-stretch:normal;line-height:0%;font-family:Lavi;-inkscape-font-specification:Lavi;text-align:center;letter-spacing:0px;word-spacing:0px;text-anchor:middle;fill:#000000;fill-opacity:1;stroke:none"
       x="230.33554"
       y="2828.125"
       id="text4246-7-6"><tspan
         sodipodi:role="line"
         style="font-size:45px;line-height:1.25"
         x="230.33554"
         y="2828.125"
         id="tspan4857">Mag-</tspan><tspan
         sodipodi:role="line"
         style="font-size:45px;line-height:1.25"
         x="238.2457"
         y="2884.375"
         id="tspan5025">focus ka </tspan><tspan
         sodipodi:role="line"
         style="font-size:45px;line-height:1.25"
         x="238.2457"
         y="2940.625"
         id="tspan5007">sa pagaaral </tspan><tspan
         sodipodi:role="line"
         style="font-size:45px;line-height:1.25"
         x="238.2457"
         y="2996.875"
         id="tspan4853">mo ng </tspan><tspan
         sodipodi:role="line"
         style="font-size:45px;line-height:1.25"
         x="238.2457"
         y="3053.125"
         id="tspan4859">&quot; Mahika ng </tspan><tspan
         sodipodi:role="line"
         style="font-size:45px;line-height:1.25"
         x="230.33554"
         y="3109.375"
         id="tspan5023">    Chaosah  &quot;</tspan><tspan
         sodipodi:role="line"
         style="font-size:45px;line-height:1.25"
         x="238.2457"
         y="3165.625"
         id="tspan4855">tandaan </tspan><tspan
         sodipodi:role="line"
         style="font-size:45px;line-height:1.25"
         x="230.33554"
         y="3221.875"
         id="tspan4861">mo yan!</tspan></text>
    <text
       xml:space="preserve"
       style="font-style:normal;font-variant:normal;font-weight:normal;font-stretch:normal;line-height:0%;font-family:Lavi;-inkscape-font-specification:Lavi;text-align:center;letter-spacing:0px;word-spacing:0px;text-anchor:middle;fill:#000000;fill-opacity:1;stroke:none"
       x="1424.3973"
       y="2493.7979"
       id="text4246-7-6-2"><tspan
         sodipodi:role="line"
         style="font-size:45px;line-height:1.25"
         x="1432.3075"
         y="2493.7979"
         id="tspan1069-6">Gulo at </tspan><tspan
         sodipodi:role="line"
         style="font-size:45px;line-height:1.25"
         x="1424.3973"
         y="2550.0479"
         id="tspan4863">Pagka-</tspan><tspan
         sodipodi:role="line"
         style="font-size:45px;line-height:1.25"
         x="1424.3973"
         y="2606.2979"
         id="tspan5027">wasak?</tspan></text>
    <text
       xml:space="preserve"
       style="font-style:normal;font-variant:normal;font-weight:normal;font-stretch:normal;line-height:0%;font-family:Lavi;-inkscape-font-specification:Lavi;text-align:center;letter-spacing:0px;word-spacing:0px;text-anchor:middle;fill:#000000;fill-opacity:1;stroke:none"
       x="1386.3533"
       y="2868.1912"
       id="text4246-7-6-2-0"><tspan
         sodipodi:role="line"
         style="font-size:45px;line-height:1"
         x="1394.2634"
         y="2868.1912"
         id="tspan4434">Sa </tspan><tspan
         sodipodi:role="line"
         style="font-size:45px;line-height:1"
         x="1394.2634"
         y="2913.1912"
         id="tspan5029">gantong </tspan><tspan
         sodipodi:role="line"
         style="font-size:45px;line-height:1"
         x="1394.2634"
         y="2958.1912"
         id="tspan4867">panahon </tspan><tspan
         sodipodi:role="line"
         style="font-size:45px;line-height:1"
         x="1386.3533"
         y="3003.1912"
         id="tspan4869">ng taon</tspan><tspan
         sodipodi:role="line"
         style="font-size:45px;line-height:1"
         x="1386.3533"
         y="3048.1912"
         id="tspan5041">?</tspan></text>
    <text
       xml:space="preserve"
       style="font-style:normal;font-variant:normal;font-weight:normal;font-stretch:normal;line-height:1;font-family:Lavi;-inkscape-font-specification:Lavi;text-align:center;letter-spacing:0px;word-spacing:0px;text-anchor:middle;fill:#000000;fill-opacity:1;stroke:none"
       x="1380.395"
       y="3150.2214"
       id="text4246-7-6-2-0-5"><tspan
         sodipodi:role="line"
         style="font-size:45px;line-height:1"
         x="1388.3052"
         y="3150.2214"
         id="tspan4447">Hindi ba </tspan><tspan
         sodipodi:role="line"
         style="font-size:45px;line-height:1"
         x="1388.3052"
         y="3195.2214"
         id="tspan5035">pwedeng </tspan><tspan
         sodipodi:role="line"
         style="font-size:45px;line-height:1"
         x="1388.3052"
         y="3240.2214"
         id="tspan4876">mahika ng </tspan><tspan
         sodipodi:role="line"
         style="font-size:45px;line-height:1"
         x="1388.3052"
         y="3285.2214"
         id="tspan5037">paglikha </tspan><tspan
         sodipodi:role="line"
         style="font-size:45px;line-height:1"
         x="1380.395"
         y="3330.2214"
         id="tspan4878">naman</tspan><tspan
         sodipodi:role="line"
         style="font-size:45px;line-height:1"
         x="1380.395"
         y="3375.2214"
         id="tspan5039">?</tspan><tspan
         sodipodi:role="line"
         style="font-size:45px;line-height:1"
         x="1380.395"
         y="3394.1299"
         id="tspan4880" /></text>
    <text
       xml:space="preserve"
       style="font-style:normal;font-variant:normal;font-weight:normal;font-stretch:normal;line-height:1;font-family:Lavi;-inkscape-font-specification:Lavi;text-align:center;letter-spacing:0px;word-spacing:0px;text-anchor:middle;fill:#000000;fill-opacity:1;stroke:none;stroke-width:1.60000002;stroke-miterlimit:4;stroke-dasharray:none"
       x="2219.3054"
       y="2427.7297"
       id="text4246-7-6-2-04"><tspan
         sodipodi:role="line"
         style="font-size:45px;line-height:1;stroke:none;stroke-width:1.60000002;stroke-miterlimit:4;stroke-dasharray:none"
         x="2227.2156"
         y="2427.7297"
         id="tspan4986">Malapit na </tspan><tspan
         sodipodi:role="line"
         style="font-size:45px;line-height:1;stroke:none;stroke-width:1.60000002;stroke-miterlimit:4;stroke-dasharray:none"
         x="2227.2156"
         y="2472.7297"
         id="tspan4933">ang susunod </tspan><tspan
         sodipodi:role="line"
         style="font-size:45px;line-height:1;stroke:none;stroke-width:1.60000002;stroke-miterlimit:4;stroke-dasharray:none"
         x="2227.2156"
         y="2517.7297"
         id="tspan4936">na <tspan
   style="line-height:1;fill:#d45500;stroke:#d45500;stroke-opacity:1"
   id="tspan5053">konseho ng </tspan></tspan><tspan
         sodipodi:role="line"
         style="font-size:45px;line-height:1;fill:#d45500;stroke:#d45500;stroke-width:1.60000002;stroke-miterlimit:4;stroke-dasharray:none;stroke-opacity:1"
         x="2219.3054"
         y="2562.7297"
         id="tspan5051">tatlong buwan</tspan><tspan
         sodipodi:role="line"
         style="font-size:45px;line-height:1;stroke:none;stroke-width:1.60000002;stroke-miterlimit:4;stroke-dasharray:none"
         x="2219.3054"
         y="2607.7297"
         id="tspan4939">at exams mo na!!!</tspan><tspan
         sodipodi:role="line"
         style="font-size:45px;line-height:1;stroke:#000000;stroke-width:1.60000002;stroke-miterlimit:4;stroke-dasharray:none;stroke-opacity:1"
         x="2219.3054"
         y="2626.6382"
         id="tspan4456" /><tspan
         sodipodi:role="line"
         style="font-size:45px;line-height:1;stroke:#000000;stroke-width:1.60000002;stroke-miterlimit:4;stroke-dasharray:none;stroke-opacity:1"
         x="2219.3054"
         y="2638.6382"
         id="tspan4981" /><tspan
         sodipodi:role="line"
         style="font-size:45px;line-height:1;stroke:#000000;stroke-width:1.60000002;stroke-miterlimit:4;stroke-dasharray:none;stroke-opacity:1"
         x="2219.3054"
         y="2650.6382"
         id="tspan5067" /><tspan
         sodipodi:role="line"
         style="font-size:45px;line-height:1;stroke:#000000;stroke-width:1.60000002;stroke-miterlimit:4;stroke-dasharray:none;stroke-opacity:1"
         x="2227.2156"
         y="2688.7297"
         id="tspan5069">MAG-ARAL </tspan><tspan
         sodipodi:role="line"
         style="font-size:45px;line-height:1;stroke:#000000;stroke-width:1.60000002;stroke-miterlimit:4;stroke-dasharray:none;stroke-opacity:1"
         x="2219.3054"
         y="2733.7297"
         id="tspan5055">KA DIYAN!</tspan><tspan
         sodipodi:role="line"
         style="font-size:45px;line-height:1;stroke:#000000;stroke-width:1.60000002;stroke-miterlimit:4;stroke-dasharray:none;stroke-opacity:1"
         x="2219.3054"
         y="2752.6382"
         id="tspan5071" /><tspan
         sodipodi:role="line"
         style="font-size:45px;line-height:1;stroke:#000000;stroke-width:1.60000002;stroke-miterlimit:4;stroke-dasharray:none;stroke-opacity:1"
         x="2219.3054"
         y="2764.6382"
         id="tspan5063" /><tspan
         sodipodi:role="line"
         style="font-size:45px;line-height:1;stroke:#000000;stroke-width:1.60000002;stroke-miterlimit:4;stroke-dasharray:none;stroke-opacity:1"
         x="2219.3054"
         y="2776.6382"
         id="tspan5065" /><tspan
         sodipodi:role="line"
         style="font-size:45px;line-height:1;stroke:#000000;stroke-width:1.60000002;stroke-miterlimit:4;stroke-dasharray:none;stroke-opacity:1"
         x="2227.2156"
         y="2814.7297"
         id="tspan4983">Huwag kang </tspan><tspan
         sodipodi:role="line"
         style="font-size:45px;line-height:1;stroke:#000000;stroke-width:1.60000002;stroke-miterlimit:4;stroke-dasharray:none;stroke-opacity:1"
         x="2219.3054"
         y="2859.7297"
         id="tspan5057">kukupad-kupad!</tspan><tspan
         sodipodi:role="line"
         style="font-size:45px;line-height:1;stroke:#000000;stroke-width:1.60000002;stroke-miterlimit:4;stroke-dasharray:none;stroke-opacity:1"
         x="2227.2156"
         y="2904.7297"
         id="tspan4985">Huwag kung </tspan><tspan
         sodipodi:role="line"
         style="font-size:45px;line-height:1;stroke:#000000;stroke-width:1.60000002;stroke-miterlimit:4;stroke-dasharray:none;stroke-opacity:1"
         x="2227.2156"
         y="2949.7297"
         id="tspan4987">ano-ano ang </tspan><tspan
         sodipodi:role="line"
         style="font-size:45px;line-height:1;stroke:#000000;stroke-width:1.60000002;stroke-miterlimit:4;stroke-dasharray:none;stroke-opacity:1"
         x="2219.3054"
         y="2994.7297"
         id="tspan5059">NAIISIP!</tspan></text>
    <flowRoot
       xml:space="preserve"
       id="flowRoot862"
       style="font-style:normal;font-variant:normal;font-weight:normal;font-stretch:normal;font-size:0.66666669px;line-height:318.00000668%;font-family:Neuropolitical;-inkscape-font-specification:Neuropolitical;text-align:center;letter-spacing:0px;word-spacing:0px;writing-mode:lr-tb;text-anchor:middle;fill:#000000;fill-opacity:1;stroke:none;stroke-width:1px;stroke-linecap:butt;stroke-linejoin:miter;stroke-opacity:1"><flowRegion
         id="flowRegion864"><rect
           id="rect866"
           width="103.5"
           height="5.75"
           x="1181.625"
           y="3275.875" /></flowRegion><flowPara
         id="flowPara868" /></flowRoot>    <text
       xml:space="preserve"
       style="font-style:normal;font-variant:normal;font-weight:normal;font-stretch:normal;font-size:14.71681118px;line-height:0%;font-family:Lavi;-inkscape-font-specification:Lavi;text-align:center;letter-spacing:0px;word-spacing:0px;text-anchor:middle;fill:#000000;fill-opacity:1;stroke:none;stroke-width:3;stroke-miterlimit:4;stroke-dasharray:none"
       x="2111.1946"
       y="863.22601"
       id="text4246-36"
       transform="skewX(-9.9961078)"><tspan
         sodipodi:role="line"
         style="font-size:55.18804169px;line-height:1.25;stroke-width:3;stroke-miterlimit:4;stroke-dasharray:none"
         x="2111.1946"
         y="863.22601"
         id="tspan837-3"><tspan
   style="stroke:#000000;stroke-opacity:1;stroke-width:3;stroke-miterlimit:4;stroke-dasharray:none"
   id="tspan4995">DITO</tspan>?!?</tspan></text>
    <text
       xml:space="preserve"
       style="font-style:normal;font-variant:normal;font-weight:normal;font-stretch:normal;font-size:19.04891968px;line-height:1;font-family:Lavi;-inkscape-font-specification:Lavi;text-align:center;letter-spacing:0px;word-spacing:0px;text-anchor:middle;fill:#000000;fill-opacity:1;stroke:none;stroke-width:1.99999988;stroke-miterlimit:4;stroke-dasharray:none"
       x="640.7738"
       y="1688.3997"
       id="text4246-3"
       transform="matrix(1.0148714,0,-0.1559129,0.98534652,0,0)"><tspan
         sodipodi:role="line"
         style="font-size:71.43344879px;line-height:1;stroke:#000000;stroke-width:1.99999988;stroke-miterlimit:4;stroke-dasharray:none;stroke-opacity:1"
         x="653.33044"
         y="1688.3997"
         id="tspan4252-6">HINDI </tspan><tspan
         sodipodi:role="line"
         style="font-size:71.43344879px;line-height:1;stroke:#000000;stroke-width:1.99999988;stroke-miterlimit:4;stroke-dasharray:none;stroke-opacity:1"
         x="640.7738"
         y="1759.8331"
         id="tspan4827">PWEDE!</tspan></text>
    <flowRoot
       xml:space="preserve"
       id="flowRoot4814"
       style="fill:black;fill-opacity:1;stroke:none;font-family:sans-serif;font-style:normal;font-weight:normal;font-size:40px;line-height:1.25;letter-spacing:0px;word-spacing:0px"><flowRegion
         id="flowRegion4816"><rect
           id="rect4818"
           width="117.91006"
           height="227.68839"
           x="1087.6187"
           y="3161.4675" /></flowRegion><flowPara
         id="flowPara4820"></flowPara></flowRoot>  </g>
</svg>
