<?xml version="1.0" encoding="UTF-8" standalone="no"?>
<!-- Created with Inkscape (http://www.inkscape.org/) -->

<svg
   xmlns:dc="http://purl.org/dc/elements/1.1/"
   xmlns:cc="http://creativecommons.org/ns#"
   xmlns:rdf="http://www.w3.org/1999/02/22-rdf-syntax-ns#"
   xmlns:svg="http://www.w3.org/2000/svg"
   xmlns="http://www.w3.org/2000/svg"
   xmlns:xlink="http://www.w3.org/1999/xlink"
   xmlns:sodipodi="http://sodipodi.sourceforge.net/DTD/sodipodi-0.dtd"
   xmlns:inkscape="http://www.inkscape.org/namespaces/inkscape"
   id="svg2"
   version="1.1"
   inkscape:version="0.92.2 (5c3e80d, 2017-08-06)"
   width="2481"
   height="3503"
   sodipodi:docname="E26P03.svg"
   inkscape:export-filename="E:\Users\jamesmichael\Downloads\Compressed\eps\ep26_Books-Are-Great_lang-pack\lang\ph\E26P03.png"
   inkscape:export-xdpi="90"
   inkscape:export-ydpi="90">
  <metadata
     id="metadata8">
    <rdf:RDF>
      <cc:Work
         rdf:about="">
        <dc:format>image/svg+xml</dc:format>
        <dc:type
           rdf:resource="http://purl.org/dc/dcmitype/StillImage" />
        <dc:title />
      </cc:Work>
    </rdf:RDF>
  </metadata>
  <defs
     id="defs6" />
  <sodipodi:namedview
     pagecolor="#ffffff"
     bordercolor="#666666"
     borderopacity="1"
     objecttolerance="10"
     gridtolerance="10"
     guidetolerance="10"
     inkscape:pageopacity="0"
     inkscape:pageshadow="2"
     inkscape:window-width="1920"
     inkscape:window-height="1033"
     id="namedview4"
     showgrid="false"
     inkscape:zoom="0.20100388"
     inkscape:cx="413.85632"
     inkscape:cy="2600.1857"
     inkscape:window-x="0"
     inkscape:window-y="47"
     inkscape:window-maximized="0"
     inkscape:current-layer="layer1" />
  <g
     inkscape:groupmode="layer"
     id="layer2"
     inkscape:label="artwork"
     sodipodi:insensitive="true">
    <image
       sodipodi:absref="E:\Users\jamesmichael\Downloads\Compressed\eps\ep26_Books-Are-Great_lang-pack\lang\ph\../gfx_Pepper-and-Carrot_by-David-Revoy_E26P03.png"
       xlink:href="../gfx_Pepper-and-Carrot_by-David-Revoy_E26P03.png"
       width="2481"
       height="3503"
       id="image10"
       x="0"
       y="0" />
  </g>
  <g
     inkscape:groupmode="layer"
     id="layer3"
     inkscape:label="speechbubbles"
     style="opacity:1">
    <path
       style="color:#000000;display:inline;overflow:visible;visibility:visible;fill:#ffffff;fill-opacity:1;fill-rule:nonzero;stroke:none;stroke-width:0.94309884px;marker:none;enable-background:accumulate"
       d="m 509.87638,691.94929 c 26.98761,20.98345 46.20731,279.83311 -14.82975,339.63031 -42.5367,41.6726 -124.10935,25.5966 -145.34442,-10.1223 -21.23515,-35.71872 -27.21564,-208.16666 -16.40149,-257.17934 9.7247,-44.07486 30.6561,-90.33786 86.36645,-92.77691 22.73759,-0.99546 63.22153,-0.53527 90.20921,20.44824 z"
       id="path4040"
       inkscape:connector-curvature="0"
       sodipodi:nodetypes="zssssz" />
    <path
       style="fill:#ffffff;stroke:none;stroke-width:1.49752307"
       d="m 497.30898,1060.6113 c -93.36265,34.4916 -81.9993,13.2661 -60.7328,-11.2025 21.26637,-24.4685 15.94185,-33.9999 3.61165,-34.1317 -80.30616,35.5201 -119.61468,15.7908 -31.49347,-42.56024 -105.22859,46.66484 16.97431,0.15692 -17.28613,71.41754 21.31603,-4.199 22.93405,1.8924 14.35267,16.7033 -8.58185,14.8112 -14.94991,40.6754 26.36668,25.3018 41.31676,-15.3738 65.1814,-25.5282 65.1814,-25.5282 z"
       id="path3023"
       inkscape:connector-curvature="0"
       sodipodi:nodetypes="cscccssc" />
    <path
       style="color:#000000;display:inline;overflow:visible;visibility:visible;fill:#ffffff;fill-opacity:1;fill-rule:nonzero;stroke:none;stroke-width:1.12119806px;marker:none;enable-background:accumulate"
       d="m 332.21588,1623.064 c 16.17243,-3.2641 104.40549,25.4234 101.55448,146.569 -2.85111,121.1457 -63.22833,149.7189 -85.03257,150.4559 -21.80416,0.737 -57.47057,-26.1701 -64.08826,-43.4863 -6.61759,-17.316 -22.74959,-62.6212 -20.37378,-92.5439 2.37611,-29.9226 -9.2887,-69.9702 16.20013,-116.107 20.25891,-36.6699 47.52376,-42.5713 51.74,-44.8877 z"
       id="path3365"
       inkscape:connector-curvature="0"
       sodipodi:nodetypes="cssccsc" />
    <path
       style="color:#000000;display:inline;overflow:visible;visibility:visible;fill:#ffffff;fill-opacity:1;fill-rule:nonzero;stroke:none;stroke-width:1.00914943px;marker:none;enable-background:accumulate"
       d="m 1250.9317,2247.7163 c 22.1849,4.418 149.6664,13.1391 141.2009,-182.4138 -7.4239,-171.4874 -110.4476,-196.775 -140.3152,-197.5419 -29.8679,-0.7668 -60.2079,12.6649 -77.7478,43.1168 -16.8163,32.6411 -26.4305,90.2679 -22.8289,132.6238 3.6018,42.3556 0.5615,99.1414 17.7756,142.766 11.8408,30.0078 50.8963,56.6223 81.9154,61.4491 z"
       id="path3365-5"
       inkscape:connector-curvature="0"
       sodipodi:nodetypes="cssccsc" />
    <path
       style="color:#000000;display:inline;overflow:visible;visibility:visible;fill:#ffffff;fill-opacity:1;fill-rule:nonzero;stroke:none;stroke-width:1px;marker:none;enable-background:accumulate"
       d="m 1221.6867,2163.1422 c -6.3125,51.7887 -21.0512,130.41 -74.7166,47.8406 7.8058,25.8691 67.3544,133.4923 93.2144,-6.1443 7.5039,-40.5185 -2.0789,-35.4946 -6.2677,-43.6534 -4.1886,-8.1589 -12.2301,1.9571 -12.2301,1.9571 z"
       id="path4064-3"
       inkscape:connector-curvature="0"
       sodipodi:nodetypes="ccszc" />
    <path
       style="fill:#ffffff;stroke:none;stroke-width:0.8982026"
       d="m 307.26382,2526.7483 c 187.93146,-25.9048 166.67799,55.2133 167.86853,263.7663 1.51723,265.7582 -41.1226,267.4358 -121.54829,265.2276 -173.97386,-4.7767 -224.2287,-58.7804 -212.88591,-333.7142 9.95358,-241.2622 62.14992,-220.7192 166.56567,-195.2797 z"
       id="path3280-8"
       inkscape:connector-curvature="0"
       sodipodi:nodetypes="csssc" />
    <path
       style="color:#000000;display:inline;overflow:visible;visibility:visible;fill:#ffffff;fill-opacity:1;fill-rule:nonzero;stroke:none;stroke-width:1.09098148px;marker:none;enable-background:accumulate"
       d="m 343.86303,3052.0364 c 4.39328,24.8486 39.98706,46.2403 153.67566,-13.4403 -82.97981,50.1572 -162.92278,79.8388 -201.38583,42.4926 -51.42406,-49.931 -11.1688,-82.0425 -11.1688,-82.0425 z"
       id="path4064-6"
       inkscape:connector-curvature="0"
       sodipodi:nodetypes="ccscc" />
    <path
       style="color:#000000;display:inline;overflow:visible;visibility:visible;fill:#ffffff;fill-opacity:1;fill-rule:nonzero;stroke:none;stroke-width:1.38842034px;marker:none;enable-background:accumulate"
       d="m 1692.4144,2572.5844 c 25.1964,-3.1624 137.2153,45.7691 120.4176,238.6837 -16.7976,192.9144 -76.8473,220.3525 -132.54,222.2752 -57.3923,-3.3333 -99.2657,-42.011 -107.6646,-70.4738 -8.3987,-28.4627 -20.0565,-71.2453 -21.8366,-150.2203 -0.08,-91.2388 3.449,-145.0241 49.1958,-202.7979 40.5762,-55.1092 85.7089,-34.3042 92.4278,-37.4669 z"
       id="path3365-7"
       inkscape:connector-curvature="0"
       sodipodi:nodetypes="cscsccc" />
    <path
       style="color:#000000;display:inline;overflow:visible;visibility:visible;fill:#ffffff;fill-opacity:1;fill-rule:nonzero;stroke:none;stroke-width:0.78707337px;marker:none;enable-background:accumulate"
       d="m 404.09946,456.44605 c 21.23758,18.57174 36.36229,223.10418 -11.6701,276.02861 -33.47374,36.88302 -94.02588,34.93795 -110.73656,3.32444 -16.71073,-31.61347 -21.41702,-184.24124 -12.90696,-227.62068 7.65275,-39.00915 24.12445,-79.95495 67.96505,-82.11366 17.89307,-0.88105 46.11094,11.8095 67.34857,30.38129 z"
       id="path4040-3"
       inkscape:connector-curvature="0"
       sodipodi:nodetypes="zssssz" />
  </g>
  <g
     inkscape:groupmode="layer"
     id="layer1"
     inkscape:label="txt">
    <text
       xml:space="preserve"
       style="font-style:normal;font-variant:normal;font-weight:normal;font-stretch:normal;font-size:10.5905962px;line-height:0%;font-family:Lavi;-inkscape-font-specification:Lavi;text-align:center;letter-spacing:0px;word-spacing:0px;text-anchor:middle;fill:#000000;fill-opacity:1;stroke:none;stroke-width:0.8825497"
       x="430.07236"
       y="798.24457"
       id="text4246-5"><tspan
         sodipodi:role="line"
         style="font-size:39.71473694px;line-height:1.25;stroke-width:0.8825497"
         x="437.05347"
         y="798.24457"
         id="tspan439">handa </tspan><tspan
         sodipodi:role="line"
         style="font-size:39.71473694px;line-height:1.25;stroke-width:0.8825497"
         x="437.05347"
         y="847.888"
         id="tspan8331">ka na </tspan><tspan
         sodipodi:role="line"
         style="font-size:39.71473694px;line-height:1.25;stroke-width:0.8825497"
         x="437.05347"
         y="897.53143"
         id="tspan8294">bang </tspan><tspan
         sodipodi:role="line"
         style="font-size:39.71473694px;line-height:1.25;stroke-width:0.8825497"
         x="430.07236"
         y="947.1748"
         id="tspan8333">mabasa</tspan><tspan
         sodipodi:role="line"
         style="font-size:39.71473694px;line-height:1.25;stroke-width:0.8825497"
         x="430.07236"
         y="996.81824"
         id="tspan8335">?</tspan><tspan
         sodipodi:role="line"
         style="font-size:39.71473694px;line-height:1.25;stroke-width:0.8825497"
         x="430.07236"
         y="1013.175"
         id="tspan8292" /></text>
    <text
       xml:space="preserve"
       style="font-style:normal;font-variant:normal;font-weight:normal;font-stretch:normal;line-height:0%;font-family:Lavi;-inkscape-font-specification:Lavi;text-align:center;letter-spacing:0px;word-spacing:0px;text-anchor:middle;fill:#000000;fill-opacity:1;stroke:none"
       x="351.44214"
       y="1757.9678"
       id="text4246-1"><tspan
         sodipodi:role="line"
         style="font-style:normal;font-variant:normal;font-weight:bold;font-stretch:normal;font-size:45px;line-height:1.25;font-family:Lavi;-inkscape-font-specification:'Lavi Bold'"
         x="351.44214"
         y="1757.9678"
         id="tspan887">Hahaha</tspan><tspan
         sodipodi:role="line"
         style="font-style:normal;font-variant:normal;font-weight:bold;font-stretch:normal;font-size:45px;line-height:1.25;font-family:Lavi;-inkscape-font-specification:'Lavi Bold'"
         x="351.44214"
         y="1814.2178"
         id="tspan8341">haha!</tspan></text>
    <text
       xml:space="preserve"
       style="font-style:normal;font-variant:normal;font-weight:normal;font-stretch:normal;font-size:13.49506664px;line-height:0%;font-family:Lavi;-inkscape-font-specification:Lavi;text-align:center;letter-spacing:0px;word-spacing:0px;text-anchor:middle;fill:#000000;fill-opacity:1;stroke:none;stroke-width:0.99999994"
       x="1263.1724"
       y="1944.9309"
       id="text4246-1-3"
       transform="scale(0.99789912,1.0021053)"><tspan
         sodipodi:role="line"
         style="font-style:normal;font-variant:normal;font-weight:bold;font-stretch:normal;font-size:50.60649872px;line-height:1.25;font-family:Lavi;-inkscape-font-specification:'Lavi Bold';stroke-width:0.99999994"
         x="1272.068"
         y="1944.9309"
         id="tspan914">kaya </tspan><tspan
         sodipodi:role="line"
         style="font-style:normal;font-variant:normal;font-weight:bold;font-stretch:normal;font-size:50.60649872px;line-height:1.25;font-family:Lavi;-inkscape-font-specification:'Lavi Bold';stroke-width:0.99999994"
         x="1272.068"
         y="2008.189"
         id="tspan8343">din ng </tspan><tspan
         sodipodi:role="line"
         style="font-style:normal;font-variant:normal;font-weight:bold;font-stretch:normal;font-size:50.60649872px;line-height:1.25;font-family:Lavi;-inkscape-font-specification:'Lavi Bold';stroke-width:0.99999994"
         x="1272.068"
         y="2071.4473"
         id="tspan8301">libro </tspan><tspan
         sodipodi:role="line"
         style="font-style:normal;font-variant:normal;font-weight:bold;font-stretch:normal;font-size:50.60649872px;line-height:1.25;font-family:Lavi;-inkscape-font-specification:'Lavi Bold';stroke-width:0.99999994"
         x="1272.068"
         y="2134.7053"
         id="tspan8345">natin </tspan><tspan
         sodipodi:role="line"
         style="font-style:normal;font-variant:normal;font-weight:bold;font-stretch:normal;font-size:50.60649872px;line-height:1.25;font-family:Lavi;-inkscape-font-specification:'Lavi Bold';stroke-width:0.99999994"
         x="1263.1724"
         y="2197.9634"
         id="tspan8347">yan!</tspan></text>
    <text
       xml:space="preserve"
       style="font-style:normal;font-variant:normal;font-weight:normal;font-stretch:normal;font-size:11.40636063px;line-height:1;font-family:Lavi;-inkscape-font-specification:Lavi;text-align:center;letter-spacing:0px;word-spacing:0px;text-anchor:middle;fill:#000000;fill-opacity:1;stroke:none;stroke-width:0.95053005"
       x="312.78952"
       y="2634.6387"
       id="text4246-5-5"><tspan
         sodipodi:role="line"
         style="font-size:42.7738533px;line-height:1;text-align:center;text-anchor:middle;stroke-width:0.95053005"
         x="312.78952"
         y="2634.6387"
         id="tspan851">At wala pang</tspan><tspan
         sodipodi:role="line"
         style="font-size:42.7738533px;line-height:1;text-align:center;text-anchor:middle;stroke-width:0.95053005"
         x="320.30835"
         y="2677.4126"
         id="tspan8349"> 10 minutes </tspan><tspan
         sodipodi:role="line"
         style="font-size:42.7738533px;line-height:1;text-align:center;text-anchor:middle;stroke-width:0.95053005"
         x="320.30835"
         y="2720.1863"
         id="tspan8317">nasa </tspan><tspan
         sodipodi:role="line"
         style="font-size:42.7738533px;line-height:1;text-align:center;text-anchor:middle;stroke-width:0.95053005"
         x="320.30838"
         y="2762.9602"
         id="tspan8351">treasure room </tspan><tspan
         sodipodi:role="line"
         style="font-size:42.7738533px;line-height:1;text-align:center;text-anchor:middle;stroke-width:0.95053005"
         x="312.78952"
         y="2805.7341"
         id="tspan8353">na tayo,</tspan><tspan
         sodipodi:role="line"
         style="font-size:42.7738533px;line-height:1;text-align:center;text-anchor:middle;stroke-width:0.95053005"
         x="320.30838"
         y="2848.5081"
         id="tspan8355">namimitas ng </tspan><tspan
         sodipodi:role="line"
         style="font-size:42.7738533px;line-height:1;text-align:center;text-anchor:middle;stroke-width:0.95053005"
         x="320.30835"
         y="2891.2817"
         id="tspan8357">mahiwagang </tspan><tspan
         sodipodi:role="line"
         style="font-size:42.7738533px;line-height:1;text-align:center;text-anchor:middle;stroke-width:0.95053005"
         x="320.30835"
         y="2934.0557"
         id="tspan8321">dahon ng </tspan><tspan
         sodipodi:role="line"
         style="font-size:42.7738533px;line-height:1;text-align:center;text-anchor:middle;stroke-width:0.95053005"
         x="320.30835"
         y="2976.8296"
         id="tspan8361">agua </tspan></text>
    <text
       xml:space="preserve"
       style="font-style:normal;font-variant:normal;font-weight:normal;font-stretch:normal;font-size:13.49506664px;line-height:0%;font-family:Lavi;-inkscape-font-specification:Lavi;text-align:center;letter-spacing:0px;word-spacing:0px;text-anchor:middle;fill:#000000;fill-opacity:1;stroke:none;stroke-width:0.99999994"
       x="1686.4967"
       y="2722.061"
       id="text4246-1-3-2"
       transform="scale(0.99789912,1.0021053)"><tspan
         sodipodi:role="line"
         style="font-style:normal;font-variant:normal;font-weight:bold;font-stretch:normal;font-size:50.60649872px;line-height:1.25;font-family:Lavi;-inkscape-font-specification:'Lavi Bold';stroke-width:0.99999994"
         x="1695.3923"
         y="2722.061"
         id="tspan8325">ang </tspan><tspan
         sodipodi:role="line"
         style="font-style:normal;font-variant:normal;font-weight:bold;font-stretch:normal;font-size:50.60649872px;line-height:1.25;font-family:Lavi;-inkscape-font-specification:'Lavi Bold';stroke-width:0.99999994"
         x="1695.3923"
         y="2785.3191"
         id="tspan8363">mumunting </tspan><tspan
         sodipodi:role="line"
         style="font-style:normal;font-variant:normal;font-weight:bold;font-stretch:normal;font-size:50.60649872px;line-height:1.25;font-family:Lavi;-inkscape-font-specification:'Lavi Bold';stroke-width:0.99999994"
         x="1695.3923"
         y="2848.5774"
         id="tspan8365">libro, </tspan><tspan
         sodipodi:role="line"
         style="font-style:normal;font-variant:normal;font-weight:bold;font-stretch:normal;font-size:50.60649872px;line-height:1.25;font-family:Lavi;-inkscape-font-specification:'Lavi Bold';stroke-width:0.99999994"
         x="1686.4967"
         y="2911.8354"
         id="tspan8329">bow</tspan></text>
    <text
       xml:space="preserve"
       style="font-style:normal;font-variant:normal;font-weight:normal;font-stretch:normal;font-size:10.5905962px;line-height:0%;font-family:Lavi;-inkscape-font-specification:Lavi;text-align:center;letter-spacing:0px;word-spacing:0px;text-anchor:middle;fill:#000000;fill-opacity:1;stroke:none;stroke-width:0.8825497"
       x="343.39139"
       y="579.64038"
       id="text4246-5-6"><tspan
         sodipodi:role="line"
         style="font-size:39.71473694px;line-height:1.25;stroke-width:0.8825497"
         x="350.3725"
         y="579.64038"
         id="tspan439-5">Ano, </tspan><tspan
         sodipodi:role="line"
         style="font-size:39.71473694px;line-height:1.25;stroke-width:0.8825497"
         x="343.39139"
         y="629.28381"
         id="tspan8337">Carrot,</tspan></text>
  </g>
</svg>
