<?xml version="1.0" encoding="UTF-8" standalone="no"?>
<svg
   xmlns:dc="http://purl.org/dc/elements/1.1/"
   xmlns:cc="http://creativecommons.org/ns#"
   xmlns:rdf="http://www.w3.org/1999/02/22-rdf-syntax-ns#"
   xmlns:svg="http://www.w3.org/2000/svg"
   xmlns="http://www.w3.org/2000/svg"
   xmlns:xlink="http://www.w3.org/1999/xlink"
   xmlns:sodipodi="http://sodipodi.sourceforge.net/DTD/sodipodi-0.dtd"
   xmlns:inkscape="http://www.inkscape.org/namespaces/inkscape"
   sodipodi:docname="E08P07.svg"
   height="2479"
   width="2481"
   inkscape:version="1.0 (4035a4fb49, 2020-05-01)"
   version="1.1"
   id="svg2">
  <metadata
     id="metadata8">
    <rdf:RDF>
      <cc:Work
         rdf:about="">
        <dc:format>image/svg+xml</dc:format>
        <dc:type
           rdf:resource="http://purl.org/dc/dcmitype/StillImage" />
        <dc:title />
      </cc:Work>
    </rdf:RDF>
  </metadata>
  <defs
     id="defs6" />
  <sodipodi:namedview
     inkscape:document-rotation="0"
     inkscape:guide-bbox="true"
     showguides="true"
     inkscape:object-nodes="true"
     inkscape:current-layer="layer2"
     inkscape:window-maximized="1"
     inkscape:window-y="-8"
     inkscape:window-x="-8"
     inkscape:cy="1103.954"
     inkscape:cx="801.41207"
     inkscape:zoom="0.30245748"
     showgrid="false"
     id="namedview4"
     inkscape:window-height="1017"
     inkscape:window-width="1920"
     inkscape:pageshadow="2"
     inkscape:pageopacity="0"
     guidetolerance="10"
     gridtolerance="10"
     objecttolerance="10"
     borderopacity="1"
     bordercolor="#666666"
     pagecolor="#ffffff" />
  <g
     sodipodi:insensitive="true"
     style="display:inline"
     inkscape:label="artwork"
     id="layer1"
     inkscape:groupmode="layer">
    <image
       sodipodi:absref="/felles/omsetting/pepper-carrot/webcomics/ep08_Pepper-s-Birthday-Party/lang/gfx_Pepper-and-Carrot_by-David-Revoy_E08P07.png"
       xlink:href="../gfx_Pepper-and-Carrot_by-David-Revoy_E08P07.png"
       y="0"
       x="0"
       id="image10"
       height="2479"
       width="2481" />
  </g>
  <g
     style="display:inline"
     inkscape:label="speechbubbles"
     id="layer3"
     inkscape:groupmode="layer">
    <path
       inkscape:connector-curvature="0"
       id="path4279"
       d="m -2021.8885,646.19917 c 1.0628,-51.0158 26.5707,-103.09442 170.0526,-112.65988 143.4819,-9.56546 203.0004,48.89014 207.2517,90.34047 4.2513,41.45033 -82.9007,96.71744 -162.6129,97.78027 -79.7121,1.06282 -214.6914,-11.69112 -214.6914,-75.46086 z"
       style="fill:#ffffff;stroke:none" />
    <path
       sodipodi:nodetypes="csccc"
       inkscape:connector-curvature="0"
       id="path4281"
       d="m -1788.0661,898.08964 c 70.1467,-44.63882 88.2148,-124.35099 45.7016,-190.24639 -42.5132,-65.8954 -82.9007,-54.20428 -82.9007,-54.20428 l 35.0734,41.45033 c 0,0 97.7803,97.78027 2.1257,203.00034 z"
       style="fill:#ffffff;stroke:none" />
  </g>
  <g
     style="display:inline"
     inkscape:label="text"
     id="layer2"
     inkscape:groupmode="layer">
    <flowRoot
       transform="matrix(1.0975447,0,0,1.1219625,-155.44113,1773.9711)"
       style="font-style:normal;font-variant:normal;font-weight:normal;font-stretch:normal;line-height:0.01%;font-family:Arial;-inkscape-font-specification:Arial;text-align:center;letter-spacing:0px;word-spacing:0px;text-anchor:middle;display:inline;fill:#a72f14;fill-opacity:1;stroke:none"
       id="flowRoot3027-8-8"
       xml:space="preserve"><flowRegion
         id="flowRegion3029-9-3"><rect
           style="text-align:center;text-anchor:middle;fill:#a72f14;fill-opacity:1"
           y="219.33444"
           x="135.21135"
           height="376.21677"
           width="2230.314"
           id="rect3031-9-1" /></flowRegion><flowPara
         style="font-size:12px;line-height:1.25"
         id="flowPara3033-3-0"> </flowPara><flowPara
         id="flowPara3067-4"
         style="font-style:normal;font-variant:normal;font-weight:normal;font-stretch:normal;font-size:48px;line-height:1.25;font-family:Lavi;-inkscape-font-specification:Lavi;text-align:center;text-anchor:middle;fill:#a72f14;fill-opacity:1">https://www.patreon.com/davidrevoy</flowPara></flowRoot>
    <flowRoot
       style="font-style:normal;font-variant:normal;font-weight:normal;font-stretch:normal;line-height:0.01%;font-family:Arial;-inkscape-font-specification:Arial;letter-spacing:0px;word-spacing:0px;display:inline;fill:#000000;fill-opacity:1;stroke:none"
       id="flowRoot3090"
       xml:space="preserve"
       transform="translate(-7.2688333,54.392769)"><flowRegion
         id="flowRegion3092"><rect
           y="1811.1038"
           x="1078.4646"
           height="17.347956"
           width="222.6321"
           id="rect3094" /></flowRegion><flowPara
         style="font-size:12px;line-height:1.25"
         id="flowPara3096"> </flowPara></flowRoot>
    <flowRoot
       transform="matrix(0.77545721,0,0,0.80077696,162.89857,94.236798)"
       style="font-style:normal;font-variant:normal;font-weight:normal;font-stretch:normal;line-height:0.01%;font-family:Arial;-inkscape-font-specification:Arial;text-align:justify;letter-spacing:0px;word-spacing:0px;text-anchor:start;display:inline;fill:#000000;fill-opacity:1;stroke:none"
       id="flowRoot2987"
       xml:space="preserve"><flowRegion
         id="flowRegion2989"><rect
           style="text-align:justify;text-anchor:start;stroke-width:1"
           y="266.68515"
           x="-141.0901"
           height="2440.8586"
           width="2996.0627"
           id="rect2991" /></flowRegion><flowPara
         id="flowPara5664"
         style="font-style:normal;font-variant:normal;font-weight:normal;font-stretch:normal;font-size:44.4154px;line-height:120%;font-family:Lavi;-inkscape-font-specification:Lavi;text-align:center;writing-mode:lr-tb;text-anchor:middle">Глеб Бузало – 獨孤欣 &amp; 獨弧悦 – Adam – Addison Lewis – A Distinguished Robot – Adrian Lord – Ahmad Ali – Aina Reich – al – Alandran – Alan Hardman – Albert Westra – Alcide – Alex – Alexander Bülow Tomassen – AlexanderKennedy – Alexander Sopicki – Alexandra Jordan – Alex Bradaric – Alexey Golubev – Alex Kotenko – Alex Lusco – Alex Silver – Alex V – Alfredo – Ali Poulton (Aunty Pol) – Allan Zieser – Alok Baikadi – Andreas Rieger – Andreas Ulmer – Andrej Kwadrin – Andrew – Andrew Godfrey – Andrey Alekseenko – Andy Gelme – Anna Orlova – anonymous – Antan Karmola – Anthony Edlin – Antoine – Antonio Mendoza – Antonio Parisi – Ardash Crowfoot – Arjun Chennu – Arne Brix – Arnulf – Arturo J. Pérez – Axel Bordelon – Axel Philipsenburg – Ayaskull – barbix – BataMoth – Bela Bargel – Ben Evans – Bernd – Bernhard Saumweber – Betsy Luntao – Birger Tuer Thorvaldsen – blacksheep33512 – Boonsak Watanavisit – Boris Fauret – Boudewijn Rempt – BoxBoy – Brent Houghton – Brett – Brett Smith – Brian Behnke – Bryan Butler – Bryan Rosander – BS – Bui Dang Hai Trieu – BXS – carlos levischi – Cedric Wohlleber – Charles – Charlotte Lacombe-bar – Chris – Chris Radcliff – Chris Sakkas – Christian Gruenwaldner – Christophe Carré – Christopher Bates – Christopher Rodriguez – Clara Dexter – codl – Colby Driedger – Conway Scott Smith – Coppin Olivier – Cuthbert Williams – Cyol – Cyrille Largillier – Cyril Paciullo – Damien – Daniel – Daniel Björkman – Daniel Lynn – Danny Grimm – Dan Stolyarov – David – David Kerdudo – David Tang – Davi Na – Davis Aites – Dawn Blair – DecMoon – Dezponia Veil – DiCola Jamn – Dmitry – Donald Hayward – Douglas Oliveira Pessoa – Doug Moen – Duke – Eitan Goldshtrom – Ejner Fergo – Enrico Billich – Enrique Lopez – epsilon – Eric Schulz – Erik Moeller – Esteban Manchado Velázquez – Faolan Grady – Fen Yun Fat – Francois Schnell – francou – freecultureftw – Garret Patterson – Gary Thomas – Ginny Hendricks – GreenAngel5 – Grigory Petrov – G. S. Davis – Guillaume – Gustav Strömbom – Happy Mimic – Helmar Suschka – Henning Döscher – Henry Ståhle – HobbyThor – Igor – Ilyas – Irina Rempt – Ivan Korotkov – Jacob – James Frazier – Jamie Sutherland – Janusz – Jared Tritsch – Jason – JDB – Jean-Baptiste Hebbrecht – Jean-Gabriel Loquet – Jeffrey Schneider – Jessey Wright – Jessica Gadling – Jhonny Rosa – Jim – Jim Street – Jiska – Joao Luiz – Joerg Raidt – Joern Konopka – joe rutledge – John – John – John Gholson – John Urquhart Ferguson – Jónatan Nilsson – Jonathan Leroy – Jonathan Ringstad – Jon Brake – Jorge Bernal – Joseph Bowman – Josh Cavalier – Juju Mendivil – Julia Velkova – Julio Avila – Justus Kat – Kailyce – Kai-Ting (Danil) Ko – Kate – Kathryn Wuerstl – Ken Mingyuan Xia – Kevin Estalella – Kevin Trévien – Kingsquee – Kroet – Kurain – La Plume – Lars Ivar Igesund – Lenod – Levi Kornelsen – Liang – Liselle – Lise-Lotte Pesonen – Lloyd Ash Pyne – Lorentz Grip – Lorenzo Leonini – Louis Yung – Luc Stepniewski – Luke Hochrein – Magnus Kronnäs – Mahwiii – Manuel – Manu Järvinen – Marc et Rick – Marco Sousa – marcus – Martin Owens – Mary Brownlee – Masked Admirer – Matthew Reynolds – Matt Lichtenwalner – mefflin ross bullis-bates – Michael – Michael F. SChönitzer – Michael Gill – Michael Pureka – Michelle Pereira Garcia – Mike Mosher – Miriam Varón – Miroslav – mjkj – Moritz Fuchs – Muriah Summer – Nazhif – Nicholas DeLateur – Nicholas Terranova – Nicki Aya – Nicola Angel – Nicolae Berbece – Nicole Heersema – Nielas Sinclair – NinjaKnight Comics – Noble Hays – Noelia Calles Marcos – Nora Czaykowski – No Reward – Nyx – Oleg Schelykalnov – Olga Bikmullina – Olivier Amrein – Olivier Brun – Olivier De Rop – Olivier Gavrois – Omar Willey – Oscar Moreno – Öykü Su Gürler – Ozone S. – Pat David – Patrick Dezothez – Patrick Gamblin – Paul – Paul – Pavel Semenov – Pet0r – Peter – Peter Moonen – Petr Vlašic – Philippe Jean Edward Bateman – Pierre Geier – Pierre Vuillemin – Pranab Shenoy – Praveen Bhamidipati – Pyves &amp; Ran – Raghavendra Kamath – Rajul Gupta – Ramel Hill – Raymond Fullon – Ray Powell – Rebecca Morris – Reorx Meng – Ret Samys – Reuben Tracey – Ricardo Muggli – rictic – RJ van der Weide – Roberto Zaghis – Robin Moussu – Roman Burdun – Rose «flash» Flashis – Rumiko Hoshino – Rustin Simons – Sally Bridgewater – Sami T – Samuel Mitson – Scott Petrovic – Sean Adams – Sebastien – Sevag Bakalian – ShadowMist – shafak – Shawn Meyer – Simon Forster – Simon Isenberg – Sonja Reimann-Klieber – Sonny W. – Soriac – Stanislav German-Evtushenko – Stanislav Vodetskyi – Stephan Theelke – Stephen Bates – Stephen Smoogen – Steven Bennett – Stuart Dickson – surt – Taedirk – TamaskanLEM – tar8156 – Tas Kartas – Terry Hancock – TheFaico – thibhul – Thomas Citharel – Thomas Courbon – Thomas Schwery – Thor Galle – Thornae – Tim Burbank – Tim J. – Tomas Hajek – Tom Savage – Travis Humble – tree – Tristy – Tyson Tan – uglyheroes – Urm – usfreitas – Vera Vukovic – Victoria – Victoria White – Vladislav Kurdyukov – Vlad Tomash – WakoTabacco – Wander – Westen Curry – Wilhelmine Faust – Xavier Claude – Yalyn Vinkindo – YaroslavYasmin – Zeni Pong – Źmicier Kušnaroŭ – zubr kabbi.</flowPara><flowPara
         id="flowPara6406"
         style="font-style:normal;font-variant:normal;font-weight:normal;font-stretch:normal;font-size:44.4154px;line-height:120%;font-family:Lavi;-inkscape-font-specification:Lavi;text-align:center;writing-mode:lr-tb;text-anchor:middle" /><flowPara
         id="flowPara6408"
         style="font-style:normal;font-variant:normal;font-weight:normal;font-stretch:normal;font-size:44.4154px;line-height:120%;font-family:Lavi;-inkscape-font-specification:Lavi;text-align:center;writing-mode:lr-tb;text-anchor:middle" /><flowPara
         id="flowPara6410"
         style="font-style:normal;font-variant:normal;font-weight:normal;font-stretch:normal;font-size:44.4154px;line-height:120%;font-family:Lavi;-inkscape-font-specification:Lavi;text-align:center;writing-mode:lr-tb;text-anchor:middle" /><flowPara
         id="flowPara6412"
         style="font-style:normal;font-variant:normal;font-weight:normal;font-stretch:normal;font-size:44.4154px;line-height:120%;font-family:Lavi;-inkscape-font-specification:Lavi;text-align:center;writing-mode:lr-tb;text-anchor:middle" /><flowPara
         id="flowPara6414"
         style="font-style:normal;font-variant:normal;font-weight:normal;font-stretch:normal;font-size:44.4154px;line-height:120%;font-family:Lavi;-inkscape-font-specification:Lavi;text-align:center;writing-mode:lr-tb;text-anchor:middle" /><flowPara
         id="flowPara6416"
         style="font-style:normal;font-variant:normal;font-weight:normal;font-stretch:normal;font-size:44.4154px;line-height:120%;font-family:Lavi;-inkscape-font-specification:Lavi;text-align:center;writing-mode:lr-tb;text-anchor:middle" /><flowPara
         id="flowPara6418"
         style="font-style:normal;font-variant:normal;font-weight:normal;font-stretch:normal;font-size:44.4154px;line-height:120%;font-family:Lavi;-inkscape-font-specification:Lavi;text-align:center;writing-mode:lr-tb;text-anchor:middle" /><flowPara
         id="flowPara6420"
         style="font-style:normal;font-variant:normal;font-weight:normal;font-stretch:normal;font-size:44.4154px;line-height:120%;font-family:Lavi;-inkscape-font-specification:Lavi;text-align:center;writing-mode:lr-tb;text-anchor:middle" /><flowPara
         id="flowPara6422"
         style="font-style:normal;font-variant:normal;font-weight:normal;font-stretch:normal;font-size:44.4154px;line-height:120%;font-family:Lavi;-inkscape-font-specification:Lavi;text-align:center;writing-mode:lr-tb;text-anchor:middle" /><flowPara
         id="flowPara6424"
         style="font-style:normal;font-variant:normal;font-weight:normal;font-stretch:normal;font-size:44.4154px;line-height:120%;font-family:Lavi;-inkscape-font-specification:Lavi;text-align:center;writing-mode:lr-tb;text-anchor:middle" /><flowPara
         id="flowPara6426"
         style="font-style:normal;font-variant:normal;font-weight:normal;font-stretch:normal;font-size:44.4154px;line-height:120%;font-family:Lavi;-inkscape-font-specification:Lavi;text-align:center;writing-mode:lr-tb;text-anchor:middle" /><flowPara
         id="flowPara6428"
         style="font-style:normal;font-variant:normal;font-weight:normal;font-stretch:normal;font-size:44.4154px;line-height:120%;font-family:Lavi;-inkscape-font-specification:Lavi;text-align:center;writing-mode:lr-tb;text-anchor:middle" /><flowPara
         id="flowPara6430"
         style="font-style:normal;font-variant:normal;font-weight:normal;font-stretch:normal;font-size:44.4154px;line-height:120%;font-family:Lavi;-inkscape-font-specification:Lavi;text-align:center;writing-mode:lr-tb;text-anchor:middle" /><flowPara
         id="flowPara6432"
         style="font-style:normal;font-variant:normal;font-weight:normal;font-stretch:normal;font-size:44.4154px;line-height:120%;font-family:Lavi;-inkscape-font-specification:Lavi;text-align:center;writing-mode:lr-tb;text-anchor:middle" /><flowPara
         id="flowPara6434"
         style="font-style:normal;font-variant:normal;font-weight:normal;font-stretch:normal;font-size:44.4154px;line-height:120%;font-family:Lavi;-inkscape-font-specification:Lavi;text-align:center;writing-mode:lr-tb;text-anchor:middle" /><flowPara
         id="flowPara6436"
         style="font-style:normal;font-variant:normal;font-weight:normal;font-stretch:normal;font-size:44.4154px;line-height:120%;font-family:Lavi;-inkscape-font-specification:Lavi;text-align:center;writing-mode:lr-tb;text-anchor:middle" /><flowPara
         id="flowPara6438"
         style="font-style:normal;font-variant:normal;font-weight:normal;font-stretch:normal;font-size:44.4154px;line-height:120%;font-family:Lavi;-inkscape-font-specification:Lavi;text-align:center;writing-mode:lr-tb;text-anchor:middle" /><flowPara
         id="flowPara6440"
         style="font-style:normal;font-variant:normal;font-weight:normal;font-stretch:normal;font-size:44.4154px;line-height:120%;font-family:Lavi;-inkscape-font-specification:Lavi;text-align:center;writing-mode:lr-tb;text-anchor:middle" /><flowPara
         id="flowPara6442"
         style="font-style:normal;font-variant:normal;font-weight:normal;font-stretch:normal;font-size:44.4154px;line-height:120%;font-family:Lavi;-inkscape-font-specification:Lavi;text-align:center;writing-mode:lr-tb;text-anchor:middle" /><flowPara
         id="flowPara6444"
         style="font-style:normal;font-variant:normal;font-weight:normal;font-stretch:normal;font-size:44.4154px;line-height:120%;font-family:Lavi;-inkscape-font-specification:Lavi;text-align:center;writing-mode:lr-tb;text-anchor:middle" /><flowPara
         id="flowPara6446"
         style="font-style:normal;font-variant:normal;font-weight:normal;font-stretch:normal;font-size:44.4154px;line-height:120%;font-family:Lavi;-inkscape-font-specification:Lavi;text-align:center;writing-mode:lr-tb;text-anchor:middle" /><flowPara
         id="flowPara6448"
         style="font-style:normal;font-variant:normal;font-weight:normal;font-stretch:normal;font-size:44.4154px;line-height:120%;font-family:Lavi;-inkscape-font-specification:Lavi;text-align:center;writing-mode:lr-tb;text-anchor:middle" /><flowPara
         id="flowPara6450"
         style="font-style:normal;font-variant:normal;font-weight:normal;font-stretch:normal;font-size:44.4154px;line-height:120%;font-family:Lavi;-inkscape-font-specification:Lavi;text-align:center;writing-mode:lr-tb;text-anchor:middle" /><flowPara
         id="flowPara6452"
         style="font-style:normal;font-variant:normal;font-weight:normal;font-stretch:normal;font-size:44.4154px;line-height:120%;font-family:Lavi;-inkscape-font-specification:Lavi;text-align:center;writing-mode:lr-tb;text-anchor:middle" /><flowPara
         id="flowPara6454"
         style="font-style:normal;font-variant:normal;font-weight:normal;font-stretch:normal;font-size:44.4154px;line-height:120%;font-family:Lavi;-inkscape-font-specification:Lavi;text-align:center;writing-mode:lr-tb;text-anchor:middle" /><flowPara
         id="flowPara6456"
         style="font-style:normal;font-variant:normal;font-weight:normal;font-stretch:normal;font-size:44.4154px;line-height:120%;font-family:Lavi;-inkscape-font-specification:Lavi;text-align:center;writing-mode:lr-tb;text-anchor:middle" /><flowPara
         id="flowPara6458"
         style="font-style:normal;font-variant:normal;font-weight:normal;font-stretch:normal;font-size:44.4154px;line-height:120%;font-family:Lavi;-inkscape-font-specification:Lavi;text-align:center;writing-mode:lr-tb;text-anchor:middle" /><flowPara
         id="flowPara6460"
         style="font-style:normal;font-variant:normal;font-weight:normal;font-stretch:normal;font-size:44.4154px;line-height:120%;font-family:Lavi;-inkscape-font-specification:Lavi;text-align:center;writing-mode:lr-tb;text-anchor:middle" /><flowPara
         id="flowPara6462"
         style="font-style:normal;font-variant:normal;font-weight:normal;font-stretch:normal;font-size:44.4154px;line-height:120%;font-family:Lavi;-inkscape-font-specification:Lavi;text-align:center;writing-mode:lr-tb;text-anchor:middle" /><flowPara
         id="flowPara6464"
         style="font-style:normal;font-variant:normal;font-weight:normal;font-stretch:normal;font-size:44.4154px;line-height:120%;font-family:Lavi;-inkscape-font-specification:Lavi;text-align:center;writing-mode:lr-tb;text-anchor:middle" /><flowPara
         id="flowPara6466"
         style="font-style:normal;font-variant:normal;font-weight:normal;font-stretch:normal;font-size:44.4154px;line-height:120%;font-family:Lavi;-inkscape-font-specification:Lavi;text-align:center;writing-mode:lr-tb;text-anchor:middle" /><flowPara
         id="flowPara6468"
         style="font-style:normal;font-variant:normal;font-weight:normal;font-stretch:normal;font-size:44.4154px;line-height:120%;font-family:Lavi;-inkscape-font-specification:Lavi;text-align:center;writing-mode:lr-tb;text-anchor:middle" /><flowPara
         id="flowPara6470"
         style="font-style:normal;font-variant:normal;font-weight:normal;font-stretch:normal;font-size:44.4154px;line-height:120%;font-family:Lavi;-inkscape-font-specification:Lavi;text-align:center;writing-mode:lr-tb;text-anchor:middle" /><flowPara
         id="flowPara6472"
         style="font-style:normal;font-variant:normal;font-weight:normal;font-stretch:normal;font-size:44.4154px;line-height:120%;font-family:Lavi;-inkscape-font-specification:Lavi;text-align:center;writing-mode:lr-tb;text-anchor:middle" /><flowPara
         id="flowPara6474"
         style="font-style:normal;font-variant:normal;font-weight:normal;font-stretch:normal;font-size:44.4154px;line-height:120%;font-family:Lavi;-inkscape-font-specification:Lavi;text-align:center;writing-mode:lr-tb;text-anchor:middle" /><flowPara
         id="flowPara6476"
         style="font-style:normal;font-variant:normal;font-weight:normal;font-stretch:normal;font-size:44.4154px;line-height:120%;font-family:Lavi;-inkscape-font-specification:Lavi;text-align:center;writing-mode:lr-tb;text-anchor:middle" /><flowPara
         id="flowPara6478"
         style="font-style:normal;font-variant:normal;font-weight:normal;font-stretch:normal;font-size:44.4154px;line-height:120%;font-family:Lavi;-inkscape-font-specification:Lavi;text-align:center;writing-mode:lr-tb;text-anchor:middle" /></flowRoot>
    <g
       transform="translate(4994.319,-611.99992)"
       style="display:inline"
       inkscape:label="speechbubbles"
       id="layer3-6">
      <path
         inkscape:connector-curvature="0"
         id="path4279-2"
         d="m -2021.8885,646.19917 c 1.0628,-51.0158 26.5707,-103.09442 170.0526,-112.65988 143.4819,-9.56546 203.0004,48.89014 207.2517,90.34047 4.2513,41.45033 -82.9007,96.71744 -162.6129,97.78027 -79.7121,1.06282 -214.6914,-11.69112 -214.6914,-75.46086 z"
         style="fill:#ffffff;stroke:none" />
      <path
         sodipodi:nodetypes="csccc"
         inkscape:connector-curvature="0"
         id="path4281-9"
         d="m -1788.0661,898.08964 c 70.1467,-44.63882 88.2148,-124.35099 45.7016,-190.24639 -42.5132,-65.8954 -82.9007,-54.20428 -82.9007,-54.20428 l 35.0734,41.45033 c 0,0 97.7803,97.78027 2.1257,203.00034 z"
         style="fill:#ffffff;stroke:none" />
    </g>
    <flowRoot
       xml:space="preserve"
       id="flowRoot3027-2"
       style="font-style:normal;font-variant:normal;font-weight:normal;font-stretch:normal;line-height:0.01%;font-family:Arial;-inkscape-font-specification:Arial;text-align:center;letter-spacing:0px;word-spacing:0px;text-anchor:middle;display:inline;fill:#000000;fill-opacity:1;stroke:none"
       transform="matrix(1.2334095,0,0,1.2851851,-464.57741,-175.5802)"><flowRegion
         id="flowRegion3029-7"><rect
           id="rect3031-0"
           width="1840.5787"
           height="230.98642"
           x="454.2001"
           y="224.47961"
           style="line-height:125%;text-align:center;letter-spacing:0px;word-spacing:0px;text-anchor:middle" /></flowRegion><flowPara
         style="font-size:12px;line-height:1.25"
         id="flowPara3033-9"> </flowPara><flowPara
         style="font-style:normal;font-variant:normal;font-weight:normal;font-stretch:normal;font-size:48px;line-height:125%;font-family:Lavi;-inkscape-font-specification:Lavi;text-align:center;letter-spacing:0px;word-spacing:0px;text-anchor:middle"
         id="flowPara4729-3">Pepar &amp; Gulrot er ein heilt fri teikneserie, med opne kjelder,</flowPara><flowPara
         style="font-style:normal;font-variant:normal;font-weight:normal;font-stretch:normal;font-size:48px;line-height:125%;font-family:Lavi;-inkscape-font-specification:Lavi;text-align:center;letter-spacing:0px;word-spacing:0px;text-anchor:middle"
         id="flowPara4227">og er sponsa av lesarane. Takk til dei 354 som støtta denne episoden:</flowPara></flowRoot>
    <flowRoot
       xml:space="preserve"
       id="flowRoot3027-8-8-2-87"
       style="font-style:normal;font-variant:normal;font-weight:normal;font-stretch:normal;line-height:0.01%;font-family:Arial;-inkscape-font-specification:Arial;text-align:center;letter-spacing:0px;word-spacing:0px;text-anchor:middle;display:inline;fill:#000000;fill-opacity:1;stroke:none"
       transform="matrix(0.91226779,0,0,0.94129239,100.12874,1765.9093)"><flowRegion
         id="flowRegion3029-9-3-5-9"><rect
           id="rect3031-9-1-6-2"
           width="2230.314"
           height="376.21677"
           x="135.21135"
           y="219.33444"
           style="text-align:center;text-anchor:middle" /></flowRegion><flowPara
         style="font-style:normal;font-variant:normal;font-weight:normal;font-stretch:normal;font-size:48px;line-height:1.25;font-family:Lavi;-inkscape-font-specification:Lavi;text-align:center;text-anchor:middle"
         id="flowPara4241">Du òg kan støtta arbeidet med neste episode av Pepar &amp; Gulrot:</flowPara></flowRoot>
    <flowRoot
       xml:space="preserve"
       id="flowRoot3027-8-8-2-8-2"
       style="font-style:normal;font-variant:normal;font-weight:normal;font-stretch:normal;line-height:0.01%;font-family:Arial;-inkscape-font-specification:Arial;text-align:center;letter-spacing:0px;word-spacing:0px;text-anchor:middle;display:inline;fill:#000000;fill-opacity:1;stroke:none"
       transform="matrix(0.78840156,0,0,0.8341601,253.70073,2086.535)"><flowRegion
         id="flowRegion3029-9-3-5-1-3"><rect
           id="rect3031-9-1-6-8-75"
           width="2230.314"
           height="376.21677"
           x="135.21135"
           y="219.33444"
           style="text-align:center;text-anchor:middle" /></flowRegion><flowPara
         style="font-size:12px;line-height:1.25"
         id="flowPara3033-3-0-2-4-9"> </flowPara><flowPara
         style="font-style:normal;font-variant:normal;font-weight:normal;font-stretch:normal;font-size:48px;line-height:1.25;font-family:Lavi;-inkscape-font-specification:Lavi;text-align:center;text-anchor:middle"
         id="flowPara3231-9-2">Verktøy: Denne episoden er 100 % teikna med fri programvare </flowPara><flowPara
         style="font-style:normal;font-variant:normal;font-weight:normal;font-stretch:normal;font-size:48px;line-height:1.25;font-family:Lavi;-inkscape-font-specification:Lavi;text-align:center;text-anchor:middle"
         id="flowPara3279-2">Krita, Inkscape på Linux Mint</flowPara><flowPara
         style="font-style:normal;font-variant:normal;font-weight:normal;font-stretch:normal;font-size:48px;line-height:1.25;font-family:Lavi;-inkscape-font-specification:Lavi;text-align:center;text-anchor:middle"
         id="flowPara3233-6-8"> </flowPara></flowRoot>
    <flowRoot
       xml:space="preserve"
       id="flowRoot3027-8-8-2-8-6-9"
       style="font-style:normal;font-variant:normal;font-weight:normal;font-stretch:normal;line-height:0.01%;font-family:Arial;-inkscape-font-specification:Arial;text-align:center;letter-spacing:0px;word-spacing:0px;text-anchor:middle;display:inline;fill:#000000;fill-opacity:1;stroke:none"
       transform="matrix(0.78840156,0,0,0.81820527,254.8995,2044.7634)"><flowRegion
         id="flowRegion3029-9-3-5-1-2-7"><rect
           id="rect3031-9-1-6-8-7-3"
           width="2230.314"
           height="376.21677"
           x="135.21135"
           y="219.33444"
           style="text-align:center;text-anchor:middle" /></flowRegion><flowPara
         style="font-size:12px;line-height:1.25"
         id="flowPara3033-3-0-2-4-3-6"> </flowPara><flowPara
         style="font-style:normal;font-variant:normal;font-weight:normal;font-stretch:normal;font-size:48px;line-height:1.25;font-family:Lavi;-inkscape-font-specification:Lavi;text-align:center;text-anchor:middle"
         id="flowPara3278-1">Open kjeldekode: Komplette kjeldefiler og skrifttypar er tilgjengelege på den offisielle nettsida</flowPara><flowPara
         style="font-style:normal;font-variant:normal;font-weight:normal;font-stretch:normal;font-size:48px;line-height:1.25;font-family:Lavi;-inkscape-font-specification:Lavi;text-align:center;text-anchor:middle"
         id="flowPara3233-6-14-2"> </flowPara></flowRoot>
    <flowRoot
       xml:space="preserve"
       id="flowRoot3027-8-8-2-8-6-3-9"
       style="font-style:normal;font-variant:normal;font-weight:normal;font-stretch:normal;line-height:0.01%;font-family:Arial;-inkscape-font-specification:Arial;text-align:center;letter-spacing:0px;word-spacing:0px;text-anchor:middle;display:inline;fill:#000000;fill-opacity:1;stroke:none"
       transform="matrix(0.78840156,0,0,0.83353067,254.82559,1931.4459)"><flowRegion
         id="flowRegion3029-9-3-5-1-2-8-3"><rect
           id="rect3031-9-1-6-8-7-4-1"
           width="2230.314"
           height="376.21677"
           x="135.21135"
           y="219.33444"
           style="text-align:center;text-anchor:middle" /></flowRegion><flowPara
         style="font-size:12px;line-height:1.25"
         id="flowPara3033-3-0-2-4-3-2-9"> </flowPara><flowPara
         style="font-style:normal;font-variant:normal;font-weight:normal;font-stretch:normal;font-size:48px;line-height:1.25;font-family:Lavi;-inkscape-font-specification:Lavi;text-align:center;text-anchor:middle"
         id="flowPara3278-7-4">Lisens: Creative Commons Attribution</flowPara><flowPara
         style="font-style:normal;font-variant:normal;font-weight:normal;font-stretch:normal;font-size:48px;line-height:1.25;font-family:Lavi;-inkscape-font-specification:Lavi;text-align:center;text-anchor:middle"
         id="flowPara3318-7">Du kan endra, dela, selja osb.</flowPara><flowPara
         style="font-style:normal;font-variant:normal;font-weight:normal;font-stretch:normal;font-size:48px;line-height:1.25;font-family:Lavi;-inkscape-font-specification:Lavi;text-align:center;text-anchor:middle"
         id="flowPara3233-6-14-6-8"> </flowPara></flowRoot>
    <flowRoot
       transform="translate(4273.5565,-380.56243)"
       xml:space="preserve"
       id="flowRoot3090-6"
       style="font-style:normal;font-variant:normal;font-weight:normal;font-stretch:normal;line-height:0.01%;font-family:Arial;-inkscape-font-specification:Arial;letter-spacing:0px;word-spacing:0px;fill:#000000;fill-opacity:1;stroke:none;stroke-width:1px;stroke-linecap:butt;stroke-linejoin:miter;stroke-opacity:1"><flowRegion
         id="flowRegion3092-3"><rect
           id="rect3094-2"
           width="222.6321"
           height="17.347956"
           x="1078.4646"
           y="1811.1038" /></flowRegion><flowPara
         style="font-size:12px;line-height:1.25"
         id="flowPara3096-0"> </flowPara></flowRoot>
  </g>
</svg>
