<?xml version="1.0" encoding="UTF-8" standalone="no"?>
<svg
   xmlns:dc="http://purl.org/dc/elements/1.1/"
   xmlns:cc="http://creativecommons.org/ns#"
   xmlns:rdf="http://www.w3.org/1999/02/22-rdf-syntax-ns#"
   xmlns:svg="http://www.w3.org/2000/svg"
   xmlns="http://www.w3.org/2000/svg"
   xmlns:xlink="http://www.w3.org/1999/xlink"
   xmlns:sodipodi="http://sodipodi.sourceforge.net/DTD/sodipodi-0.dtd"
   xmlns:inkscape="http://www.inkscape.org/namespaces/inkscape"
   sodipodi:docname="E26P05.svg"
   height="3503"
   width="2481"
   inkscape:version="1.0 (4035a4fb49, 2020-05-01)"
   version="1.1"
   id="svg2">
  <metadata
     id="metadata8">
    <rdf:RDF>
      <cc:Work
         rdf:about="">
        <dc:format>image/svg+xml</dc:format>
        <dc:type
           rdf:resource="http://purl.org/dc/dcmitype/StillImage" />
        <dc:title />
      </cc:Work>
    </rdf:RDF>
  </metadata>
  <defs
     id="defs6" />
  <sodipodi:namedview
     inkscape:document-rotation="0"
     inkscape:snap-global="false"
     inkscape:current-layer="layer1"
     inkscape:window-maximized="1"
     inkscape:window-y="0"
     inkscape:window-x="0"
     inkscape:cy="3564.8026"
     inkscape:cx="1314.3987"
     inkscape:zoom="0.5081531"
     showgrid="false"
     id="namedview4"
     inkscape:window-height="776"
     inkscape:window-width="1280"
     inkscape:pageshadow="2"
     inkscape:pageopacity="0"
     guidetolerance="10"
     gridtolerance="10"
     objecttolerance="10"
     borderopacity="1"
     bordercolor="#666666"
     pagecolor="#ffffff" />
  <g
     sodipodi:insensitive="true"
     inkscape:label="artwork"
     id="layer2"
     inkscape:groupmode="layer">
    <image
       sodipodi:absref="/home/peppercarrot/webcomics/"
       xlink:href="../gfx_Pepper-and-Carrot_by-David-Revoy_E26P05.png"
       y="0"
       x="0"
       id="image10"
       height="3503"
       width="2481" />
  </g>
  <g
     inkscape:label="speechbubbles"
     id="layer3"
     inkscape:groupmode="layer">
    <path
       sodipodi:nodetypes="zssssz"
       inkscape:connector-curvature="0"
       id="path4040"
       d="m 666.97003,135.7782 c 23.86847,-26.29902 209.46836,-42.805964 269.42839,19.61939 59.96003,62.42536 15.55488,128.56377 -23.09907,147.75882 -38.65394,19.19515 -149.26897,35.07079 -197.43913,12.48855 -48.17026,-22.58226 -84.6497,-53.66009 -82.71743,-111.51787 0.78864,-23.61408 9.95869,-42.04977 33.82724,-68.34889 z"
       style="color:#000000;display:inline;overflow:visible;visibility:visible;fill:#ffffff;fill-opacity:1;fill-rule:nonzero;stroke:none;stroke-width:0.904504px;marker:none;enable-background:accumulate" />
    <path
       sodipodi:nodetypes="cssscssssc"
       inkscape:connector-curvature="0"
       id="path4562"
       d="m 723.30366,175.8066 c 15.6509,39.1272 126.32477,118.49941 138.62187,131.91441 12.2971,13.415 38.0092,32.4196 58.1317,35.7734 20.1226,3.3537 29.8656,-15.8488 47.3048,-18.9433 14.983,-2.6587 26.47777,2.1745 35.42117,12.2357 -14.533,-25.7121 -39.12717,-25.7121 -49.18837,-21.2404 -10.0613,4.4717 -27.948,17.8867 -44.7168,5.5896 -16.7687,-12.2971 -86.0797,-88.31561 -103.96637,-91.66931 -17.8867,-3.3538 -40.245,-29.0659 -40.245,-43.5988 0,-14.533 -41.363,-10.0613 -41.363,-10.0613 z"
       style="color:#000000;display:inline;overflow:visible;visibility:visible;fill:#ffffff;fill-opacity:1;fill-rule:nonzero;stroke:none;stroke-width:1px;marker:none;enable-background:accumulate" />
    <path
       sodipodi:nodetypes="cccc"
       inkscape:connector-curvature="0"
       id="path4480"
       d="m 629.44972,1457.2356 c 5.31864,112.846 187.39235,142.8215 217.19246,120.0477 -67.73192,45.7834 -243.1513,-13.454 -259.18624,-91.6691 -22.55675,-34.7368 41.99378,-28.3786 41.99378,-28.3786 z"
       style="color:#000000;display:inline;overflow:visible;visibility:visible;fill:#ffffff;fill-opacity:1;fill-rule:nonzero;stroke:none;stroke-width:1px;marker:none;enable-background:accumulate" />
    <path
       sodipodi:nodetypes="cssssc"
       inkscape:connector-curvature="0"
       id="path4546-6"
       d="m 1697.5258,1517.4852 c 6.5248,-47.4416 61.2504,-80.5244 199.0025,-67.0728 73.7874,7.2055 157.6796,13.0874 148.9799,82.6142 -8.6995,69.5266 -129.4058,63.8009 -154.417,64.6189 -25.0114,0.818 -154.5482,-10.7214 -176.1661,-35.1724 -13.5325,-15.3056 -18.4867,-30.2645 -17.3993,-44.9879 z"
       style="color:#000000;display:inline;overflow:visible;visibility:visible;fill:#ffffff;fill-opacity:1;fill-rule:nonzero;stroke:none;stroke-width:0.77267522px;marker:none;enable-background:accumulate" />
    <path
       sodipodi:nodetypes="cssssc"
       inkscape:connector-curvature="0"
       id="path3659-8"
       d="m 1822.1841,1642.7664 c -3.072,-33.1575 17.3038,-49.6518 35.8561,-57.4653 23.5123,-9.9025 193.1276,-20.9391 213.5953,6.8159 18.8502,25.5615 32.243,72.5563 -24.0436,95.7706 -56.2865,23.2142 -150.2248,10.4987 -166.2153,6.278 -15.9905,-4.2208 -55.9945,-15.5227 -59.1925,-51.3992 z"
       style="fill:#ffffff;fill-opacity:1;stroke:none;stroke-width:1.17011929" />
    <path
       sodipodi:nodetypes="ccccccccccccccccccccccc"
       inkscape:connector-curvature="0"
       id="path4367-3-5"
       d="m 2061.3973,1742.578 c 3.1588,6.2781 -3.0023,12.8754 -7.4155,14.9282 -5.2418,4.1933 -11.0187,3.4238 -16.3674,2.3824 -5.2306,-1.6167 -9.8857,2.4725 -14.1146,6.7734 -6.4829,5.4542 -14.8344,6.5511 -20.6565,1.2394 -4.3699,-3.6716 -9.3884,-8.1406 -15.2461,-5.3035 -6.8868,2.7499 -15.4331,4.8375 -20.6354,-1.7964 -3.2903,-7.3562 -10.9619,-5.3756 -16.7007,-3.3626 -7.3246,2.2865 -15.102,3.2535 -21.6855,-0.695 -4.4022,-2.3804 -10.071,-3.9874 -11.3315,-11.0177 -1.6387,-7.7322 -3.2664,-16.9207 -9.4495,-19.9579 -4.3228,-2.4942 -10.7889,-4.4919 -10.7566,-12.3212 1.202,-6.8382 4.7001,-13.2886 7.854,-18.978 7.7814,-6.9042 16.9446,0.321 25.6314,-0.7647 5.6765,-0.6887 11.2869,-3.071 16.4826,-6.8213 8.1621,-4.1094 16.0187,1.0655 24.2042,-1.2502 9.5277,-1.9266 19.1702,-0.2509 28.6053,-4.696 10.5637,-3.9035 21.792,-0.7854 29.0746,8.5566 3.0384,4.5693 7.4568,6.697 12.2612,6.5043 6.2974,0.514 9.7113,-0.3982 13.2337,7.2374 2.921,5.4974 2.172,3.7813 3.7686,9.6865 1.7197,5.8484 7.5225,7.8078 8.3065,14.5687 0.5389,5.574 -4.9249,9.3467 -5.0628,15.0876 z"
       style="fill:#ffffff;fill-opacity:1;fill-rule:evenodd;stroke:none;stroke-width:0.57074124px;stroke-linecap:butt;stroke-linejoin:miter;stroke-opacity:1" />
    <path
       sodipodi:nodetypes="csssssssc"
       inkscape:connector-curvature="0"
       id="path4272"
       d="m 1542.1535,1496.6176 c 57.2733,-8.6915 60.9764,19.7045 77.6569,27.317 17.2205,7.8588 50.5803,-25.7702 66.8815,-19.2081 16.3015,6.562 20.9961,40.3754 46.6514,50.2361 25.6551,9.861 44.0985,-16.5088 14.0519,-27.3374 -30.0465,-10.8286 -24.8419,-34.9697 -49.8325,-40.9228 -41.6779,-9.928 -54.8951,20.1792 -69.9481,24.4763 -9.9661,2.8447 -19.8986,-16.3184 -38.035,-21.5527 -18.1365,-5.2344 -47.4261,6.9916 -47.4261,6.9916 z"
       style="opacity:1;fill:#ffffff;fill-rule:evenodd;stroke:none;stroke-width:1.3443836px;stroke-linecap:butt;stroke-linejoin:miter;stroke-opacity:1" />
    <path
       sodipodi:nodetypes="ccccccccccccccc"
       inkscape:connector-curvature="0"
       id="path3549-3-78"
       d="m 1142.4856,2864.1872 c -11.6468,-10.5306 -29.7748,-23.9453 23.708,-26.9445 -66.889,-25.4199 -53.5528,-66.5215 -17.3827,-77.5114 -55.1347,-2.4623 -60.018,-5.9422 13.2506,-86.1248 -85.2431,76.5575 -92.9723,77.6987 -97.8123,39.8671 -14.6476,22.2479 -42.9096,20.2317 -38.0902,-13.2081 -16.7142,26.9328 -61.15462,44.4068 -63.03601,3.5626 -20.87583,32.1468 -40.64507,30.134 -61.18688,23.193 4.26855,24.5984 3.06513,52.2255 2.20375,90.2578 -1.06945,22.4558 1.16284,27.1694 5.45989,42.6743 -3.48967,24.576 2.60062,25.021 5.3607,43.2742 36.13143,-21.8896 36.15537,-19.3678 36.78079,8.5148 66.05216,-49.2416 53.10916,-10.5176 68.00046,-3.5241 24.7362,-37.6615 49.5345,-14.6169 75.1973,-9.0224 11.4565,-43.0546 27.8498,-39.8265 47.5466,-35.0085 z"
       style="color:#000000;display:inline;overflow:visible;visibility:visible;fill:#ffffff;fill-opacity:1;fill-rule:nonzero;stroke:none;stroke-width:0.82009757px;marker:none;enable-background:accumulate" />
    <path
       sodipodi:nodetypes="cccccccccccccccc"
       inkscape:connector-curvature="0"
       id="path4582"
       d="m 1070.4314,2830.0957 c -27.4547,59.5841 -59.0694,67.5264 -95.81266,11.7969 -9.7776,18.9638 -0.91279,72.9945 -62.71442,-5.8985 6.6343,35.9292 -2.9074,46.3002 -19.40432,45.6814 v 210.3491 c 16.05537,-5.021 28.38838,-0.9441 33.34086,21.1844 34.74206,-24.3217 58.66519,-25.9635 60.97336,17.6953 32.71888,-50.0516 46.27008,-29.7987 60.97138,-13.7629 49.431,-48.3175 69.8826,-11.6016 97.5537,3.9322 -5.0554,-27.0789 3.263,-41.2211 62.7144,-5.8984 -11.2028,-17.1802 -28.0186,-35.416 41.8096,-37.3545 -29.8231,-13.9992 -44.3185,-33.6991 -22.6479,-66.8466 -40.7922,-22.7542 -20.1556,-41.4306 17.4207,-58.9821 -54.0943,-11.4374 -45.0779,-31.2542 -20.9049,-53.0835 -54.7124,20.744 -109.0353,15.4029 -80.3776,-23.6821 -33.623,21.5488 -57.4016,40.8165 -72.9222,-45.1307 z"
       style="fill:#ffffff;fill-rule:evenodd;stroke:none;stroke-width:1.13942826px;stroke-linecap:butt;stroke-linejoin:miter;stroke-opacity:1" />
    <path
       sodipodi:nodetypes="cccccccccccc"
       inkscape:connector-curvature="0"
       id="path4584"
       d="m 889.12217,3119.5274 c 29.79563,2.9811 73.42634,-11.1187 49.3378,-56.0023 46.75612,31.8009 85.09123,26.2494 161.14723,-23.6844 -6.3202,69.574 27.6731,63.0738 58.3185,49.7165 -29.4112,23.4121 23.383,36.828 51.7815,38.1431 -60.0742,50.6389 -28.5285,66.7435 -4.8573,85.8164 -59.0388,-14.1111 -44.76,14.4807 -51.8116,30.6488 -50.6465,-36.6327 -87.4785,-27.9386 -116.5765,6.1297 -15.2188,-18.5272 -19.9957,-56.82 -76.09848,2.0433 20.63031,-50.8159 -6.4115,-45.482 -50.19266,-20.4325 6.86149,-17.3085 47.64228,-43.6287 -21.04849,-40.8649 42.90555,-16.4545 51.90305,-38.7443 0,-71.5137 z"
       style="fill:#ffffff;fill-rule:evenodd;stroke:none;stroke-width:0.97864741px;stroke-linecap:butt;stroke-linejoin:miter;stroke-opacity:1" />
    <path
       sodipodi:nodetypes="cccccccccccccccccccccccccccccc"
       inkscape:connector-curvature="0"
       id="path4367"
       d="m 2000.1241,2095.4121 c -18.3652,-1.455 -28.6025,17.25 -43.2216,24.1978 -14.981,3.2493 -31.7182,-8.8053 -45.2925,2.3915 -12.2832,6.4399 -25.6039,18.4901 -21.3139,34.4797 1.2185,14.5148 -14.15,23.199 -12.1846,37.512 0.5528,14.9876 17.7217,22.9474 14.9654,38.6673 -4.7701,14.4332 -15.3814,31.2861 -3.5017,45.7315 12.3512,16.4632 35.6922,7.3034 50.408,18.313 11.7879,16.4451 25.7276,35.3547 47.13,36.3645 20.008,1.4166 34.9445,-13.7588 55.1038,-11.3603 14.9208,-0.2743 32.8377,13.0535 47.5912,17.0684 12.3749,-0.9747 26.346,2.8301 37.2308,-5.2936 10.5492,-10.9424 24.9972,-9.9512 31.9014,4.2911 11.5925,10.8294 28.8367,3.2684 40.8982,-2.9753 14.723,-11.2104 28.0656,5.7337 40.7822,11.7228 17.2623,8.5166 34.9477,-19.7741 44.4797,-34.174 9.1509,-15.7777 27.7968,-8.0933 41.8532,-11.1197 12.8884,-5.3118 25.8012,-16.7119 29.6082,-31.2344 -2.2122,-13.1731 -3.2261,-27.7059 4.6939,-39.5519 4.6827,-14.5929 -7.1394,-26.4673 -16.1236,-35.506 -11.0781,-14.3198 4.8491,-29.8117 0.23,-45.0946 -3.7724,-20.0832 -25.7938,-22.8669 -41.7864,-20.484 -14.6441,3.5888 -23.4503,-8.6408 -33.0892,-17.5181 -14.5436,-14.4281 -36.9367,-18.472 -55.0372,-9.1296 -16.0199,9.3712 -30.3037,2.1835 -48.2943,4.8547 -13.0617,3.6209 -26.3198,14.2403 -39.9958,12.1074 -11.428,-2.3973 -24.9198,14.5509 -36.9216,-1.2023 -9.619,-12.5056 -25.3075,-4.2472 -37.951,-0.3323 -16.7863,8.5891 -27.259,-11.7057 -39.7511,-19.1901 -3.7616,-2.2431 -8.0556,-3.6585 -12.4115,-3.5355 z"
       style="fill:#ffffff;fill-opacity:1;fill-rule:evenodd;stroke:none;stroke-width:1.20378375px;stroke-linecap:butt;stroke-linejoin:miter;stroke-opacity:1" />
    <path
       sodipodi:nodetypes="cscsssssscssssccscccc"
       inkscape:connector-curvature="0"
       id="path5058"
       d="m 2170.3615,2309.0962 c -0.3713,38.0127 6.7641,58.9988 10.8638,63.5533 4.0997,4.5543 14.1043,16.9116 18.197,24.3263 3.3617,6.1716 9.6066,12.58 5.6022,19.0563 -4.0042,6.4764 -34.1758,30.3537 -35.5389,56.2139 -1.3632,25.8606 5.3064,30.7584 16.8647,34.3062 11.5583,3.5478 26.5828,8.5604 26.6542,27.601 0.071,19.0406 -9.8738,34.7396 -15.8025,39.9571 -5.9287,5.2176 -38.3186,24.4352 -54.9686,48.0709 -8.8964,12.629 -3.6957,116.332 -77.1531,147.1353 96.1421,-38.7249 86.06,-126.0636 93.2119,-138.7724 6.2517,-11.109 19.0349,-23.9504 28.6904,-28.7662 12.35,-6.1599 23.5652,-12.3444 30.546,-25.4347 6.9807,-13.0901 15.9013,-23.3083 13.774,-42.6236 -2.1271,-19.3153 -5.4443,-39.4224 -23.4332,-41.8264 -11.5582,-3.5478 -18.351,-12.9635 -18.0761,-18.9365 0.2753,-5.9731 12.8845,-27.1311 24.7298,-33.5613 11.8453,-6.4303 16.5638,-17.6507 16.086,-29.7343 -0.4779,-12.0835 -10.5747,-31.5425 -12.3436,-41.7953 -1.7687,-10.2527 -15.6194,-65.4734 -15.6194,-65.4734 z"
       style="color:#000000;display:inline;overflow:visible;visibility:visible;fill:#ffffff;fill-opacity:1;fill-rule:nonzero;stroke:none;stroke-width:1.3837055px;marker:none;enable-background:accumulate" />
  </g>
  <g
     inkscape:label="txt"
     id="layer1"
     inkscape:groupmode="layer">
    <text
       transform="matrix(-0.05075958,-0.85891373,1.1934833,0.49447225,0,0)"
       id="text1711-2"
       y="134.55949"
       x="-789.3432"
       style="color:#000000;font-style:normal;font-variant:normal;font-weight:normal;font-stretch:normal;font-size:14.5637px;line-height:0.01%;font-family:Arial;-inkscape-font-specification:Arial;letter-spacing:1.17454px;word-spacing:0px;display:inline;overflow:visible;visibility:visible;fill:#e69d76;fill-opacity:1;fill-rule:nonzero;stroke:#e99f77;stroke-width:2;stroke-miterlimit:4;stroke-dasharray:none;stroke-opacity:1;marker:none;enable-background:accumulate"
       xml:space="preserve"><tspan
         style="font-style:normal;font-variant:normal;font-weight:bold;font-stretch:normal;font-family:Lavi;-inkscape-font-specification:'Lavi Bold';letter-spacing:3.1517px;word-spacing:0px;fill:#ffffff;fill-opacity:1;stroke:#ffffff;stroke-width:2;stroke-miterlimit:4;stroke-dasharray:none;stroke-opacity:1"
         id="tspan1709-8"
         y="134.55949"
         x="-787.76733"
         sodipodi:role="line"><tspan
           id="tspan1707-9"
           style="color:#000000;font-style:normal;font-variant:normal;font-weight:bold;font-stretch:normal;font-size:77.6733px;line-height:1.25;font-family:Lavi;-inkscape-font-specification:'Lavi Bold';text-align:center;letter-spacing:3.1517px;word-spacing:0px;text-anchor:middle;display:inline;overflow:visible;visibility:visible;fill:#ffffff;fill-opacity:1;fill-rule:nonzero;stroke:#ffffff;stroke-width:2;stroke-miterlimit:4;stroke-dasharray:none;stroke-opacity:1;marker:none;enable-background:accumulate"
           y="134.55949"
           x="-789.3432"><tspan
   id="tspan1156-7"
   style="font-style:normal;font-variant:normal;font-weight:bold;font-stretch:normal;font-size:63.5789px;font-family:Lavi;-inkscape-font-specification:'Lavi Bold';letter-spacing:3.1517px;stroke-width:2;stroke-miterlimit:4;stroke-dasharray:none">¡Shirrrr</tspan>!</tspan></tspan></text>
    <text
       id="text4246-5-3"
       y="177.60426"
       x="794.22394"
       style="font-style:normal;font-variant:normal;font-weight:normal;font-stretch:normal;line-height:0%;font-family:Lavi;-inkscape-font-specification:Lavi;text-align:center;letter-spacing:0px;word-spacing:0px;text-anchor:middle;fill:#000000;fill-opacity:1;stroke:none"
       xml:space="preserve"><tspan
         id="tspan843"
         y="177.60426"
         x="794.22394"
         style="font-size:45px;line-height:1.25"
         sodipodi:role="line">¡Ajá!</tspan><tspan
         id="tspan849"
         y="233.85426"
         x="794.22394"
         style="font-size:45px;line-height:1.25"
         sodipodi:role="line">¡Aquí está la</tspan><tspan
         id="tspan895"
         y="290.10425"
         x="794.22394"
         style="font-size:45px;line-height:1.25"
         sodipodi:role="line">salida!</tspan><tspan
         id="tspan917"
         y="308.63779"
         x="794.22394"
         sodipodi:role="line" /></text>
    <text
       transform="matrix(-0.02665862,-0.84533119,1.1912388,0.26225273,0,0)"
       id="text1711-2-3"
       y="1548.6953"
       x="224.66396"
       style="color:#000000;font-style:normal;font-variant:normal;font-weight:normal;font-stretch:normal;font-size:10.939px;line-height:0.01%;font-family:Arial;-inkscape-font-specification:Arial;letter-spacing:0.882204px;word-spacing:0px;display:inline;overflow:visible;visibility:visible;fill:#e69d76;fill-opacity:1;fill-rule:nonzero;stroke:#e99f77;stroke-width:2;stroke-miterlimit:4;stroke-dasharray:none;stroke-opacity:1;marker:none;enable-background:accumulate"
       xml:space="preserve"><tspan
         style="font-style:normal;font-variant:normal;font-weight:bold;font-stretch:normal;font-family:Lavi;-inkscape-font-specification:'Lavi Bold';letter-spacing:2.36727px;word-spacing:0px;fill:#ffffff;fill-opacity:1;stroke:#ffffff;stroke-width:2;stroke-miterlimit:4;stroke-dasharray:none;stroke-opacity:1"
         id="tspan1709-8-6"
         y="1548.6953"
         x="225.8476"
         sodipodi:role="line"><tspan
           id="tspan1707-9-7"
           style="color:#000000;font-style:normal;font-variant:normal;font-weight:bold;font-stretch:normal;font-size:58.3411px;line-height:1.25;font-family:Lavi;-inkscape-font-specification:'Lavi Bold';text-align:center;letter-spacing:2.36727px;word-spacing:0px;text-anchor:middle;display:inline;overflow:visible;visibility:visible;fill:#ffffff;fill-opacity:1;fill-rule:nonzero;stroke:#ffffff;stroke-width:2;stroke-miterlimit:4;stroke-dasharray:none;stroke-opacity:1;marker:none;enable-background:accumulate"
           y="1548.6953"
           x="224.66396">¡Wooop!</tspan></tspan></text>
    <path
       sodipodi:nodetypes="ccccccccccccccccccccccc"
       inkscape:connector-curvature="0"
       id="path4367-3"
       d="m 311.16002,1210.6337 c -8.32589,-9.5466 2.01077,-21.5252 10.25214,-25.7653 9.23935,-7.8861 21.11012,-7.8231 32.20443,-7.2303 11.03637,1.551 19.12695,-6.0455 26.29326,-13.8983 11.34253,-10.1889 27.8119,-13.6854 41.19672,-6.2553 9.94765,5.0648 21.45094,11.2914 32.35459,5.4812 13.00304,-5.8802 29.55432,-11.0254 42.10547,-1.3209 8.92844,11.2701 23.75213,6.4781 34.67478,2.0306 14.02937,-5.2174 29.38381,-8.385 43.87455,-3.3253 9.60801,2.9616 21.52363,4.4071 26.26366,15.5648 5.72123,12.2199 11.87623,26.8071 25.27523,30.4694 9.48419,3.1625 23.12728,5.0787 25.5149,17.7994 -0.27793,11.3517 -5.29959,22.5453 -9.86659,32.432 -13.50273,12.81 -34.21311,2.9589 -51.36099,6.5061 -11.21224,2.2841 -21.7606,7.3053 -31.04561,14.4625 -15.14456,8.3498 -32.58232,1.5596 -48.33553,7.0012 -18.57771,5.0856 -38.51461,4.3448 -56.1167,13.5012 -20.04366,8.5086 -43.62518,5.7511 -61.21258,-7.9241 -7.54827,-6.7962 -17.10995,-9.3439 -26.72163,-8.0443 -12.83884,0.4587 -19.42577,2.6414 -28.90902,-9.0348 -7.60213,-8.3278 -5.55713,-5.6947 -10.62099,-14.9564 -5.29412,-9.1442 -17.59013,-11.1343 -21.2862,-21.9525 -2.83112,-8.941 6.98677,-16.1899 5.46611,-25.5409 z"
       style="fill:#ffffff;fill-opacity:1;fill-rule:evenodd;stroke:none;stroke-width:0.9326129px;stroke-linecap:butt;stroke-linejoin:miter;stroke-opacity:1" />
    <text
       id="text4246-5-3-7-2-0"
       y="1241.5508"
       x="480.21338"
       style="font-style:normal;font-variant:normal;font-weight:normal;font-stretch:normal;line-height:0%;font-family:Lavi;-inkscape-font-specification:Lavi;text-align:center;letter-spacing:0px;word-spacing:0px;text-anchor:middle;fill:#000000;fill-opacity:1;stroke:none"
       xml:space="preserve"><tspan
         id="tspan950-2-3"
         y="1241.5508"
         x="480.21338"
         style="font-style:normal;font-variant:normal;font-weight:bold;font-stretch:normal;font-size:53.3333px;line-height:1.25;font-family:Lavi;-inkscape-font-specification:'Lavi Bold'"
         sodipodi:role="line">Qué asco...</tspan><tspan
         id="tspan917-6-7-6"
         y="1262.8373"
         x="480.21338"
         sodipodi:role="line" /></text>
    <path
       sodipodi:nodetypes="zssssz"
       inkscape:connector-curvature="0"
       id="path4040-3"
       d="m 392.47594,1273.9886 c 74.18265,-8.9342 303.59411,-24.2653 415.02607,0.9828 124.0641,28.1102 70.11153,202.6391 8.78989,233.2166 -61.32152,30.5777 -244.38321,36.3202 -331.18828,23.5077 -147.12211,-21.7152 -158.86501,-69.5284 -163.05232,-149.7487 -1.709,-32.7412 -3.758,-99.0243 70.42464,-107.9584 z"
       style="color:#000000;display:inline;overflow:visible;visibility:visible;fill:#ffffff;fill-opacity:1;fill-rule:nonzero;stroke:none;stroke-width:1.30749774px;marker:none;enable-background:accumulate" />
    <text
       id="text4246-5-3-5"
       y="1334.3903"
       x="598.20093"
       style="font-style:normal;font-variant:normal;font-weight:normal;font-stretch:normal;font-size:45px;line-height:0%;font-family:Lavi;-inkscape-font-specification:'Lavi, Normal';font-variant-ligatures:normal;font-variant-caps:normal;font-variant-numeric:normal;font-feature-settings:normal;text-align:center;letter-spacing:0px;word-spacing:0px;writing-mode:lr-tb;text-anchor:middle;fill:#000000;fill-opacity:1;stroke:none"
       xml:space="preserve"><tspan
         id="tspan911"
         y="1334.3903"
         x="598.20093"
         style="font-style:normal;font-variant:normal;font-weight:normal;font-stretch:normal;font-size:45px;line-height:1.25;font-family:Lavi;-inkscape-font-specification:'Lavi, Normal';font-variant-ligatures:normal;font-variant-caps:normal;font-variant-numeric:normal;font-feature-settings:normal;text-align:center;writing-mode:lr-tb;text-anchor:middle"
         sodipodi:role="line">Estoy segura de que ha</tspan><tspan
         id="tspan913"
         y="1390.6403"
         x="598.20093"
         style="font-style:normal;font-variant:normal;font-weight:normal;font-stretch:normal;font-size:45px;line-height:1.25;font-family:Lavi;-inkscape-font-specification:'Lavi, Normal';font-variant-ligatures:normal;font-variant-caps:normal;font-variant-numeric:normal;font-feature-settings:normal;text-align:center;writing-mode:lr-tb;text-anchor:middle"
         sodipodi:role="line">de haber algo acerca</tspan><tspan
         id="tspan915"
         y="1446.8903"
         x="598.20093"
         style="font-style:normal;font-variant:normal;font-weight:normal;font-stretch:normal;font-size:45px;line-height:1.25;font-family:Lavi;-inkscape-font-specification:'Lavi, Normal';font-variant-ligatures:normal;font-variant-caps:normal;font-variant-numeric:normal;font-feature-settings:normal;text-align:center;writing-mode:lr-tb;text-anchor:middle"
         sodipodi:role="line">de cómo quitarme esta</tspan><tspan
         id="tspan918"
         y="1503.1403"
         x="598.20093"
         style="font-style:normal;font-variant:normal;font-weight:normal;font-stretch:normal;font-size:45px;line-height:1.25;font-family:Lavi;-inkscape-font-specification:'Lavi, Normal';font-variant-ligatures:normal;font-variant-caps:normal;font-variant-numeric:normal;font-feature-settings:normal;text-align:center;writing-mode:lr-tb;text-anchor:middle"
         sodipodi:role="line">“cosa” de encima.</tspan></text>
    <text
       id="text4246-5-3-5-7"
       y="1508.8779"
       x="1872.5741"
       style="font-style:normal;font-variant:normal;font-weight:normal;font-stretch:normal;font-size:9.23768px;line-height:0%;font-family:Lavi;-inkscape-font-specification:Lavi;text-align:center;letter-spacing:0px;word-spacing:0px;text-anchor:middle;fill:#000000;fill-opacity:1;stroke:none;stroke-width:0.769806"
       xml:space="preserve"><tspan
         id="tspan936"
         y="1508.8779"
         x="1872.5741"
         style="font-style:normal;font-variant:normal;font-weight:normal;font-stretch:normal;font-size:34.6667px;line-height:1.25;font-family:Lavi;-inkscape-font-specification:Lavi;stroke-width:0.769806"
         sodipodi:role="line">Carrot... ¿Lo</tspan><tspan
         id="tspan940"
         y="1552.2113"
         x="1872.5741"
         style="font-style:normal;font-variant:normal;font-weight:normal;font-stretch:normal;font-size:34.6667px;line-height:1.25;font-family:Lavi;-inkscape-font-specification:Lavi;stroke-width:0.769806"
         sodipodi:role="line">puedes encontrar?</tspan><tspan
         id="tspan917-2-2"
         y="1566.4666"
         x="1872.5741"
         sodipodi:role="line" /></text>
    <text
       id="text4246-5-3-5-7-6"
       y="1624.7905"
       x="1955.5698"
       style="font-style:normal;font-variant:normal;font-weight:normal;font-stretch:normal;font-size:9.49034px;line-height:0%;font-family:Lavi;-inkscape-font-specification:Lavi;text-align:center;letter-spacing:0px;word-spacing:0px;text-anchor:middle;fill:#000000;fill-opacity:1;stroke:none;stroke-width:0.790862"
       xml:space="preserve"><tspan
         id="tspan1080"
         y="1624.7905"
         x="1955.5698"
         style="font-style:normal;font-variant:normal;font-weight:normal;font-stretch:normal;font-size:30.6667px;line-height:1.25;font-family:Lavi;-inkscape-font-specification:Lavi;stroke-width:0.790862"
         sodipodi:role="line">Espera... claro</tspan><tspan
         id="tspan944"
         y="1663.1239"
         x="1955.5698"
         style="font-style:normal;font-variant:normal;font-weight:normal;font-stretch:normal;font-size:30.6667px;line-height:1.25;font-family:Lavi;-inkscape-font-specification:Lavi;stroke-width:0.790862"
         sodipodi:role="line">que no puedes...</tspan><tspan
         id="tspan917-2-2-9"
         y="1676.1185"
         x="1955.5698"
         sodipodi:role="line" /></text>
    <text
       id="text4246-5-3-5-7-6-2"
       y="1733.9713"
       x="1990.0106"
       style="font-style:normal;font-variant:normal;font-weight:normal;font-stretch:normal;font-size:10.4834px;line-height:0%;font-family:Lavi;-inkscape-font-specification:Lavi;text-align:center;letter-spacing:0px;word-spacing:0px;text-anchor:middle;fill:#000000;fill-opacity:1;stroke:none;stroke-width:0.87362"
       xml:space="preserve"><tspan
         id="tspan1080-3"
         y="1733.9713"
         x="1990.0106"
         style="font-style:normal;font-variant:normal;font-weight:normal;font-stretch:normal;font-size:26.6667px;line-height:1.25;font-family:Lavi;-inkscape-font-specification:Lavi;stroke-width:0.87362"
         sodipodi:role="line">Ni modo...</tspan><tspan
         id="tspan917-2-2-9-7"
         y="1745.9213"
         x="1990.0106"
         sodipodi:role="line" /></text>
    <text
       transform="matrix(0.8793411,0.03700556,-0.36761453,1.1217447,0,0)"
       id="text1711-2-3-9"
       y="434.09442"
       x="2813.7102"
       style="color:#000000;font-style:normal;font-variant:normal;font-weight:normal;font-stretch:normal;font-size:13.6801px;line-height:0.01%;font-family:Arial;-inkscape-font-specification:Arial;letter-spacing:1.10327px;word-spacing:0px;display:inline;overflow:visible;visibility:visible;fill:#e69d76;fill-opacity:1;fill-rule:nonzero;stroke:#e99f77;stroke-width:0;stroke-miterlimit:4;stroke-dasharray:none;stroke-opacity:1;marker:none;enable-background:accumulate"
       xml:space="preserve"><tspan
         style="font-style:normal;font-variant:normal;font-weight:bold;font-stretch:normal;font-family:Lavi;-inkscape-font-specification:'Lavi Bold';letter-spacing:2.96047px;word-spacing:0px;fill:#ffffff;fill-opacity:1;stroke:#ffffff;stroke-width:0;stroke-miterlimit:4;stroke-dasharray:none;stroke-opacity:1"
         id="tspan1709-8-6-2"
         y="434.09442"
         x="2815.1904"
         sodipodi:role="line"><tspan
           id="tspan1707-9-7-2"
           style="color:#000000;font-style:normal;font-variant:normal;font-weight:bold;font-stretch:normal;font-size:72.9606px;line-height:1.25;font-family:Lavi;-inkscape-font-specification:'Lavi Bold';text-align:center;letter-spacing:2.96047px;word-spacing:0px;text-anchor:middle;display:inline;overflow:visible;visibility:visible;fill:#ffffff;fill-opacity:1;fill-rule:nonzero;stroke:#ffffff;stroke-width:0;stroke-miterlimit:4;stroke-dasharray:none;stroke-opacity:1;marker:none;enable-background:accumulate"
           y="434.09442"
           x="2813.7102">?!</tspan></tspan></text>
    <text
       id="text4246-5-3-5-5"
       y="3170.3809"
       x="1049.4147"
       style="font-style:normal;font-variant:normal;font-weight:normal;font-stretch:normal;line-height:0%;font-family:Lavi;-inkscape-font-specification:Lavi;text-align:center;letter-spacing:0px;word-spacing:0px;text-anchor:middle;fill:#000000;fill-opacity:1;stroke:none"
       xml:space="preserve"><tspan
         id="tspan954-2"
         y="3170.3809"
         x="1049.4147"
         style="font-style:normal;font-variant:normal;font-weight:bold;font-stretch:normal;font-size:53.3333px;line-height:1.25;font-family:Lavi;-inkscape-font-specification:'Lavi Bold'"
         sodipodi:role="line">¡¡¡Gurrr!!!</tspan><tspan
         id="tspan917-2-0"
         y="3191.6577"
         x="1049.4147"
         sodipodi:role="line" /></text>
    <text
       id="text4246-5-3-5-5-9"
       y="2793.1326"
       x="1016.3262"
       style="font-style:normal;font-variant:normal;font-weight:normal;font-stretch:normal;font-size:12.1268px;line-height:0%;font-family:Lavi;-inkscape-font-specification:Lavi;text-align:center;letter-spacing:0px;word-spacing:0px;text-anchor:middle;fill:#000000;fill-opacity:1;stroke:none;stroke-width:0.893597"
       xml:space="preserve"><tspan
         id="tspan966"
         y="2793.1326"
         x="1016.3262"
         style="font-style:normal;font-variant:normal;font-weight:bold;font-stretch:normal;font-size:47.1598px;line-height:1.25;font-family:Lavi;-inkscape-font-specification:'Lavi Bold';stroke-width:0.893597"
         sodipodi:role="line"><tspan
   id="tspan89"
   style="letter-spacing:2.8px">¡¡¡</tspan>Lo</tspan><tspan
         id="tspan917-2-0-0"
         y="2852.0823"
         x="1016.3262"
         style="font-style:normal;font-variant:normal;font-weight:bold;font-stretch:normal;font-size:47.1598px;line-height:1.25;font-family:Lavi;-inkscape-font-specification:'Lavi Bold';stroke-width:0.893597"
         sodipodi:role="line">sabía!!!</tspan></text>
    <text
       id="text4246-5-3-5-9"
       y="2958.0459"
       x="1064.0332"
       style="font-style:normal;font-variant:normal;font-weight:normal;font-stretch:normal;line-height:0%;font-family:Lavi;-inkscape-font-specification:Lavi;text-align:center;letter-spacing:0px;word-spacing:0px;text-anchor:middle;fill:#000000;fill-opacity:1;stroke:none"
       xml:space="preserve"><tspan
         id="tspan955"
         y="2958.0459"
         x="1064.0332"
         style="font-style:normal;font-variant:normal;font-weight:normal;font-stretch:normal;font-size:45px;line-height:1.25;font-family:Lavi;-inkscape-font-specification:Lavi"
         sodipodi:role="line">¡Era muy</tspan><tspan
         id="tspan959"
         y="3014.2959"
         x="1064.0332"
         style="font-style:normal;font-variant:normal;font-weight:normal;font-stretch:normal;font-size:45px;line-height:1.25;font-family:Lavi;-inkscape-font-specification:Lavi"
         sodipodi:role="line">bueno para</tspan><tspan
         id="tspan961"
         y="3070.5459"
         x="1064.0332"
         style="font-style:normal;font-variant:normal;font-weight:normal;font-stretch:normal;font-size:45px;line-height:1.25;font-family:Lavi;-inkscape-font-specification:Lavi"
         sodipodi:role="line">ser verdad!</tspan><tspan
         id="tspan917-2-9"
         y="3089.0793"
         x="1064.0332"
         sodipodi:role="line" /></text>
    <text
       id="text4246-5-3-5-9-2"
       y="2183.5693"
       x="2123.0674"
       style="font-style:normal;font-variant:normal;font-weight:normal;font-stretch:normal;line-height:0%;font-family:Lavi;-inkscape-font-specification:Lavi;text-align:center;letter-spacing:0px;word-spacing:0px;text-anchor:middle;fill:#000000;fill-opacity:1;stroke:none"
       xml:space="preserve"><tspan
         id="tspan1117"
         y="2183.5693"
         x="2123.0674"
         style="font-style:normal;font-variant:normal;font-weight:normal;font-stretch:normal;font-size:45px;line-height:1.25;font-family:Lavi;-inkscape-font-specification:Lavi"
         sodipodi:role="line">Tal vez los libros</tspan><tspan
         id="tspan968"
         y="2239.8193"
         x="2123.0674"
         style="font-style:normal;font-variant:normal;font-weight:normal;font-stretch:normal;font-size:45px;line-height:1.25;font-family:Lavi;-inkscape-font-specification:Lavi"
         sodipodi:role="line">no poseen todas las</tspan><tspan
         id="tspan970"
         y="2296.0693"
         x="2123.0674"
         style="font-style:normal;font-variant:normal;font-weight:normal;font-stretch:normal;font-size:45px;line-height:1.25;font-family:Lavi;-inkscape-font-specification:Lavi"
         sodipodi:role="line">respuestas...</tspan><tspan
         id="tspan917-2-9-3"
         y="2314.5764"
         x="2123.0674"
         sodipodi:role="line" /></text>
    <text
       transform="matrix(0.79338838,0.2929682,-0.69069394,1.0053697,0,0)"
       id="text1711-2-3-1"
       y="2071.3848"
       x="4271.3828"
       style="color:#000000;font-style:normal;font-variant:normal;font-weight:normal;font-stretch:normal;font-size:10.939px;line-height:0.01%;font-family:Arial;-inkscape-font-specification:Arial;letter-spacing:0.882204px;word-spacing:0px;display:inline;overflow:visible;visibility:visible;fill:#e69d76;fill-opacity:1;fill-rule:nonzero;stroke:#e99f77;stroke-width:2;stroke-miterlimit:4;stroke-dasharray:none;stroke-opacity:1;marker:none;enable-background:accumulate"
       xml:space="preserve"><tspan
         style="font-style:normal;font-variant:normal;font-weight:bold;font-stretch:normal;font-family:Lavi;-inkscape-font-specification:'Lavi Bold';letter-spacing:2.36727px;word-spacing:0px;fill:#ffffff;fill-opacity:1;stroke:#ffffff;stroke-width:2;stroke-miterlimit:4;stroke-dasharray:none;stroke-opacity:1"
         id="tspan1709-8-6-29"
         y="2071.3848"
         x="4272.5664"
         sodipodi:role="line"><tspan
           id="tspan1707-9-7-3"
           style="color:#000000;font-style:normal;font-variant:normal;font-weight:bold;font-stretch:normal;font-size:58.3411px;line-height:1.25;font-family:Lavi;-inkscape-font-specification:'Lavi Bold';text-align:center;letter-spacing:2.36727px;word-spacing:0px;text-anchor:middle;display:inline;overflow:visible;visibility:visible;fill:#ffffff;fill-opacity:1;fill-rule:nonzero;stroke:#ffffff;stroke-width:2;stroke-miterlimit:4;stroke-dasharray:none;stroke-opacity:1;marker:none;enable-background:accumulate"
           y="2071.3848"
           x="4271.3828">¡Paf!</tspan></tspan></text>
  </g>
</svg>
