<?xml version="1.0" encoding="UTF-8" standalone="no"?>
<svg
   xmlns:dc="http://purl.org/dc/elements/1.1/"
   xmlns:cc="http://creativecommons.org/ns#"
   xmlns:rdf="http://www.w3.org/1999/02/22-rdf-syntax-ns#"
   xmlns:svg="http://www.w3.org/2000/svg"
   xmlns="http://www.w3.org/2000/svg"
   xmlns:xlink="http://www.w3.org/1999/xlink"
   xmlns:sodipodi="http://sodipodi.sourceforge.net/DTD/sodipodi-0.dtd"
   xmlns:inkscape="http://www.inkscape.org/namespaces/inkscape"
   id="svg2"
   version="1.1"
   inkscape:version="1.0.2 (e86c8708, 2021-01-15)"
   width="2481"
   height="3503"
   sodipodi:docname="E34P05.svg">
  <metadata
     id="metadata8">
    <rdf:RDF>
      <cc:Work
         rdf:about="">
        <dc:format>image/svg+xml</dc:format>
        <dc:type
           rdf:resource="http://purl.org/dc/dcmitype/StillImage" />
        <dc:title />
      </cc:Work>
    </rdf:RDF>
  </metadata>
  <defs
     id="defs6">
    <filter
       style="color-interpolation-filters:sRGB"
       id="filter4375-4-1-1-1-9-5-8-8-5-5-3-3"
       inkscape:label="soundFX1">
      <feFlood
         id="feFlood4377-7-9-0-8-1-7-3-1-2-7-6-6"
         flood-opacity="1"
         flood-color="rgb(52,52,52)"
         result="flood" />
      <feComposite
         id="feComposite4379-3-8-8-2-77-4-1-0-6-4-7-7"
         in2="SourceGraphic"
         in="flood"
         operator="in"
         result="composite1"
         baseFrequency="0.053999999999999999 0.053999999999999999" />
      <feMorphology
         id="feMorphology4393-1-0-49-8-9-3-0-1-9-9-5-5"
         operator="dilate"
         radius="4.0330969769021738"
         result="result3" />
      <feComposite
         id="feComposite4385-9-5-7-0-8-8-7-5-4-9-3-3"
         in2="result3"
         in="SourceGraphic"
         operator="over"
         result="fbSourceGraphic" />
      <feColorMatrix
         result="fbSourceGraphicAlpha"
         in="fbSourceGraphic"
         values="0 0 0 -1 0 0 0 0 -1 0 0 0 0 -1 0 0 0 0 1 0"
         id="feColorMatrix4544-9-4-4-5-5" />
      <feTurbulence
         id="feTurbulence4546-3-6-5-6-6"
         type="fractalNoise"
         numOctaves="4"
         seed="147"
         baseFrequency="0.053999999999999999 0.054054054054054057"
         result="turbulence" />
      <feDisplacementMap
         id="feDisplacementMap4548-8-0-9-2-2"
         in2="turbulence"
         in="fbSourceGraphic"
         scale="10.561763"
         yChannelSelector="G"
         xChannelSelector="R"
         result="fbSourceGraphic" />
      <feColorMatrix
         result="fbSourceGraphicAlpha"
         in="fbSourceGraphic"
         values="0 0 0 -1 0 0 0 0 -1 0 0 0 0 -1 0 0 0 0 1 0"
         id="feColorMatrix4670-7-7-3-9-9" />
      <feFlood
         id="feFlood4672-4-4-5-1-1"
         flood-opacity="1"
         flood-color="rgb(28,28,28)"
         result="flood"
         in="fbSourceGraphic" />
      <feComposite
         id="feComposite4674-8-3-7-2-2"
         in2="fbSourceGraphic"
         in="flood"
         operator="in"
         result="composite1" />
      <feGaussianBlur
         id="feGaussianBlur4676-3-7-08-7-7"
         in="composite1"
         stdDeviation="0"
         result="blur" />
      <feOffset
         id="feOffset4678-6-9-1-0-0"
         dx="-10.48377497279229"
         dy="0.39217365321829334"
         result="offset" />
      <feComposite
         id="feComposite4680-4-0-9-9-9"
         in2="offset"
         in="fbSourceGraphic"
         operator="over"
         result="composite2" />
    </filter>
    <filter
       inkscape:collect="always"
       style="color-interpolation-filters:sRGB"
       id="filter1624"
       x="-0.066465521"
       width="1.132931"
       y="-0.12921093"
       height="1.2584219">
      <feGaussianBlur
         inkscape:collect="always"
         stdDeviation="4.7367523"
         id="feGaussianBlur1626" />
    </filter>
    <filter
       inkscape:collect="always"
       style="color-interpolation-filters:sRGB"
       id="filter1624-1"
       x="-0.066465519"
       width="1.132931"
       y="-0.12921093"
       height="1.2584219">
      <feGaussianBlur
         inkscape:collect="always"
         stdDeviation="4.7367523"
         id="feGaussianBlur1626-9" />
    </filter>
    <filter
       inkscape:collect="always"
       style="color-interpolation-filters:sRGB"
       id="filter1624-1-7"
       x="-0.066465519"
       width="1.132931"
       y="-0.12921093"
       height="1.2584219">
      <feGaussianBlur
         inkscape:collect="always"
         stdDeviation="4.7367523"
         id="feGaussianBlur1626-9-8" />
    </filter>
  </defs>
  <sodipodi:namedview
     pagecolor="#ffffff"
     bordercolor="#666666"
     borderopacity="1"
     objecttolerance="10"
     gridtolerance="10"
     guidetolerance="10"
     inkscape:pageopacity="0"
     inkscape:pageshadow="2"
     inkscape:window-width="960"
     inkscape:window-height="1130"
     id="namedview4"
     showgrid="false"
     inkscape:zoom="0.32446594"
     inkscape:cx="1240.5"
     inkscape:cy="1348.0544"
     inkscape:window-x="960"
     inkscape:window-y="23"
     inkscape:window-maximized="0"
     inkscape:current-layer="layer1"
     inkscape:document-rotation="0"
     inkscape:snap-global="false"
     borderlayer="true" />
  <g
     inkscape:groupmode="layer"
     id="layer2"
     inkscape:label="artwork"
     sodipodi:insensitive="true">
    <image
       sodipodi:absref="/Users/gand/Downloads/webcomics-master-new-ep34_The-Knighting-of-Shichimi/new-ep34_The-Knighting-of-Shichimi/lang/gfx_Pepper-and-Carrot_by-David-Revoy_E34P05.png"
       xlink:href="../gfx_Pepper-and-Carrot_by-David-Revoy_E34P05.png"
       width="2481"
       height="3503"
       id="image10"
       x="0"
       y="0" />
  </g>
  <g
     inkscape:groupmode="layer"
     id="layer3"
     inkscape:label="speechbubbles"
     style="display:inline">
    <path
       style="display:inline;fill:#ffffff;fill-rule:evenodd;stroke:none;stroke-width:1.19319px;stroke-linecap:butt;stroke-linejoin:miter;stroke-opacity:1"
       d="m 2150.7835,845.63173 c -30.3115,0.0437 -60.5899,1.71396 -90.7439,4.37725 -16.0505,1.12217 -31.533,5.41603 -46.7873,9.73518 -14.2667,4.27526 -28.5116,8.88101 -41.7733,15.25976 -17.1728,8.51113 -32.5574,21.03894 -40.3128,37.32747 -6.5138,13.05538 -10.3442,27.02366 -13.3306,41.00167 -4.4711,27.08009 2.9875,56.11584 22.7241,77.48714 22.5357,24.9308 58.1664,39.6244 94.0704,40.2364 75.7399,6.2304 152.4452,8.6769 227.9823,-0.8354 25.3061,-3.2627 50.8055,-10.1908 71.1064,-24.4259 22.2346,-15.8171 34.154,-41.301 33.9787,-66.29475 0.1089,-23.70521 -1.9025,-53.65682 -18.7821,-71.79949 -20.0926,-22.12941 -47.866,-37.88058 -77.3605,-48.45815 -28.6409,-10.67283 -67.9118,-11.46986 -99.0497,-13.09525 -7.2289,-0.43467 -14.4772,-0.58715 -21.7217,-0.51593 z"
       id="path1076"
       inkscape:connector-curvature="0"
       sodipodi:nodetypes="ccccccccccccccc" />
    <path
       style="color:#000000;display:inline;overflow:visible;visibility:visible;fill:#ffffff;fill-opacity:1;fill-rule:nonzero;stroke:none;stroke-width:1.46145px;marker:none;enable-background:accumulate"
       d="M 1428.3359 65.121094 C 1410.862 66.065804 1394.3921 75.428272 1376.6307 72.770098 C 1363.0384 71.347854 1347.9318 71.371613 1336.4462 79.850038 C 1326.2483 87.828404 1320.9548 100.46849 1318.2024 112.79546 C 1315.4395 126.64278 1315.4077 140.83422 1314.4656 154.8763 C 1312.1489 210.42285 1318.0905 265.82683 1320.2989 321.27518 C 1321.4201 344.29127 1322.4947 367.63352 1328.9492 389.88867 C 1331.6083 396.41524 1337.4102 401.04804 1342.9512 405.10352 C 1352.9372 411.73272 1364.1757 416.12298 1375.0526 421.03379 C 1408.6744 434.71932 1445.0639 439.15976 1480.9123 442.7647 C 1528.6062 446.54733 1576.0864 438.68111 1623.4797 434.54646 C 1650.7101 431.72702 1678.7709 428.31709 1703.3246 415.34691 C 1726.8635 401.96984 1742.9348 378.76204 1753.9437 354.57339 C 1769.7716 320.37146 1776.407 280.9819 1767.7305 243.93662 C 1760.5368 210.61793 1748.5174 177.21898 1725.834 151.17981 C 1710.904 134.27152 1690.8887 122.30619 1669.3901 115.77444 C 1646.8643 108.0474 1623.9018 101.56919 1601.7723 92.713435 C 1576.3023 83.364255 1549.883 76.176914 1522.7988 73.674585 C 1499.9421 71.151666 1477.0126 69.296004 1454.1973 66.40625 C 1445.6029 65.580461 1436.9735 65.033996 1428.3359 65.121094 z "
       id="path4546-6-5-5"
       inkscape:connector-curvature="0"
       sodipodi:nodetypes="cssssccccccccccccc" />
    <path
       style="color:#000000;display:inline;overflow:visible;visibility:visible;fill:#ffffff;fill-opacity:1;fill-rule:nonzero;stroke:none;stroke-width:0.600991px;marker:none;enable-background:accumulate"
       d="m 670.35742,769.71094 c -12.2973,0.9647 -24.88043,3.61674 -35.31645,10.49777 -8.26937,6.01073 -15.67977,13.16759 -22.32417,20.92215 -6.62645,7.92618 -12.45435,16.68654 -16.1348,26.37998 -3.14551,10.49958 -1.35181,21.73717 1.78536,32.01289 2.82779,8.96948 7.68064,17.87175 15.78303,23.07197 6.94429,4.14841 15.32919,4.36127 23.18225,3.9754 9.46419,-0.29273 19.23433,0.27025 28.00976,4.15103 9.04638,3.43181 18.21763,7.73729 28.11679,7.43852 13.77277,-0.35998 26.75813,-6.06737 38.3739,-13.09874 14.74173,-9.08988 26.7992,-23.24144 31.53588,-40.07628 2.84106,-10.03042 2.47383,-20.87049 -0.8408,-30.74109 -3.01302,-9.29937 -7.98249,-18.10356 -15.00292,-24.96219 -5.74301,-5.42623 -13.1915,-8.71524 -20.86833,-10.30244 -10.75987,-2.41067 -21.91535,-2.58388 -32.57378,-5.52158 -7.80876,-1.66324 -15.63484,-4.45051 -23.72572,-3.74739 z"
       id="path4040-41"
       inkscape:connector-curvature="0"
       sodipodi:nodetypes="zssssz" />
    <path
       style="color:#000000;display:inline;overflow:visible;visibility:visible;fill:#ffffff;fill-opacity:1;fill-rule:nonzero;stroke:none;stroke-width:0.785007px;marker:none;enable-background:accumulate"
       d="m 563.61538,325.42436 c -27.31436,0.41272 -54.90921,0.94056 -81.64412,7.85844 -7.86181,1.95295 -15.53982,5.50218 -21.67109,11.42716 -5.84324,5.40106 -10.58373,12.93608 -11.26182,21.55224 -0.7526,7.80623 0.42848,15.63292 1.57281,23.31691 1.5433,8.36795 4.9668,16.7769 11.32494,21.93152 7.87302,6.7714 17.51976,10.08435 26.73475,13.85306 18.79817,7.00439 38.80848,8.38252 58.49527,8.36583 30.78314,0.19052 61.61502,-1.6202 92.11649,-6.34334 13.9537,-2.74799 27.08239,-11.73444 34.78122,-25.0928 4.66723,-8.48035 6.43025,-19.12637 3.81384,-28.74434 -4.58463,-19.73466 -19.81993,-35.32692 -37.36992,-40.40504 -11.53288,-3.50702 -23.50695,-4.49026 -35.34221,-5.98048 -13.812,-1.37914 -27.68722,-1.79731 -41.55016,-1.73916 z"
       id="path4040-4-5-3-6"
       inkscape:connector-curvature="0"
       sodipodi:nodetypes="zssssz" />
    <path
       style="fill:#ffffff;fill-rule:evenodd;stroke:none;stroke-width:0.946996px;stroke-linecap:butt;stroke-linejoin:miter;stroke-opacity:1"
       d="m 568.85485,190.08371 c -27.90119,0.0474 -55.71739,2.22363 -83.60496,2.7072 -26.26265,0.66757 -52.65885,1.06757 -78.64408,4.66753 -18.9428,2.47815 -37.43668,8.55876 -52.63207,18.54404 -7.53418,4.91995 -13.75516,11.06873 -19.98375,17.10826 -6.17621,6.28361 -12.01471,13.00316 -15.59483,20.64709 -5.53617,12.56864 -5.56942,26.55134 -1.8083,39.47896 3.35297,10.66167 11.10657,20.23945 21.59676,26.79235 11.89122,7.63708 26.16659,12.10713 40.5365,15.14238 21.79045,4.29485 44.29004,4.27852 66.5179,5.21951 68.75561,2.20554 137.57335,0.23035 206.28106,-2.1864 31.49927,-1.73437 63.2939,-3.74717 93.78279,-11.0878 14.2845,-5.47978 25.55726,-15.40673 33.95552,-26.42137 7.34229,-11.12827 8.56046,-24.34543 7.03825,-36.80938 -1.62512,-16.34024 -10.81094,-32.25455 -25.92744,-42.67529 -19.70407,-14.91871 -45.37202,-23.43894 -71.44953,-26.10999 -18.74558,-2.28201 -37.61858,-4.02417 -56.559,-4.47264 -18.4598,-0.0124 -36.91463,-0.39852 -55.37262,-0.54002 -2.71071,-0.0181 -5.42147,-0.006 -8.1322,-0.005 z"
       id="path1299"
       inkscape:connector-curvature="0" />
    <path
       style="color:#000000;display:inline;overflow:visible;visibility:visible;fill:#ffffff;fill-opacity:1;fill-rule:nonzero;stroke:none;stroke-width:1px;marker:none;enable-background:accumulate"
       d="m 601.64274,401.13421 c -14.17455,40.88456 44.77094,72.82978 100.67006,54.05497 -23.16137,8.79652 -79.7912,49.66875 -144.52484,-46.85819 -30.03766,-44.79037 28.99451,-4.6799 28.99451,-4.6799 z"
       id="path4035-4"
       inkscape:connector-curvature="0"
       sodipodi:nodetypes="ccscc" />
    <path
       style="color:#000000;display:inline;overflow:visible;visibility:visible;fill:#ffffff;fill-opacity:1;fill-rule:nonzero;stroke:none;stroke-width:0.65663px;marker:none;enable-background:accumulate"
       d="m 611.41244,701.29174 c 17.11413,0.19349 18.72502,1.92575 19.18724,12.28702 0.46185,10.36191 -1.67076,26.02679 10.09463,35.89667 11.76506,9.87056 19.1963,13.36617 25.49665,11.79439 -5.19491,13.1306 -2.83584,31.62853 -10.75775,36.51466 -7.9219,4.88611 26.05967,-2.07377 26.05967,-2.07377 0,0 9.21399,-27.86213 6.82755,-44.34007 -2.3864,-16.4779 -28.23087,-11.38908 -37.42309,-16.46871 -9.19219,-5.07958 -7.20814,-26.722 -13.49221,-32.72081 -6.28377,-5.99953 -17.59228,-2.98484 -25.99269,-0.88938 z"
       id="path4538-7"
       inkscape:connector-curvature="0"
       sodipodi:nodetypes="ccscccsscc" />
    <path
       style="color:#000000;display:inline;overflow:visible;visibility:visible;fill:#ffffff;fill-opacity:1;fill-rule:nonzero;stroke:none;stroke-width:1.01366px;marker:none;enable-background:accumulate"
       d="m 1598.5835,596.86203 c 14.1467,-11.40413 29.0076,-23.09483 38.4486,-39.96949 2.5984,-4.85383 4.9981,-10.05752 6.0756,-15.49957 0.016,-5.8546 -3.8969,-10.34151 -8.4908,-12.17778 -6.4361,-3.18874 -14.5628,-3.42982 -19.4026,-9.63069 -3.4195,-4.61758 -1.8272,-11.14779 -0.9156,-16.72114 2.5699,-14.17326 6.8395,-28.1699 7.4104,-42.5769 1.5793,-16.24635 2.1988,-33.38893 -3.7408,-48.10801 -2.4394,-5.7727 -5.7341,-11.37091 -10.8601,-14.41865 -12.7918,-8.51566 -30.6307,-8.53627 -43.8564,1.70558 -7.9407,7.39354 -10.3193,22.05002 -3.5557,30.23691 3.5085,4.38614 9.2515,5.18736 14.4155,4.19228 9.6748,0.1491 18.2991,6.65319 22.6959,15.89335 3.7428,7.54995 5.2552,16.51182 4.6927,25.40135 2.0644,12.09608 -3.5504,23.92983 -6.6517,35.52848 -1.3509,5.3164 -2.467,11.0518 -1.4466,16.34944 3.0779,7.03972 10.5313,8.927 17.0498,9.68941 6.6944,0.98385 14.6099,1.26357 18.9566,7.63463 3.5752,3.9219 -0.1424,9.62907 -1.3852,14.17636 -5.6681,14.18394 -15.0865,26.49538 -26.0468,36.02362 -1.0987,0.82439 -2.2436,1.54861 -3.3927,2.27078 z"
       id="path4496-9"
       inkscape:connector-curvature="0"
       inkscape:transform-center-x="21.004464"
       inkscape:transform-center-y="-25.902749" />
    <path
       style="color:#000000;display:inline;overflow:visible;visibility:visible;fill:#ffffff;fill-opacity:1;fill-rule:nonzero;stroke:none;stroke-width:1.03729px;marker:none;enable-background:accumulate"
       d="m 2109.2559,751.99134 c -20.4103,6.10083 -40.0468,16.85113 -53.8,33.41265 -10.7709,14.46078 -16.5835,31.98514 -19.9326,49.53175 -1.4068,8.93082 -2.2092,18.35818 0.5,27.10829 3.2554,6.18918 11.8987,8.09797 17.7559,4.53442 7.5966,-3.5917 11.8306,-12.98928 9.3278,-21.03888 -1.6093,-16.53808 1.3652,-33.26989 6.7533,-48.89003 5.7833,-15.14652 16.5635,-28.06938 29.7192,-37.41611 3.7487,-2.79439 7.6932,-5.31046 11.6413,-7.81045 -0.655,0.18946 -1.3099,0.37891 -1.9649,0.56836 z"
       id="path5010-4"
       inkscape:connector-curvature="0"
       sodipodi:nodetypes="ccsc" />
    <path
       style="fill:#ffffff;stroke:none;stroke-width:0.973864"
       d="m 1694.6966,1491.3799 c -45.2399,1.787 -89.88,21.9355 -116.9189,55.4084 -10.3545,13.1806 -14.9862,29.3877 -16.061,45.4057 -2.6607,24.3672 -2.2577,48.8927 -2.6945,73.3437 0.848,17.1384 7.3076,34.7328 21.215,46.7358 17.3346,16.2935 41.5517,24.8459 65.7103,28.5088 38.0695,6.5678 77.0071,5.2935 115.5163,4.0052 30.2772,-1.5267 61.4003,-7.6695 86.5428,-23.8797 20.7623,-13.2286 35.9747,-34.2694 38.7768,-57.4588 3.0873,-21.7153 -0.8243,-43.539 -3.8998,-65.0591 -3.7,-22.2621 -10.133,-45.0314 -25.3614,-63.2133 -18.9343,-22.4365 -48.5635,-35.8979 -78.9201,-39.8879 -27.7199,-4.0301 -55.9144,-4.0206 -83.9055,-3.9088 z"
       id="path3280-10"
       inkscape:connector-curvature="0"
       sodipodi:nodetypes="csssc" />
    <path
       style="color:#000000;display:inline;overflow:visible;visibility:visible;fill:#ffffff;fill-opacity:1;fill-rule:nonzero;stroke:none;stroke-width:0.730994px;marker:none;enable-background:accumulate"
       d="m 1701.3359,1182.3633 c -23.6044,0.4972 -47.5014,8.2194 -65.537,23.7485 -16.8972,15.2472 -21.3862,42.7399 -9.3936,62.2553 7.3737,12.546 20.5403,20.6735 34.317,24.5048 22.0738,8.2236 45.7993,10.6274 69.1919,11.348 21.8322,0.47 44.2156,-1.001 64.7362,-9.0519 13.7438,-5.6802 26.0669,-16.1754 31.5122,-30.2834 6.1857,-15.1026 4.6669,-33.4624 -5.1548,-46.703 -9.4277,-13.4338 -24.3106,-21.9676 -39.6896,-26.8896 -23.7701,-7.8332 -49.0614,-8.7336 -73.8752,-8.9512 -2.0358,-7e-4 -4.0715,-0.013 -6.1071,0.023 z"
       id="path4546-6-89"
       inkscape:connector-curvature="0"
       sodipodi:nodetypes="cssssc" />
    <path
       style="fill:#ffffff;fill-rule:evenodd;stroke:none;stroke-width:0.479277px;stroke-linecap:butt;stroke-linejoin:miter;stroke-opacity:1"
       d="m 893.13501,1534.7305 c 27.51836,-11.7764 54.23289,-20.9661 71.61477,-23.4902 -3.55561,10.1642 -5.56972,16.3128 -14.89804,25.0191 24.30441,1.9047 70.63976,-18.9809 95.44776,-31.1705 -33.9587,5.7956 -60.1404,12.1497 -70.78238,13.5607 4.97656,-8.3585 6.96879,-14.5328 9.86224,-23.8449 -15.1281,3.6171 -70.65358,12.0504 -83.85269,9.4593 -13.19922,-2.5913 -7.39166,30.4665 -7.39166,30.4665 z"
       id="path1305"
       inkscape:connector-curvature="0"
       sodipodi:nodetypes="ccccccsc" />
    <path
       style="fill:#ffffff;fill-opacity:1;fill-rule:evenodd;stroke:none;stroke-width:1.00018px;stroke-linecap:butt;stroke-linejoin:miter;stroke-opacity:1"
       d="m 465.74707,1518.6835 c 28.87183,-9.1192 24.32313,25.2101 7.08566,76.0068 19.83535,-37.0327 58.62076,-47.2997 24.69692,23.1223 53.33209,-52.6037 91.37058,-74.3188 83.00707,-2.3147 70.72385,-68.9487 74.65488,-36.8251 69.66817,8.793 28.08575,-65.5454 54.57913,-72.7261 79.14209,-9.1518 -6.93201,-67.6734 30.95517,-65.8495 111.70601,2.4395 -36.07719,-71.4409 8.61948,-45.9866 53.75735,-20.0029 -37.94547,-61.151 14.27698,-27.2332 34.75897,-26.7811 -76.36992,-94.4184 -11.22818,-58.7115 29.89142,-45.0939 -39.46749,-26.6497 -58.64539,-51.1896 9.88191,-59.5861 -60.75668,-10.445 -35.2302,-33.0169 24.24399,-59.1229 -32.45545,4.4186 -94.63626,-13.2999 12.21427,-39.3505 -41.56582,4.6825 -82.33845,-11.1433 -34.95925,-29.7213 -15.60965,4.0943 -101.52369,-3.0935 -31.53248,-26.4535 -43.29633,4.8191 -58.96456,2.6133 38.1249,-28.2631 -150.7151,26.8491 -41.25336,-14.4327 -14.86102,-33.9617 -62.25583,15.7719 -167.4658,66.4722 -78.41792,-40.7897 -124.10967,106.9787 -109.53608,42.8841 -102.58613,-11.8065 -42.77091,85.7954 -57.68546,74.1392 -61.35602,23.1477 -19.97379,32.8685 -22.58532,9.1845 -24.77223,-15.8825 -19.92787,47.2468 -39.28645,72.7474 -55.98572,-3.3323 -9.18339,87.9292 -41.61144,70.8294 -79.15518,30.6149 6.77104,31.0863 -14.43617,16.5914 -45.11533,-13.3351 25.30032,79.3624 -23.64469,60.603 -40.67727,39.1497 13.49987,30.4059 19.42837,49.6602 -2.44747,27.9623 13.27872,42.0104 14.69227,67.8379 -8.1228,60.62 26.82013,34.102 18.18516,30.6145 7.96165,25.4426 10.06784,16.2962 7.71873,34.2294 -10.5109,43.4586 9.5137,14.9818 27.87758,27.6229 3.88482,51.4667 20.75982,-3.0455 22.61196,2.2936 1.12563,17.9823 29.51571,-18.3081 16.91582,5.721 -0.65111,34.7432 z"
       id="path1798"
       sodipodi:nodetypes="cccccccccccccccccccccccccccccccc" />
    <path
       style="fill:#ffffff;fill-rule:evenodd;stroke:none;stroke-width:0.960637px;stroke-linecap:butt;stroke-linejoin:miter;stroke-opacity:1"
       d="m 1778.0933,1289.0282 c 0,0 -3.9407,28.9212 8.0996,38.6226 12.0408,9.7023 15.4867,13.5023 36.0798,21.9048 -30.1647,-5.7228 -44.5902,-13.4046 -52.5226,-23.226 -7.9325,-9.8214 -20.0355,-30.3233 -22.8091,-36.2438 -2.7736,-5.9205 31.1523,-1.0576 31.1523,-1.0576 z"
       id="path1359"
       inkscape:connector-curvature="0" />
    <path
       style="fill:#ffffff;fill-rule:evenodd;stroke:none;stroke-width:1.51642px;stroke-linecap:butt;stroke-linejoin:miter;stroke-opacity:1"
       d="m 1879.5739,1605.0433 c 0,0 29.1528,33.6868 52.9454,28.1474 23.7942,-5.5388 31.7815,-6.1077 63.0487,-23.7148 -38.2213,32.3304 -62.191,42.8809 -81.8135,43.1241 -19.6227,0.2433 -55.9116,-4.864 -65.6341,-7.2483 -9.7228,-2.3842 31.4535,-40.3084 31.4535,-40.3084 z"
       id="path1359-6"
       inkscape:connector-curvature="0" />
    <path
       style="fill:#ffffff;fill-rule:evenodd;stroke:none;stroke-width:1.04628px;stroke-linecap:butt;stroke-linejoin:miter;stroke-opacity:1;filter:url(#filter1624-1-7)"
       d="m 304.54727,1936.8855 c 5.39109,-32.111 32.34599,-42.814 51.75368,-46.025 19.40768,-3.211 83.0216,-3.211 100.27283,9.633 17.25112,12.844 22.6421,36.392 16.17294,43.884 -6.46926,7.493 -15.09476,29.97 -38.81515,31.04 -23.7206,1.071 -74.39599,5.352 -94.88185,-6.422 -20.48586,-11.774 -36.6588,-14.985 -34.50245,-32.11 z"
       id="path1285-4-4"
       inkscape:connector-curvature="0"
       transform="matrix(1.2257744,0,0,1.060297,78.802093,-33.662704)" />
    <path
       style="fill:#ffffff;fill-rule:evenodd;stroke:none;stroke-width:1.04628px;stroke-linecap:butt;stroke-linejoin:miter;stroke-opacity:1;filter:url(#filter1624-1)"
       d="m 304.54727,1936.8855 c 5.39109,-32.111 32.34599,-42.814 51.75368,-46.025 19.40768,-3.211 83.0216,-3.211 100.27283,9.633 17.25112,12.844 22.6421,36.392 16.17294,43.884 -6.46926,7.493 -15.09476,29.97 -38.81515,31.04 -23.7206,1.071 -74.39599,5.352 -94.88185,-6.422 -20.48586,-11.774 -36.6588,-14.985 -34.50245,-32.11 z"
       id="path1285-4"
       inkscape:connector-curvature="0"
       transform="matrix(1.1958956,0,0,0.97870713,-64.882445,39.800192)" />
    <path
       style="fill:#ffffff;fill-rule:evenodd;stroke:none;stroke-width:1.04628px;stroke-linecap:butt;stroke-linejoin:miter;stroke-opacity:1;filter:url(#filter1624)"
       d="m 115.7959,1883.6103 c 5.39109,-32.111 32.34599,-42.814 51.75368,-46.025 19.40768,-3.211 83.0216,-3.211 100.27283,9.633 17.25112,12.844 22.6421,36.392 16.17294,43.884 -6.46926,7.493 -15.09476,29.97 -38.81515,31.04 -23.7206,1.071 -74.39599,5.352 -94.88185,-6.422 -20.48586,-11.774 -36.6588,-14.985 -34.50245,-32.11 z"
       id="path1285"
       inkscape:connector-curvature="0"
       transform="matrix(1.0933918,0,0,0.98960959,-10.339256,19.531819)" />
    <path
       style="color:#000000;display:inline;overflow:visible;visibility:visible;fill:#ffffff;fill-opacity:1;fill-rule:nonzero;stroke:none;stroke-width:0.921112px;marker:none;enable-background:accumulate"
       d="m 1241.0664,2352.3233 c -36.2286,-32.2998 -77.602,-59.113 -107.8532,-97.7871 l 6.9677,43.9112 c -17.7743,-7.7018 -29.1706,-25.5756 -42.7328,-39.995 l -0.057,27.888 c -41.735,-18.7232 -69.4761,-51.7603 -103.98103,-77.8792 l 3.66035,48.6148 c 37.88508,22.0665 78.75808,37.3542 113.28208,67.0437 l 2.7503,-27.2332 c 13.303,8.4793 26.3021,17.5344 37.9439,29.1641 l 0.5073,-34.5085 z"
       id="path4032-8"
       inkscape:connector-curvature="0"
       sodipodi:nodetypes="cccccccccccc" />
    <path
       style="opacity:1;fill:#ffffff;fill-rule:evenodd;stroke:none;stroke-width:0.923883px;stroke-linecap:butt;stroke-linejoin:miter;stroke-opacity:1"
       d="m 707.98583,2153.9416 c 46.06585,-3.71 46.21035,-22.4352 14.10316,-51.7058 23.26815,0.1363 15.35674,-18.1251 -1.12047,-41.4407 61.46784,28.7105 72.21016,-20.5013 54.84968,-77.5544 49.49168,67.1697 50.07587,28.4005 68.10734,-53.0521 10.28889,29.9734 23.90367,122.8095 81.60412,42.4068 -9.94877,66.9216 21.23609,20.6134 46.15655,-2.719 4.46941,9.6409 -40.41407,65.2732 24.92599,-3.6887 -47.15538,91.4191 25.6853,16.1788 48.267,-9.148 -23.4676,43.2369 -74.99525,108.039 -5.892,83.1286 -50.25238,50.0208 -5.8219,31.1958 16.5577,28.9061 -28.3831,20.7975 -29.5033,41.3996 -0.5684,33.0705 -42.1849,38.9217 -9.3498,42.1844 10.9758,43.3438 -15.8082,2.9798 -54.7384,20.0724 -4.5151,23.576 -34.7088,12.4278 -24.5168,45.5628 -19.5504,59.1169 -38.3937,-4.7181 -11.1424,40.6656 3.162,69.9104 -26.5112,-12.5236 -67.84699,-44.8665 -38.6251,12.2481 -65.00754,-34.1395 -39.37946,0.6718 -24.89135,42.03 -47.71482,-34.6571 -55.03294,-51.5284 -69.66672,-22.8562 -16.13542,-24.1043 -19.00312,-2.9812 -23.96739,22.5971 -9.94345,-51.6999 -26.85093,-20.2628 -44.8164,11.0334 -9.30901,-53.8683 -27.65185,-31.2483 -44.83627,-16.6774 0.0687,-61.8923 -23.1075,-46.8638 -69.94901,-0.897 36.78373,-43.2544 56.92358,-86.0991 -4.08694,-60.8009 19.597,-12.5883 37.88114,-50.4679 11.77123,-36.7051 11.65666,-9.5615 22.62167,-31.2999 -11.9825,-25.1166 32.21791,-13.261 28.35397,-23.9727 -6.64382,-32.4844 60.25279,-11.8787 33.31217,-24.677 -9.3687,-36.5214 z"
       id="path523"
       sodipodi:nodetypes="cccccccccccccccccccccccccccc" />
  </g>
  <g
     inkscape:groupmode="layer"
     id="layer1"
     inkscape:label="txt">
    <text
       xml:space="preserve"
       style="font-style:normal;font-variant:normal;font-weight:normal;font-stretch:normal;font-size:45px;line-height:1.25;font-family:Lavi;-inkscape-font-specification:Lavi;text-align:center;letter-spacing:0px;word-spacing:0px;text-anchor:middle;fill:#000000;fill-opacity:1;stroke:none"
       x="551.30963"
       y="251.32907"
       id="text4246-3-2-2-6-3-7-9-3"><tspan
         style="font-size:45px;"
         sodipodi:role="line"
         x="551.30963"
         y="251.32907"
         id="tspan952-5">Scusa Pepper,</tspan><tspan
         style="font-size:45px;"
         sodipodi:role="line"
         x="551.30963"
         y="307.5791"
         id="tspan27">ma devi andartene.</tspan></text>
    <text
       xml:space="preserve"
       style="font-style:normal;font-variant:normal;font-weight:normal;font-stretch:normal;font-size:45px;line-height:1.25;font-family:Lavi;-inkscape-font-specification:Lavi;text-align:center;letter-spacing:0px;word-spacing:0px;text-anchor:middle;fill:#000000;fill-opacity:1;stroke:none"
       x="567.57123"
       y="391.13892"
       id="text4246-3-2-2-6-3-7-9-3-3"><tspan
         style="font-size:45px"
         sodipodi:role="line"
         x="567.57123"
         y="391.13892"
         id="tspan27-7">Adesso.</tspan></text>
    <text
       xml:space="preserve"
       style="font-style:normal;font-variant:normal;font-weight:normal;font-stretch:normal;font-size:45px;line-height:1.25;font-family:Lavi;-inkscape-font-specification:Lavi;text-align:center;letter-spacing:0px;word-spacing:0px;text-anchor:middle;fill:#000000;fill-opacity:1;stroke:none"
       x="676.57495"
       y="846.57025"
       id="text4246-3-2-2-6-3-7-9-3-3-5"><tspan
         style="font-size:45px"
         sodipodi:role="line"
         x="676.57495"
         y="846.57025"
         id="tspan27-7-3">Hoh?</tspan></text>
    <text
       xml:space="preserve"
       style="font-style:normal;font-variant:normal;font-weight:normal;font-stretch:normal;font-size:45px;line-height:1.25;font-family:Lavi;-inkscape-font-specification:Lavi;text-align:center;letter-spacing:0px;word-spacing:0px;text-anchor:middle;fill:#000000;fill-opacity:1;stroke:none"
       x="1552.2219"
       y="199.04332"
       id="text4246-3-2-2-6-3-7-9-3-3-56"><tspan
         style="font-size:45px"
         sodipodi:role="line"
         x="1552.2219"
         y="199.04332"
         id="tspan109">Hei hei hei, </tspan><tspan
         style="font-size:45px"
         sodipodi:role="line"
         x="1552.2219"
         y="255.29332"
         id="tspan923">aspetta un attimo! </tspan><tspan
         style="font-size:45px"
         sodipodi:role="line"
         x="1552.2219"
         y="311.54333"
         id="tspan938">Sono sicura che qui</tspan><tspan
         style="font-size:45px"
         sodipodi:role="line"
         x="1552.2219"
         y="367.79333"
         id="tspan942">ci sia un equivoco.</tspan></text>
    <text
       xml:space="preserve"
       style="font-style:normal;font-variant:normal;font-weight:normal;font-stretch:normal;font-size:45px;line-height:1.25;font-family:Lavi;-inkscape-font-specification:Lavi;text-align:center;letter-spacing:0px;word-spacing:0px;text-anchor:middle;fill:#000000;fill-opacity:1;stroke:none"
       x="2151.1533"
       y="931.95001"
       id="text4246-3-2-2-6-3-7-9-3-3-56-9"><tspan
         style="font-size:45px"
         sodipodi:role="line"
         x="2151.1533"
         y="931.95001"
         id="tspan227">Per favore Pepper </tspan><tspan
         style="font-size:45px"
         sodipodi:role="line"
         x="2151.1533"
         y="988.20001"
         id="tspan946">non mettermi</tspan><tspan
         style="font-size:45px"
         sodipodi:role="line"
         x="2151.1533"
         y="1044.45"
         id="tspan225">in difficoltà.</tspan></text>
    <text
       xml:space="preserve"
       style="font-style:normal;font-variant:normal;font-weight:normal;font-stretch:normal;font-size:45px;line-height:1.25;font-family:Lavi;-inkscape-font-specification:Lavi;text-align:center;letter-spacing:0px;word-spacing:0px;text-anchor:middle;fill:#000000;fill-opacity:1;stroke:none"
       x="705.56104"
       y="1351.6949"
       id="text4246-3-2-2-6-3-7-9-3-3-56-9-3"><tspan
         style="font-size:45px"
         sodipodi:role="line"
         x="705.56104"
         y="1351.6949"
         id="tspan976">Hei tu! Lì sul  trono,</tspan><tspan
         style="font-size:45px"
         sodipodi:role="line"
         x="705.56104"
         y="1407.9449"
         id="tspan337">se hai dei problemi</tspan><tspan
         style="font-size:45px"
         sodipodi:role="line"
         x="705.56104"
         y="1464.1949"
         id="tspan323">con me, vieni qui e</tspan><tspan
         style="font-size:45px"
         sodipodi:role="line"
         x="705.56104"
         y="1520.4449"
         id="tspan980">dimmelo in faccia!</tspan></text>
    <text
       xml:space="preserve"
       style="font-style:normal;font-variant:normal;font-weight:normal;font-stretch:normal;font-size:52.7307px;line-height:1.25;font-family:Lavi;-inkscape-font-specification:Lavi;text-align:center;letter-spacing:0px;word-spacing:0px;text-anchor:middle;fill:#000000;fill-opacity:1;stroke:none;stroke-width:1.17179"
       x="1726.7211"
       y="1258.5393"
       id="text4246-3-2-2-6-3-7-9-3-3-56-9-3-2"><tspan
         style="font-size:52.7307px;stroke-width:1.17179"
         sodipodi:role="line"
         x="1726.7211"
         y="1258.5393"
         id="tspan222-9">Tsss...</tspan></text>
    <text
       xml:space="preserve"
       style="font-style:normal;font-variant:normal;font-weight:normal;font-stretch:normal;font-size:45px;line-height:1.25;font-family:Lavi;-inkscape-font-specification:Lavi;text-align:center;letter-spacing:0px;word-spacing:0px;text-anchor:middle;fill:#000000;fill-opacity:1;stroke:none"
       x="1726.0173"
       y="1569.9558"
       id="text4246-3-2-2-6-3-7-9-3-3-56-9-3-20"><tspan
         style="font-size:45px"
         sodipodi:role="line"
         x="1726.0173"
         y="1569.9558"
         id="tspan222-92">Shichimi, </tspan><tspan
         style="font-size:45px"
         sodipodi:role="line"
         x="1726.0173"
         y="1626.2058"
         id="tspan332">hai </tspan><tspan
         style="font-size:45px"
         sodipodi:role="line"
         x="1726.0173"
         y="1682.4558"
         id="tspan334">dieci secondi...</tspan></text>
    <text
       xml:space="preserve"
       style="font-style:normal;font-variant:normal;font-weight:normal;font-stretch:normal;font-size:45px;line-height:1.25;font-family:Lavi;-inkscape-font-specification:Lavi;text-align:center;letter-spacing:0px;word-spacing:0px;text-anchor:middle;fill:#000000;fill-opacity:1;stroke:none"
       x="210.39514"
       y="1889.5347"
       id="text4246-3-2-2-6-3-7-9-3-3-56-9-3-20-2"><tspan
         style="font-size:45px"
         sodipodi:role="line"
         x="210.39514"
         y="1889.5347"
         id="tspan334-7">nove...</tspan></text>
    <text
       xml:space="preserve"
       style="font-style:normal;font-variant:normal;font-weight:normal;font-stretch:normal;font-size:45px;line-height:1.25;font-family:Lavi;-inkscape-font-specification:Lavi;text-align:center;letter-spacing:0px;word-spacing:0px;text-anchor:middle;fill:#000000;fill-opacity:1;stroke:none"
       x="399.80328"
       y="1942.1443"
       id="text4246-3-2-2-6-3-7-9-3-3-56-9-3-20-2-3"><tspan
         style="font-size:45px"
         sodipodi:role="line"
         x="399.80328"
         y="1942.1443"
         id="tspan334-7-6">otto...</tspan></text>
    <text
       xml:space="preserve"
       style="font-style:normal;font-variant:normal;font-weight:normal;font-stretch:normal;font-size:45px;line-height:1.25;font-family:Lavi;-inkscape-font-specification:Lavi;text-align:center;letter-spacing:0px;word-spacing:0px;text-anchor:middle;fill:#000000;fill-opacity:1;stroke:none"
       x="564.68182"
       y="2025.6428"
       id="text4246-3-2-2-6-3-7-9-3-3-56-9-3-20-2-3-1"><tspan
         style="font-size:45px"
         sodipodi:role="line"
         x="564.68182"
         y="2025.6428"
         id="tspan334-7-6-2">sette...</tspan></text>
    <text
       xml:space="preserve"
       style="font-style:normal;font-variant:normal;font-weight:normal;font-stretch:normal;font-size:55.953px;line-height:1.25;font-family:Lavi;-inkscape-font-specification:Lavi;text-align:center;letter-spacing:0px;word-spacing:0px;text-anchor:middle;fill:#000000;fill-opacity:1;stroke:none;stroke-width:0.902468"
       x="1071.624"
       y="2083.1938"
       id="text4246-3-2-2-6-3-7-9-3-3-56-9-3-20-2-3-1-9"
       transform="skewX(-4.8400228)"><tspan
         style="font-style:normal;font-variant:normal;font-weight:bold;font-stretch:normal;font-size:55.953px;font-family:Lavi;-inkscape-font-specification:'Lavi Bold';stroke-width:0.902468"
         sodipodi:role="line"
         x="1071.624"
         y="2083.1938"
         id="tspan451">BASTA, </tspan><tspan
         style="font-style:normal;font-variant:normal;font-weight:bold;font-stretch:normal;font-size:55.953px;font-family:Lavi;-inkscape-font-specification:'Lavi Bold';stroke-width:0.902468"
         sodipodi:role="line"
         x="1071.624"
         y="2153.135"
         id="tspan457">PEPPER!</tspan><tspan
         style="font-style:normal;font-variant:normal;font-weight:bold;font-stretch:normal;font-size:55.953px;font-family:Lavi;-inkscape-font-specification:'Lavi Bold';stroke-width:0.902468"
         sodipodi:role="line"
         x="1071.624"
         y="2223.0764"
         id="tspan918">VATTENE</tspan><tspan
         style="font-style:normal;font-variant:normal;font-weight:bold;font-stretch:normal;font-size:55.953px;font-family:Lavi;-inkscape-font-specification:'Lavi Bold';stroke-width:0.902468"
         sodipodi:role="line"
         x="1071.624"
         y="2293.0176"
         id="tspan339">VIA!!!</tspan></text>
    <text
       xml:space="preserve"
       style="font-style:normal;font-variant:normal;font-weight:normal;font-stretch:normal;font-size:180px;line-height:1.25;font-family:Lavi;-inkscape-font-specification:Lavi;letter-spacing:0px;word-spacing:0px;fill:#ffffff;fill-opacity:1;stroke:#ffffff;stroke-width:0.74524;stroke-miterlimit:4;stroke-dasharray:none;stroke-opacity:1;filter:url(#filter4375-4-1-1-1-9-5-8-8-5-5-3-3)"
       id="text4580-6-0-0-0-9-3-3"
       transform="matrix(0.88341196,-0.53750677,0,1.1213027,-74.551071,722.92786)"
       x="418.61386"
       y="279.76691"><textPath
         xlink:href="#path974"
         id="textPath2837"
         style="font-size:180px;stroke-width:0.74524"><tspan
           style="font-size:180px;fill:#ffffff;fill-opacity:1;stroke:#ffffff;stroke-width:0.74524;stroke-miterlimit:4;stroke-dasharray:none;stroke-opacity:1"
           id="tspan876-6-6"
           rotate="325 325 325 325 325 325 325 325 325 0">SHRRIiii!</tspan></textPath></text>
    <path
       style="fill:none;fill-rule:evenodd;stroke:none;stroke-width:1.13654px;stroke-linecap:butt;stroke-linejoin:miter;stroke-opacity:1"
       d="m 2062.1793,2191.5476 c 235.3161,220.1206 417.0174,422.7368 620.7004,632.5297"
       id="path974"
       sodipodi:nodetypes="cc" />
  </g>
</svg>
