<?xml version="1.0" encoding="UTF-8" standalone="no"?>
<!-- Created with Inkscape (http://www.inkscape.org/) -->

<svg
   xmlns:dc="http://purl.org/dc/elements/1.1/"
   xmlns:cc="http://creativecommons.org/ns#"
   xmlns:rdf="http://www.w3.org/1999/02/22-rdf-syntax-ns#"
   xmlns:svg="http://www.w3.org/2000/svg"
   xmlns="http://www.w3.org/2000/svg"
   xmlns:xlink="http://www.w3.org/1999/xlink"
   xmlns:sodipodi="http://sodipodi.sourceforge.net/DTD/sodipodi-0.dtd"
   xmlns:inkscape="http://www.inkscape.org/namespaces/inkscape"
   id="svg2"
   version="1.1"
   inkscape:version="0.92.3 (unknown)"
   width="2481"
   height="3503"
   sodipodi:docname="E27P02.svg">
  <metadata
     id="metadata8">
    <rdf:RDF>
      <cc:Work
         rdf:about="">
        <dc:format>image/svg+xml</dc:format>
        <dc:type
           rdf:resource="http://purl.org/dc/dcmitype/StillImage" />
        <dc:title />
      </cc:Work>
    </rdf:RDF>
  </metadata>
  <defs
     id="defs6" />
  <sodipodi:namedview
     pagecolor="#ffffff"
     bordercolor="#666666"
     borderopacity="1"
     objecttolerance="10"
     gridtolerance="10"
     guidetolerance="10"
     inkscape:pageopacity="0"
     inkscape:pageshadow="2"
     inkscape:window-width="1920"
     inkscape:window-height="1025"
     id="namedview4"
     showgrid="false"
     inkscape:zoom="0.4574026"
     inkscape:cx="864.98687"
     inkscape:cy="2443.5311"
     inkscape:window-x="0"
     inkscape:window-y="0"
     inkscape:window-maximized="1"
     inkscape:current-layer="layer1"
     inkscape:snap-global="false" />
  <g
     inkscape:groupmode="layer"
     id="layer2"
     inkscape:label="artwork"
     sodipodi:insensitive="true">
    <image
       sodipodi:absref="/mnt/Media/Komiksy/webcomics/ep27_Coriander-s-Invention/lang/pl/../gfx_Pepper-and-Carrot_by-David-Revoy_E27P02.png"
       xlink:href="../gfx_Pepper-and-Carrot_by-David-Revoy_E27P02.png"
       width="2481"
       height="3503"
       id="image10"
       x="0"
       y="0" />
  </g>
  <g
     inkscape:groupmode="layer"
     id="layer3"
     inkscape:label="speechbubbles">
    <path
       style="fill:#ffffff;fill-rule:evenodd;stroke:none;stroke-width:1px;stroke-linecap:butt;stroke-linejoin:miter;stroke-opacity:1"
       d="m 460.94747,195.57139 c 5.74488,1.63451 59.91087,0 64.83504,-0.81725 4.92419,-0.81726 41.85554,-7.35529 50.88321,-5.72078 9.02767,1.63451 71.40061,10.6243 82.89037,11.44156 11.48975,0.81725 66.47643,2.45176 76.32479,7.35529 9.84837,4.90352 22.97952,9.80705 30.3658,17.9796 7.38627,8.17254 18.05532,33.50743 17.23462,39.22821 -0.8207,5.72078 -12.31045,44.94899 -18.87602,50.66977 -6.56557,5.72078 -29.54508,24.51763 -36.11066,26.9694 -6.56558,2.45176 -21.33811,8.98979 -28.72439,11.44156 -7.38627,2.45176 -174.80841,4.90352 -195.32583,5.72078 -20.51742,0.81725 -100.12501,-4.90353 -114.07686,-5.72078 -13.95184,-0.81726 -46.77972,1.63451 -68.11782,-6.53804 -21.33813,-8.17254 -36.11067,-38.41095 -42.67624,-44.13174 -6.56558,-5.72078 -18.05533,-30.23841 -17.23463,-39.22821 0.82069,-8.9898 17.23463,-30.23841 25.44159,-32.69017 8.20697,-2.45177 41.85554,-22.88313 61.55226,-26.9694 19.69673,-4.08627 67.29714,-13.89332 76.3248,-13.07607 12.35712,1.64213 11.0589,0.16304 35.28997,4.08627 z"
       id="path1323"
       inkscape:connector-curvature="0"
       sodipodi:nodetypes="ccsscscsscsssccsscc" />
    <path
       style="fill:#ffffff;fill-rule:evenodd;stroke:none;stroke-width:0.99999994px;stroke-linecap:butt;stroke-linejoin:miter;stroke-opacity:1"
       d="m 172.66645,163.77351 c 10.53318,-19.15682 29.62457,-29.0442 39.49941,-31.51605 9.87486,-2.47185 26.33295,3.08981 35.54949,1.85389 9.21652,-1.23593 44.10767,-12.35924 57.27415,-11.74128 13.16646,0.61796 52.00756,4.32573 64.51571,4.9437 12.50814,0.61796 43.44936,3.0898 54.64086,9.88738 11.19151,6.79758 23.69965,14.21312 25.67462,21.0107 1.97497,6.79758 6.58324,19.77478 1.97497,30.89809 -4.60826,11.12331 -15.79976,30.28013 -30.28288,32.13401 -14.48312,1.85389 -86.2404,8.65147 -102.04016,8.0335 -15.79977,-0.61796 -59.24913,0 -69.78231,0 -10.53318,0 -48.71595,-4.32573 -59.90745,-12.35923 -11.1915,-8.0335 -19.7497,-24.10051 -21.06635,-33.9879 -1.31665,-9.88738 3.94994,-19.15681 3.94994,-19.15681 z"
       id="path1325"
       inkscape:connector-curvature="0" />
    <path
       style="fill:#ffffff;fill-rule:evenodd;stroke:none;stroke-width:1px;stroke-linecap:butt;stroke-linejoin:miter;stroke-opacity:1"
       d="m 544.4243,343.97954 c 6.17962,25.33643 -4.94369,76.0093 4.32573,89.60445 9.26943,13.59516 11.12331,11.74128 19.15682,18.53886 -12.35924,15.44904 -17.92089,33.36993 -16.68497,42.63936 1.23592,9.26942 4.32573,33.36993 35.84178,44.49324 -27.19032,-19.15681 -24.71847,-38.31363 -23.48255,-43.87528 1.23593,-5.56166 6.17962,-34.60586 21.62867,-42.0214 -15.44905,-11.74127 -23.48255,-24.71847 -23.48255,-32.13401 0,-7.41554 8.65146,-82.80688 8.65146,-82.80688 z"
       id="path1327"
       inkscape:connector-curvature="0" />
    <path
       style="fill:#ffffff;fill-rule:evenodd;stroke:none;stroke-width:1px;stroke-linecap:butt;stroke-linejoin:miter;stroke-opacity:1"
       d="m 1028.778,99.513979 c -32.42456,17.031151 -62.38624,30.970451 -66.70952,55.949461 -4.32327,24.97901 -16.21228,45.41639 -17.2931,62.44753 -1.08082,17.03115 7.26449,79.16428 14.83022,101.87247 7.56573,22.7082 48.6369,74.93704 54.0409,79.47868 5.4041,4.54163 41.0712,19.30196 58.3643,26.11442 17.2931,6.81246 155.6379,11.35409 180.4967,14.76032 24.8589,3.40623 91.8696,-15.89573 109.1628,-23.8436 17.2931,-7.94787 41.0711,-11.3541 51.8793,-24.97901 10.8082,-13.62491 35.667,-49.95802 39.9903,-65.85375 4.3232,-15.89574 4.3232,-70.3954 4.3232,-81.7495 0,-11.3541 -1.0808,-61.31212 -21.6163,-82.8849 -20.5356,-21.57278 -55.1218,-51.09344 -82.1423,-60.17671 -27.0205,-9.083277 -190.2241,-22.708193 -208.598,-23.843603 -18.374,-1.135409 -116.7285,22.708192 -116.7285,22.708192 z"
       id="path1329"
       inkscape:connector-curvature="0"
       sodipodi:nodetypes="cssscsscscscssc" />
    <path
       style="fill:#ffffff;fill-rule:evenodd;stroke:none;stroke-width:0.83407217px;stroke-linecap:butt;stroke-linejoin:miter;stroke-opacity:1"
       d="m 1055.2353,395.10744 c -23.5293,14.36798 -49.7736,27.83798 -55.2035,37.71597 -5.42982,9.87799 -12.66963,36.81796 -9.04979,49.38996 3.61997,12.57199 15.38469,64.65595 28.95929,74.53394 13.5746,9.87799 57.0136,40.40997 78.733,40.40997 21.7194,0 91.4025,11.67399 103.1673,10.77599 11.7646,-0.898 87.7826,9.87799 107.6922,0.898 19.9094,-8.98 45.2487,-25.14398 60.6334,-30.53198 15.3844,-5.38799 52.4885,-8.08199 63.3482,-27.83798 10.8598,-19.75598 15.7192,-55.03303 7.2399,-80.81994 -8.2009,-24.93996 -25.3393,-46.69595 -52.4887,-60.16595 -27.1492,-13.46998 -114.027,-43.10396 -114.027,-43.10396 l -130.3165,-11.67399 c 0,0 -20.8145,8.08199 -42.534,19.75598 -21.7194,11.67399 -46.1538,20.65399 -46.1538,20.65399 z"
       id="path1331"
       inkscape:connector-curvature="0"
       sodipodi:nodetypes="csccsccccasccsc" />
    <path
       style="fill:#ffffff;fill-rule:evenodd;stroke:none;stroke-width:1px;stroke-linecap:butt;stroke-linejoin:miter;stroke-opacity:1"
       d="m 1351.9814,582.45483 c 0,0 27.0205,22.6972 35.667,37.82867 8.6466,15.13146 27.0205,36.74784 22.6972,76.73814 10.8082,-51.87931 10.8082,-67.01077 -20.5355,-116.72844 -31.3438,-49.71768 -37.8287,2.16163 -37.8287,2.16163 z"
       id="path1333"
       inkscape:connector-curvature="0" />
    <path
       style="fill:#ffffff;fill-rule:evenodd;stroke:none;stroke-width:1.04007399px;stroke-linecap:butt;stroke-linejoin:miter;stroke-opacity:1"
       d="m 1604.7755,231.8935 c 12.1011,-46.74643 16.1347,-74.01519 44.3704,-90.89585 28.2357,-16.88066 143.8676,-31.16429 160.0023,-32.4628 16.1347,-1.29851 64.5387,3.89554 87.3962,3.89554 22.8575,0 141.1785,-2.59703 160.0023,-2.59703 18.8238,0 95.4636,0 115.632,2.59703 20.1683,2.59702 91.4298,18.17916 103.5309,29.86578 12.101,11.6866 47.0594,61.03006 48.404,93.49287 1.3446,32.4628 -1.3446,85.7018 -25.5466,106.47799 -24.202,20.77619 -80.6735,46.74643 -118.3211,54.53751 -37.6475,7.79107 -221.8519,16.88065 -243.3647,16.88065 -21.513,0 -112.9428,3.89554 -157.3132,-2.59702 -44.3704,-6.49256 -92.7745,-25.97024 -115.6319,-44.14941 -22.8575,-18.17918 -51.0933,-31.16429 -59.1606,-66.22412 -8.0673,-35.05983 0,-68.82114 0,-68.82114 z"
       id="path1335"
       inkscape:connector-curvature="0" />
    <path
       style="fill:#ffffff;fill-rule:evenodd;stroke:none;stroke-width:1px;stroke-linecap:butt;stroke-linejoin:miter;stroke-opacity:1"
       d="m 1746.5526,423.03907 c 27.5116,26.61792 42.8588,47.56076 -11.4058,80.71719 49.1355,-0.72812 43.5728,20.05383 34.2174,45.56614 66.8976,-20.5973 113.7421,-7.40942 120.3948,32.54725 43.9171,-32.2476 50.5645,-26.46532 83.6426,-1.30189 39.6321,-49.89404 62.6056,-15.54139 91.2465,-10.41512 -5.8821,-23.03081 13.5288,-43.92498 62.4748,-10.21797 -17.5693,-18.88765 -10.6126,-65.99877 56.6527,-69.19731 -30.151,-10.89059 -73.1985,-22.51429 -22.8117,-69.00017 -77.6206,-8.98442 -39.9485,-27.33589 -51.9598,-41.66048 l -112.7909,-13.0189 -114.0581,7.81134 -58.2964,5.20756 c -1.4105,20.45876 4.4806,42.79545 -77.3061,42.96236 z"
       id="path1337"
       inkscape:connector-curvature="0"
       sodipodi:nodetypes="cccccccccccccc" />
    <path
       style="fill:#ffffff;fill-rule:evenodd;stroke:none;stroke-width:1px;stroke-linecap:butt;stroke-linejoin:miter;stroke-opacity:1"
       d="m 2083.819,528.58622 c 24.8588,19.45474 57.2834,63.76832 55.1217,92.95043 10.8082,-38.90948 -17.2931,-97.27371 -31.3437,-112.40517 -14.0507,-15.13147 -23.778,19.45474 -23.778,19.45474 z"
       id="path1339"
       inkscape:connector-curvature="0" />
    <path
       style="fill:#ffffff;fill-rule:evenodd;stroke:none;stroke-width:1px;stroke-linecap:butt;stroke-linejoin:miter;stroke-opacity:1"
       d="m 890.21141,1438.6648 c 10.99475,-34.2595 32.98428,-50.6446 62.82721,-59.5818 29.84293,-8.9372 108.37698,1.4895 128.79578,1.4895 20.4188,0 102.0943,7.4477 113.089,19.3641 10.9948,11.9164 37.6963,37.2387 29.8429,64.0505 -7.8534,26.8118 -17.2775,53.6236 -59.6858,68.519 -42.4084,14.8954 -81.6754,0 -97.3823,1.4896 -15.7068,1.4895 -36.1256,8.9372 -80.10461,1.4895 -43.97905,-7.4477 -100.52356,-46.1759 -97.38218,-96.8204 z"
       id="path1341"
       inkscape:connector-curvature="0" />
    <path
       style="fill:#ffffff;fill-rule:evenodd;stroke:none;stroke-width:1px;stroke-linecap:butt;stroke-linejoin:miter;stroke-opacity:1"
       d="m 1321.8416,1549.9601 c -25.1103,-26.3097 -29.3743,-46.7563 -36.94,-53.2412 -7.5658,-6.4849 -52.768,-40.79 -87.3542,-44.0325 -34.5862,-3.2424 -28.1013,24.8589 -28.1013,24.8589 0,0 36.7479,1.0808 51.8793,5.4041 15.1315,4.3232 48.6369,20.5355 54.041,24.8588 5.4041,4.3233 19.4547,27.0205 46.4752,42.1519 z"
       id="path1343"
       inkscape:connector-curvature="0"
       sodipodi:nodetypes="cccccsc" />
    <path
       style="fill:#ffffff;fill-rule:evenodd;stroke:none;stroke-width:1px;stroke-linecap:butt;stroke-linejoin:miter;stroke-opacity:1"
       d="m 1847.0115,1634.8585 c 65.8759,-41.0171 79.5483,-53.4465 129.266,-55.9324 49.7176,-2.4859 59.6612,-29.8306 59.6612,-29.8306 0,0 -34.8024,-1.243 -72.0906,6.2147 -37.2883,7.4576 -95.7066,37.2882 -116.8366,79.5483 z"
       id="path1345"
       inkscape:connector-curvature="0" />
    <path
       style="fill:#ffffff;fill-rule:evenodd;stroke:none;stroke-width:0.99999988px;stroke-linecap:butt;stroke-linejoin:miter;stroke-opacity:1"
       d="m 1980.1886,1519.225 c 17.7997,-20.9727 63.5703,-43.2562 91.5412,-47.1886 27.9708,-3.9323 116.9692,5.2432 136.0403,17.0403 19.071,11.7972 58.4846,20.9728 57.2132,58.9858 -1.2715,38.013 5.0856,55.0534 -24.1567,76.026 -29.2423,20.9728 -132.2261,15.7296 -155.1113,14.4188 -22.8854,-1.3107 -66.1131,-6.5539 -88.9984,-30.1483 -22.8853,-23.5942 -33.0565,-48.4993 -16.5283,-89.134 z"
       id="path1347"
       inkscape:connector-curvature="0" />
    <path
       style="fill:#ffffff;fill-rule:evenodd;stroke:none;stroke-width:1px;stroke-linecap:butt;stroke-linejoin:miter;stroke-opacity:1"
       d="m 2013.5657,1655.9885 c 19.8871,-34.8024 68.3618,-47.2318 79.5483,-47.2318 11.1865,0 98.1924,7.4576 114.3506,7.4576 16.1583,0 49.7177,-7.4576 68.3618,-4.9717 18.6442,2.4859 53.4465,0 68.3618,24.8588 14.9153,24.8588 26.1018,79.5483 22.373,103.1642 -3.7288,23.6159 4.9718,54.6894 -11.1865,90.7347 -16.1582,36.0453 -22.3729,49.7177 -45.9888,60.9042 -23.6159,11.1865 -135.4807,6.2147 -160.3395,2.4859 -24.8589,-3.7289 -73.3336,0 -94.4636,-6.2147 -21.13,-6.2148 -54.6894,-27.3448 -49.7177,-53.4465 4.9718,-26.1018 -8.7006,-49.7177 -2.4859,-94.4636 6.2148,-44.7459 11.1865,-83.2771 11.1865,-83.2771 z"
       id="path1349"
       inkscape:connector-curvature="0" />
    <path
       style="fill:#ffffff;fill-rule:evenodd;stroke:none;stroke-width:0.99999994px;stroke-linecap:butt;stroke-linejoin:miter;stroke-opacity:1"
       d="m 110.76633,2399.1151 c 0,-35.8207 25.87264,-41.7908 42.74609,-41.7908 16.87346,0 71.9934,-4.7762 79.86769,-4.7762 7.87428,0 66.36892,7.1642 76.493,13.1343 10.12407,5.9701 25.87262,10.7462 23.62284,32.2386 -2.2498,21.4925 0,33.4327 -22.49794,39.4028 -22.49795,5.9702 -110.23992,8.3582 -125.98848,7.1642 -15.74855,-1.194 -39.37139,-10.7463 -50.62036,-17.9104 -11.24897,-7.1641 -25.87264,-9.5522 -23.62284,-27.4625 z"
       id="path1351"
       inkscape:connector-curvature="0" />
    <path
       style="fill:#ffffff;fill-rule:evenodd;stroke:none;stroke-width:1px;stroke-linecap:butt;stroke-linejoin:miter;stroke-opacity:1"
       d="m 309.11422,2418.5725 c 48.15781,-13.3735 82.20391,-10.201 96.44438,-8.217 14.9867,2.088 52.96013,14.4208 64.84914,25.229 11.889,10.8082 27.05014,32.7057 25.96932,45.6755 -1.08082,12.9699 6.91442,48.6073 5.8336,65.9004 -1.08082,17.2931 -12.59967,76.7677 -20.1654,101.6266 -7.56574,24.8588 -25.93966,54.0409 -107.00108,59.445 -81.06142,5.4041 -130.77909,3.2425 -162.12284,-5.4041 -31.34375,-8.6465 -71.33406,-14.0506 -82.14225,-55.1217 -10.80819,-41.0712 -14.05064,-87.5464 -10.80819,-107.0011 3.24246,-19.4548 6.48492,-62.6875 10.80819,-70.2533 4.32328,-7.5657 17.38212,-37.0289 27.10949,-43.5138 9.72737,-6.4849 151.22564,-8.3655 151.22564,-8.3655 z"
       id="path1353"
       inkscape:connector-curvature="0"
       sodipodi:nodetypes="csssscscsscsc" />
    <path
       style="fill:#ffffff;fill-rule:evenodd;stroke:none;stroke-width:1.07993305px;stroke-linecap:butt;stroke-linejoin:miter;stroke-opacity:1"
       d="m 507.08779,2533.5054 c 1.26051,-19.4547 16.38663,-55.1218 39.07584,-61.6067 22.68919,-6.4849 85.71473,-6.4849 98.31984,-3.2424 12.60511,3.2424 32.77329,27.0204 37.81533,36.7478 5.04205,9.7274 18.90767,44.3136 -3.78153,58.3642 -22.68919,14.0507 -45.3784,24.8589 -69.32811,23.778 -23.9497,-1.0808 -71.84912,-8.6465 -83.19371,-21.6163 -11.3446,-12.9699 -18.90766,-32.4246 -18.90766,-32.4246 z"
       id="path1355"
       inkscape:connector-curvature="0" />
    <path
       style="fill:#ffffff;fill-rule:evenodd;stroke:none;stroke-width:1px;stroke-linecap:butt;stroke-linejoin:miter;stroke-opacity:1"
       d="m 371.0335,2696.1612 c 0,0 10.62431,7.3553 12.25882,23.7003 1.63451,16.3451 -0.81725,35.142 -13.89333,54.7561 28.60391,-32.6902 43.31449,-55.5733 34.32469,-83.36 -8.9898,-27.7866 -32.69018,4.9036 -32.69018,4.9036 z"
       id="path1357"
       inkscape:connector-curvature="0" />
    <path
       style="fill:#ffffff;fill-rule:evenodd;stroke:none;stroke-width:1px;stroke-linecap:butt;stroke-linejoin:miter;stroke-opacity:1"
       d="m 609.41023,2578.6689 c 0,0 17.16235,24.5177 9.80706,38.411 -7.35529,13.8933 -8.9898,18.7968 -25.33489,35.1419 26.9694,-17.9796 37.5937,-31.0556 40.86272,-43.3145 3.26902,-12.2588 5.72078,-35.9592 5.72078,-42.4972 0,-6.538 -31.05567,12.2588 -31.05567,12.2588 z"
       id="path1359"
       inkscape:connector-curvature="0" />
    <path
       style="fill:#ffffff;fill-rule:evenodd;stroke:none;stroke-width:1.03840244px;stroke-linecap:butt;stroke-linejoin:miter;stroke-opacity:1"
       d="m 721.7991,2510.6937 c -9.39843,-42.5634 -7.51874,-84.1134 4.69921,-95.2608 4.75927,-26.065 60.0674,-65.3013 81.7663,-59.7915 16.91717,-4.0536 108.0819,-25.3353 125.93891,-23.3084 17.85701,2.0267 118.32618,4.6109 137.12298,22.8524 18.7969,18.2414 34.2573,28.5276 45.5355,47.7825 11.2781,19.2548 17.716,57.2071 23.3551,63.2875 5.639,6.0806 3.5713,36.3309 -1.1279,53.5589 -4.6992,17.2281 -21.6164,31.4159 -46.0523,37.4963 -24.4359,6.0806 -57.3304,14.1878 -78.9468,15.2013 -21.61634,1.0134 -71.428,1.0134 -109.0217,-2.0268 -44.76237,-9.5027 -72.61993,-9.7453 -117.26947,-14.0847 -8.45859,-1.0133 -64.12015,-18.3446 -65.99983,-45.7067 z"
       id="path1361"
       inkscape:connector-curvature="0"
       sodipodi:nodetypes="ccccccccccccc" />
    <path
       style="fill:#ffffff;fill-rule:evenodd;stroke:none;stroke-width:1px;stroke-linecap:butt;stroke-linejoin:miter;stroke-opacity:1"
       d="m 1048.8643,2539.6614 c 40.4132,37.5937 65.789,69.5483 47.932,102.4428 29.1351,-35.714 14.0976,-69.5483 -24.4359,-117.4803 -38.5336,-47.932 -23.4961,15.0375 -23.4961,15.0375 z"
       id="path1363"
       inkscape:connector-curvature="0" />
    <path
       style="fill:#ffffff;fill-rule:evenodd;stroke:none;stroke-width:1px;stroke-linecap:butt;stroke-linejoin:miter;stroke-opacity:1"
       d="m 1362.7766,2499.8218 c -0.8172,-27.7867 20.4314,-32.6902 31.8729,-34.3247 11.4416,-1.6345 58.8423,-9.807 76.8219,3.269 17.9796,13.0761 22.8832,35.142 14.7106,43.3145 -8.1725,8.1726 -34.3247,20.4314 -50.6698,21.2486 -16.345,0.8173 -51.487,-4.0862 -62.9285,-15.5278 -11.4416,-11.4416 -9.8071,-17.9796 -9.8071,-17.9796 z"
       id="path1365"
       inkscape:connector-curvature="0" />
    <path
       style="fill:#ffffff;fill-rule:evenodd;stroke:none;stroke-width:1px;stroke-linecap:butt;stroke-linejoin:miter;stroke-opacity:1"
       d="m 1445.7231,2523.112 c 0,0 19.6141,10.6243 24.5176,19.6141 4.9035,8.9898 13.0761,31.0556 8.9898,45.7662 13.0761,-26.1521 8.1725,-42.4972 4.9035,-49.8525 -3.269,-7.3553 -23.7004,-34.3247 -23.7004,-34.3247 z"
       id="path1367"
       inkscape:connector-curvature="0" />
    <path
       style="fill:#ffffff;fill-rule:evenodd;stroke:none;stroke-width:1px;stroke-linecap:butt;stroke-linejoin:miter;stroke-opacity:1"
       d="m 1811.2557,2452.444 c 4.5211,-52.9602 32.7775,-69.1724 51.992,-76.7382 19.2144,-7.5657 98.3326,-18.3739 125.4588,-17.2931 27.1262,1.0808 127.7194,11.889 144.6733,12.9698 16.9539,1.0809 59.9037,25.9397 63.2945,32.4246 3.3908,6.4849 18.0842,23.778 13.5631,43.2328 -4.521,19.4547 -30.517,45.3944 -55.3828,55.1217 -24.8657,9.7274 -124.3284,17.2931 -143.5429,15.1315 -19.2144,-2.1616 -51.9919,-5.4041 -71.2064,-5.4041 -19.2144,0 -80.2484,-1.0808 -96.0721,-12.9698 -15.8236,-11.889 -32.7775,-46.4752 -32.7775,-46.4752 z"
       id="path1369"
       inkscape:connector-curvature="0" />
    <path
       style="fill:#ffffff;fill-rule:evenodd;stroke:none;stroke-width:1px;stroke-linecap:butt;stroke-linejoin:miter;stroke-opacity:1"
       d="m 1988.5393,2507.5657 c 15.6768,24.1512 6.1632,34.5534 -20.368,35.6671 20.5199,9.9586 46.1337,15.5923 40.7359,47.556 22.7818,-0.375 37.1938,-19.937 73.551,10.8082 21.4995,-25.3561 42.999,-13.281 64.4986,-2.1617 10.3119,-11.3113 29.2981,-12.0311 69.0248,-6.4849 -3.0677,-25.0109 21.8624,-36.1565 45.2622,-44.3136 -19.8128,-13.1763 -37.659,-27.5479 -24.8943,-60.5258 -28.7916,7.2773 -53.0033,6.6803 -66.7616,-11.889 -28.5646,4.157 -50.0209,21.8927 -89.3928,5.4041 -21.2019,19.9279 -44.8336,21.2885 -69.0248,18.3739 5.5129,17.7643 -0.9947,21.4958 -22.631,7.5657 z"
       id="path1371"
       inkscape:connector-curvature="0"
       sodipodi:nodetypes="cccccccccccc" />
    <path
       style="fill:#ffffff;fill-rule:evenodd;stroke:none;stroke-width:1px;stroke-linecap:butt;stroke-linejoin:miter;stroke-opacity:1"
       d="m 2142.1832,2571.3341 c -3.2425,28.1012 8.6465,79.9806 34.5862,113.4859 -3.2425,16.2123 1.0808,33.5054 15.1315,47.5561 -12.9699,-29.1821 -7.5658,-36.7479 -1.0809,-50.7985 -12.9698,-20.5356 -31.3437,-69.1724 -34.5862,-109.1627 -3.2424,-39.9903 -14.0506,-1.0808 -14.0506,-1.0808 z"
       id="path1373"
       inkscape:connector-curvature="0" />
  </g>
  <g
     inkscape:groupmode="layer"
     id="layer1"
     inkscape:label="txt">
    <text
       xml:space="preserve"
       style="font-style:normal;font-variant:normal;font-weight:normal;font-stretch:normal;line-height:0%;font-family:Lavi;-inkscape-font-specification:Lavi;text-align:center;letter-spacing:0px;word-spacing:0px;text-anchor:middle;fill:#000000;fill-opacity:1;stroke:none"
       x="320.61392"
       y="193.67375"
       id="text4246"><tspan
         sodipodi:role="line"
         style="font-size:45px;line-height:1.20000005"
         x="320.61392"
         y="193.67375"
         id="tspan4252">Wiesz,</tspan></text>
    <text
       xml:space="preserve"
       style="font-style:normal;font-variant:normal;font-weight:normal;font-stretch:normal;line-height:0%;font-family:Lavi;-inkscape-font-specification:Lavi;text-align:center;letter-spacing:0px;word-spacing:0px;text-anchor:middle;fill:#000000;fill-opacity:1;stroke:none"
       x="528.04688"
       y="265.45801"
       id="text4246-3"><tspan
         sodipodi:role="line"
         style="font-size:45px;line-height:1.20000005"
         x="528.04688"
         y="265.45801"
         id="tspan841">znowu rozmyślałam</tspan><tspan
         sodipodi:role="line"
         style="font-size:45px;line-height:1.20000005"
         x="528.04688"
         y="319.45801"
         id="tspan94">nad bezpieczeństwem.</tspan></text>
    <text
       xml:space="preserve"
       style="font-style:normal;font-variant:normal;font-weight:normal;font-stretch:normal;line-height:0%;font-family:Lavi;-inkscape-font-specification:Lavi;text-align:center;letter-spacing:0px;word-spacing:0px;text-anchor:middle;fill:#000000;fill-opacity:1;stroke:none"
       x="1203.1284"
       y="230.33583"
       id="text4246-3-7"><tspan
         sodipodi:role="line"
         style="font-size:42.66666667px;line-height:1.20000005"
         x="1203.1284"
         y="230.33583"
         id="tspan124">Tak wielu młodych książąt</tspan><tspan
         sodipodi:role="line"
         style="font-size:42.66666667px;line-height:1.20000005"
         x="1203.1284"
         y="278.33585"
         id="tspan90">i królewien zginęło</tspan><tspan
         sodipodi:role="line"
         style="font-size:42.66666667px;line-height:1.20000005"
         x="1203.1284"
         y="326.33585"
         id="tspan95">podczas koronacji.</tspan></text>
    <text
       xml:space="preserve"
       style="font-style:normal;font-variant:normal;font-weight:normal;font-stretch:normal;line-height:0%;font-family:Lavi;-inkscape-font-specification:Lavi;text-align:center;letter-spacing:0px;word-spacing:0px;text-anchor:middle;fill:#000000;fill-opacity:1;stroke:none"
       x="1217.7593"
       y="467.01553"
       id="text4246-3-7-7"><tspan
         sodipodi:role="line"
         style="font-size:45px;line-height:1.20000005"
         x="1217.7593"
         y="467.01553"
         id="tspan746">To stało się wręcz</tspan><tspan
         sodipodi:role="line"
         style="font-size:45px;line-height:1.20000005"
         x="1217.7593"
         y="521.01556"
         id="tspan133">częścią historii</tspan><tspan
         sodipodi:role="line"
         style="font-size:45px;line-height:1.20000005"
         x="1217.7593"
         y="575.01556"
         id="tspan135">mojego rodu.</tspan></text>
    <text
       xml:space="preserve"
       style="font-style:normal;font-variant:normal;font-weight:normal;font-stretch:normal;line-height:0%;font-family:Lavi;-inkscape-font-specification:Lavi;text-align:center;letter-spacing:0px;word-spacing:0px;text-anchor:middle;fill:#000000;fill-opacity:1;stroke:none"
       x="1962.6278"
       y="192.27477"
       id="text4246-3-7-7-6"><tspan
         sodipodi:role="line"
         style="font-size:45px;line-height:1.20000005"
         x="1962.6278"
         y="192.27477"
         id="tspan996">A ja, za kilka godzin, będę</tspan><tspan
         sodipodi:role="line"
         style="font-size:45px;line-height:1.20000005"
         x="1962.6278"
         y="246.27477"
         id="tspan151">musiała przyjąć tysiące gości</tspan><tspan
         sodipodi:role="line"
         style="font-size:45px;line-height:1.20000005"
         x="1962.6278"
         y="300.27478"
         id="tspan153">z przeróżnych części świata</tspan><tspan
         sodipodi:role="line"
         style="font-size:45px;line-height:1.20000005"
         x="1962.6278"
         y="354.27478"
         id="tspan155">i być w centrum uwagi.</tspan></text>
    <text
       xml:space="preserve"
       style="font-style:normal;font-variant:normal;font-weight:normal;font-stretch:normal;line-height:0%;font-family:Lavi;-inkscape-font-specification:Lavi;text-align:center;letter-spacing:0px;word-spacing:0px;text-anchor:middle;fill:#000000;fill-opacity:1;stroke:none"
       x="1059.3418"
       y="1445.7167"
       id="text4246-3-7-7-6-7"><tspan
         sodipodi:role="line"
         style="font-size:45px;line-height:1.20000005"
         x="1059.3418"
         y="1445.7167"
         id="tspan1067">Nie martw się,</tspan><tspan
         sodipodi:role="line"
         style="font-size:45px;line-height:1.20000005"
         x="1059.3418"
         y="1499.7167"
         id="tspan165">Coriander.</tspan></text>
    <text
       xml:space="preserve"
       style="font-style:normal;font-variant:normal;font-weight:normal;font-stretch:normal;line-height:0%;font-family:Lavi;-inkscape-font-specification:Lavi;text-align:center;letter-spacing:0px;word-spacing:0px;text-anchor:middle;fill:#000000;fill-opacity:1;stroke:none"
       x="1959.1292"
       y="486.58884"
       id="text4246-3-7-7-6-7-7"><tspan
         sodipodi:role="line"
         style="font-size:40px;line-height:1.20000005"
         x="1959.1292"
         y="486.58884"
         id="tspan159">Naprawdę się boję!</tspan></text>
    <text
       xml:space="preserve"
       style="font-style:normal;font-variant:normal;font-weight:normal;font-stretch:normal;line-height:0%;font-family:Lavi;-inkscape-font-specification:Lavi;text-align:center;letter-spacing:0px;word-spacing:0px;text-anchor:middle;fill:#000000;fill-opacity:1;stroke:none"
       x="2120.4819"
       y="1566.7001"
       id="text4246-3-7-7-6-7-2"><tspan
         sodipodi:role="line"
         style="font-size:45px;line-height:1.20000005"
         x="2120.4819"
         y="1566.7001"
         id="tspan169">Mamy plan.</tspan></text>
    <text
       xml:space="preserve"
       style="font-style:normal;font-variant:normal;font-weight:normal;font-stretch:normal;line-height:0%;font-family:Lavi;-inkscape-font-specification:Lavi;text-align:center;letter-spacing:0px;word-spacing:0px;text-anchor:middle;fill:#000000;fill-opacity:1;stroke:none"
       x="2187.1252"
       y="1689.6479"
       id="text4246-3-7-7-6-7-2-9"><tspan
         sodipodi:role="line"
         style="font-size:45px;line-height:1.20000005"
         x="2187.1252"
         y="1689.6479"
         id="tspan1121">Shichimi i ja</tspan><tspan
         sodipodi:role="line"
         style="font-size:45px;line-height:1.20000005"
         x="2187.1252"
         y="1743.6479"
         id="tspan180">będziemy</tspan><tspan
         sodipodi:role="line"
         style="font-size:45px;line-height:1.20000005"
         x="2187.1252"
         y="1797.6479"
         id="tspan182">twoimi</tspan><tspan
         sodipodi:role="line"
         style="font-size:45px;line-height:1.20000005"
         x="2187.1252"
         y="1851.6479"
         id="tspan184">ochroniarzami.</tspan></text>
    <text
       xml:space="preserve"
       style="font-style:normal;font-variant:normal;font-weight:normal;font-stretch:normal;line-height:0%;font-family:Lavi;-inkscape-font-specification:Lavi;text-align:center;letter-spacing:0px;word-spacing:0px;text-anchor:middle;fill:#000000;fill-opacity:1;stroke:none"
       x="224.1396"
       y="2409.7466"
       id="text4246-3-7-7-6-7-2-9-6"><tspan
         sodipodi:role="line"
         style="font-size:45px;line-height:1.20000005"
         x="224.1396"
         y="2409.7466"
         id="tspan1121-3">Dokładnie.</tspan></text>
    <text
       xml:space="preserve"
       style="font-style:normal;font-variant:normal;font-weight:normal;font-stretch:normal;line-height:0%;font-family:Lavi;-inkscape-font-specification:Lavi;text-align:center;letter-spacing:0px;word-spacing:0px;text-anchor:middle;fill:#000000;fill-opacity:1;stroke:none"
       x="310.70618"
       y="2518.9717"
       id="text4246-3-7-7-6-7-2-9-6-1"><tspan
         sodipodi:role="line"
         style="font-size:45px;line-height:1.20000005"
         x="310.70618"
         y="2518.9717"
         id="tspan1183">Rozluźnij się</tspan><tspan
         sodipodi:role="line"
         style="font-size:45px;line-height:1.20000005"
         x="310.70618"
         y="2572.9717"
         id="tspan202">i nie martw</tspan><tspan
         sodipodi:role="line"
         style="font-size:45px;line-height:1.20000005"
         x="310.70618"
         y="2626.9717"
         id="tspan204">na zapas.</tspan></text>
    <text
       xml:space="preserve"
       style="font-style:normal;font-variant:normal;font-weight:normal;font-stretch:normal;line-height:0%;font-family:Lavi;-inkscape-font-specification:Lavi;text-align:center;letter-spacing:0px;word-spacing:0px;text-anchor:middle;fill:#000000;fill-opacity:1;stroke:none"
       x="595.01746"
       y="2544.9705"
       id="text4246-3-7-7-6-7-2-9-6-1-4"><tspan
         sodipodi:role="line"
         style="font-size:40px;line-height:1.20000005"
         x="595.01746"
         y="2544.9705"
         id="tspan1183-0">Dobrze.</tspan></text>
    <text
       xml:space="preserve"
       style="font-style:normal;font-variant:normal;font-weight:normal;font-stretch:normal;line-height:0%;font-family:Lavi;-inkscape-font-specification:Lavi;text-align:center;letter-spacing:0px;word-spacing:0px;text-anchor:middle;fill:#000000;fill-opacity:1;stroke:none"
       x="930.20203"
       y="2414.0066"
       id="text4246-3-7-7-6-7-2-9-6-1-4-3"><tspan
         sodipodi:role="line"
         style="font-size:41.33333206px;line-height:1.20000005"
         x="930.20203"
         y="2414.0066"
         id="tspan1249">Właśnie!</tspan><tspan
         sodipodi:role="line"
         style="font-size:41.33333206px;line-height:1.20000005"
         x="930.20203"
         y="2463.6067"
         id="tspan211">Może pokażę wam</tspan><tspan
         sodipodi:role="line"
         style="font-size:41.33333206px;line-height:1.20000005"
         x="930.20203"
         y="2513.2065"
         id="tspan213">mój nowy wynalazek!</tspan></text>
    <text
       xml:space="preserve"
       style="font-style:normal;font-variant:normal;font-weight:normal;font-stretch:normal;line-height:0%;font-family:Lavi;-inkscape-font-specification:Lavi;text-align:center;letter-spacing:0px;word-spacing:0px;text-anchor:middle;fill:#000000;fill-opacity:1;stroke:none"
       x="1429.6105"
       y="2501.0703"
       id="text4246-3-7-7-6-7-2-9-6-1-4-3-1"><tspan
         sodipodi:role="line"
         style="font-size:45px;line-height:1.20000005"
         x="1429.6105"
         y="2501.0703"
         id="tspan1249-3">…</tspan></text>
    <text
       xml:space="preserve"
       style="font-style:normal;font-variant:normal;font-weight:normal;font-stretch:normal;line-height:0%;font-family:Lavi;-inkscape-font-specification:Lavi;text-align:center;letter-spacing:0px;word-spacing:0px;text-anchor:middle;fill:#000000;fill-opacity:1;stroke:none"
       x="2014.5365"
       y="2454.3843"
       id="text4246-3-7-7-6-7-2-9-6-1-4-3-1-2"><tspan
         sodipodi:role="line"
         style="font-size:45px;line-height:1.20000005"
         x="2014.5365"
         y="2454.3843"
         id="tspan87">Jest w warsztacie.</tspan></text>
    <text
       xml:space="preserve"
       style="font-style:normal;font-variant:normal;font-weight:normal;font-stretch:normal;line-height:0%;font-family:Lavi;-inkscape-font-specification:Lavi;text-align:center;letter-spacing:0px;word-spacing:0px;text-anchor:middle;fill:#000000;fill-opacity:1;stroke:none"
       x="2115.0042"
       y="2553.5225"
       id="text4246-3-7-7-6-7-2-9-6-1-4-3-1-2-6"><tspan
         sodipodi:role="line"
         style="font-size:45px;line-height:1.20000005"
         x="2115.0042"
         y="2553.5225"
         id="tspan1298-5">Chodźmy!</tspan></text>
  </g>
</svg>
