<?xml version="1.0" encoding="UTF-8" standalone="no"?>
<svg
   xmlns:dc="http://purl.org/dc/elements/1.1/"
   xmlns:cc="http://creativecommons.org/ns#"
   xmlns:rdf="http://www.w3.org/1999/02/22-rdf-syntax-ns#"
   xmlns:svg="http://www.w3.org/2000/svg"
   xmlns="http://www.w3.org/2000/svg"
   xmlns:xlink="http://www.w3.org/1999/xlink"
   xmlns:sodipodi="http://sodipodi.sourceforge.net/DTD/sodipodi-0.dtd"
   xmlns:inkscape="http://www.inkscape.org/namespaces/inkscape"
   id="svg2"
   version="1.1"
   inkscape:version="1.0.2 (e86c870879, 2021-01-15)"
   width="2481"
   height="3503"
   sodipodi:docname="E24P02.svg">
  <metadata
     id="metadata8">
    <rdf:RDF>
      <cc:Work
         rdf:about="">
        <dc:format>image/svg+xml</dc:format>
        <dc:type
           rdf:resource="http://purl.org/dc/dcmitype/StillImage" />
        <dc:title />
      </cc:Work>
    </rdf:RDF>
  </metadata>
  <defs
     id="defs6">
    <filter
       style="color-interpolation-filters:sRGB"
       id="filter4375-4-1-1-1-9"
       inkscape:label="deevad outline effect">
      <feFlood
         id="feFlood4377-7-9-0-8-1"
         flood-opacity="1"
         flood-color="rgb(0,0,0)"
         result="flood" />
      <feComposite
         id="feComposite4379-3-8-8-2-77"
         in2="SourceGraphic"
         in="flood"
         operator="in"
         result="composite1" />
      <feMorphology
         id="feMorphology4393-1-0-49-8-9"
         operator="dilate"
         radius="4"
         result="result3" />
      <feComposite
         id="feComposite4385-9-5-7-0-8"
         in2="result3"
         in="SourceGraphic"
         operator="over"
         result="composite2" />
    </filter>
  </defs>
  <sodipodi:namedview
     pagecolor="#ffffff"
     bordercolor="#666666"
     borderopacity="1"
     objecttolerance="10"
     gridtolerance="10"
     guidetolerance="10"
     inkscape:pageopacity="0"
     inkscape:pageshadow="2"
     inkscape:window-width="1920"
     inkscape:window-height="967"
     id="namedview4"
     showgrid="false"
     inkscape:zoom="0.7121532"
     inkscape:cx="1738.5383"
     inkscape:cy="3330.3197"
     inkscape:window-x="0"
     inkscape:window-y="72"
     inkscape:window-maximized="1"
     inkscape:current-layer="layer1"
     inkscape:snap-global="false"
     showguides="true"
     inkscape:document-rotation="0" />
  <g
     inkscape:groupmode="layer"
     id="layer2"
     inkscape:label="artwork"
     sodipodi:insensitive="true">
    <image
       sodipodi:absref="/felles/omsetting/pepper-carrot/webcomics/ep24_The-Unity-Tree/lang/gfx_Pepper-and-Carrot_by-David-Revoy_E24P02.png"
       xlink:href="../gfx_Pepper-and-Carrot_by-David-Revoy_E24P02.png"
       width="2481"
       height="3503"
       id="image10"
       x="0"
       y="0" />
  </g>
  <g
     inkscape:groupmode="layer"
     id="layer3"
     inkscape:label="speechbubbles">
    <path
       style="fill:#ffffff;stroke:none;stroke-width:1"
       d="m 996.50421,963.21044 c 75.30339,-8.3585 129.27029,5.45365 146.48969,13.60782 17.2194,8.15417 39.9676,32.32744 49.6946,38.44134 32.4705,20.4096 27.6891,117.8292 13.8152,129.0672 -10.887,8.8186 -18.3524,36.2571 -64.2911,45.4147 -45.9387,9.1577 -130.4564,13.464 -158.69591,4.9601 -28.23959,-8.5039 -88.20155,-2.3232 -104.78554,-56.8555 -16.584,-54.5324 2.42402,-122.3123 51.08758,-150.14775 29.94492,-17.12845 66.68548,-24.48791 66.68548,-24.48791 z"
       id="path3286"
       inkscape:connector-curvature="0"
       sodipodi:nodetypes="csssssssc" />
    <path
       style="color:#000000;display:inline;overflow:visible;visibility:visible;fill:#ffffff;fill-opacity:1;fill-rule:nonzero;stroke:none;stroke-width:1px;marker:none;enable-background:accumulate"
       d="m 2235.2039,1351.7299 c -166.3352,-2.4458 -213.7021,-10.7042 -212.7392,-136.951 0.9628,-126.2467 62.36,-158.4322 151.8783,-160.9503 86.9037,-2.5181 154.5086,13.0582 172.0646,48.0327 20.2832,37.3634 12.8475,80.3998 18.9072,113.9226 9.3188,28.7443 -0.5678,86.0506 -18.8001,102.3138 -18.1675,16.2055 -77.4171,34.3266 -111.3108,33.6322 z"
       id="path3365"
       inkscape:connector-curvature="0"
       sodipodi:nodetypes="cscccsc" />
    <path
       style="color:#000000;display:inline;overflow:visible;visibility:visible;fill:#ffffff;fill-opacity:1;fill-rule:nonzero;stroke:none;stroke-width:1px;marker:none;enable-background:accumulate"
       d="m 1190.4458,1312.0824 c -70.0617,-6.5837 -91.3329,-16.7984 -111.4751,-72.4567 -20.1421,-55.6582 0.6832,-59.9839 0.6832,-59.9839 0,0 10.9679,110.8571 110.7919,132.4406 z"
       id="path5002"
       inkscape:connector-curvature="0" />
    <path
       style="color:#000000;display:inline;overflow:visible;visibility:visible;fill:#ffffff;fill-opacity:1;fill-rule:nonzero;stroke:none;stroke-width:1px;marker:none;enable-background:accumulate"
       d="m 2050.7762,1376.6106 c 37.4574,14.4492 67.4988,-7.5666 86.7222,-51.9063 19.2234,-44.3397 35.3495,-35.8085 35.3495,-35.8085 l 5.0926,33.3889 c 0,0 -35.4044,96.209 -127.1643,54.3259 z"
       id="path3072"
       inkscape:connector-curvature="0"
       sodipodi:nodetypes="csccc" />
    <path
       style="color:#000000;display:inline;overflow:visible;visibility:visible;fill:#ffffff;fill-opacity:1;fill-rule:nonzero;stroke:none;stroke-width:1px;marker:none;enable-background:accumulate"
       d="M 65.403388,2355.4056 C 55.172407,2228.5179 -53.502477,2147.2044 321.77182,2137.0085 c 101.24878,-2.7508 218.14975,-18.828 234.29382,166.9053 16.14392,185.7331 -147.13283,201.8436 -180.16511,210.4713 -33.03226,8.628 -189.30752,10.624 -241.37058,-37.2555 -29.24172,-26.892 -64.701043,-82.5873 -69.126562,-121.724 z"
       id="path4546"
       inkscape:connector-curvature="0"
       sodipodi:nodetypes="cssssc" />
    <path
       style="color:#000000;display:inline;overflow:visible;visibility:visible;fill:#ffffff;fill-opacity:1;fill-rule:nonzero;stroke:none;stroke-width:0.99999994px;marker:none;enable-background:accumulate"
       d="m 939.51735,2692.998 c -62.86373,5.6819 -166.21878,-11.6393 -186.60758,-81.3296 -21.90086,-74.8586 -37.99352,-170.8498 -8.45183,-224.4958 49.39984,-98.3274 85.42653,-108.5998 140.3737,-110.2392 54.94711,-1.6398 131.58056,29.9609 158.21956,98.1685 13.7311,65.2285 33.435,228.5696 -30.4743,279.312 -63.90945,50.7425 -73.05955,38.5841 -73.05955,38.5841 z"
       id="path3970"
       inkscape:connector-curvature="0"
       sodipodi:nodetypes="cscccsc" />
    <path
       style="color:#000000;display:inline;overflow:visible;visibility:visible;fill:#ffffff;fill-opacity:1;fill-rule:nonzero;stroke:none;stroke-width:0.99999994px;marker:none;enable-background:accumulate"
       d="m 972.93363,2989.7664 c -55.68969,3.1643 -140.21294,-4.8231 -165.31178,-45.2931 -25.09871,-40.4698 -33.65765,-95.1476 -7.48729,-125.0235 26.17025,-29.8759 75.67757,-60.48 124.35412,-61.393 48.67648,-0.9132 116.56462,16.6854 140.16332,54.6708 23.5991,37.9851 29.6195,127.2922 -26.9964,155.551 -56.6161,28.2589 -64.72197,21.4878 -64.72197,21.4878 z"
       id="path3970-4"
       inkscape:connector-curvature="0" />
    <path
       style="fill:#ffffff;fill-rule:evenodd;stroke:none;stroke-width:1px;stroke-linecap:butt;stroke-linejoin:miter;stroke-opacity:1"
       d="m 346.57119,2616.5493 c -63.2798,-44.5839 -68.79168,-98.8369 -22.99541,-144.2951 18.90772,-28.5006 -29.49137,-44.6932 -49.46806,0.8803 2.52314,18.0735 -60.406,94.8559 72.46347,143.4148 z"
       id="path4278"
       inkscape:connector-curvature="0"
       sodipodi:nodetypes="cccc" />
    <path
       style="color:#000000;display:inline;overflow:visible;visibility:visible;fill:#ffffff;fill-opacity:1;fill-rule:nonzero;stroke:none;stroke-width:1px;marker:none;enable-background:accumulate"
       d="m 759.98513,2733.1259 c 40.56205,-7.5931 54.44696,-12.612 63.67875,-60.0495 9.2317,-47.4376 26.81589,-42.5763 26.81589,-42.5763 l 12.15811,31.5107 c 0,0 -26.74612,99.3801 -102.65275,71.1151 z"
       id="path3072-5"
       inkscape:connector-curvature="0" />
    <path
       style="color:#000000;display:inline;overflow:visible;visibility:visible;fill:#ffffff;fill-opacity:1;fill-rule:nonzero;stroke:none;stroke-width:1px;marker:none;enable-background:accumulate"
       d="m 731.08809,2823.3997 c 21.8597,19.4259 25.84476,19.8547 38.08065,11.9234 12.23579,-7.9313 27.1542,-23.1621 53.13132,-17.7581 84.05943,-18.1201 113.76084,72.1324 -3.48563,23.5751 -17.33625,-6.3711 -39.16416,13.5701 -53.85665,11.2775 -14.69258,-2.2926 -25.60297,-17.6945 -33.86969,-29.0179 z"
       id="path4538"
       inkscape:connector-curvature="0"
       sodipodi:nodetypes="cccccc" />
    <path
       style="fill:#ffffff;fill-rule:evenodd;stroke:none;stroke-width:1px;stroke-linecap:butt;stroke-linejoin:miter;stroke-opacity:1"
       d="m 1300.5005,3101.3049 c 0.4892,11.5989 -0.097,26.1701 -8.5403,33.282 -10.2881,5.7199 -20.8269,-3.461 -29.0764,-10.4017 -2.7046,-3.0347 0.4772,3.7266 0.2589,5.4323 1.9993,10.2664 3.1162,24.0734 -4.2728,31.3711 -9.1152,7.068 -20.614,1.0033 -29.2252,-3.5015 3.5627,11.6516 7.9008,26.29 1.8357,37.8119 -3.9895,5.3823 -10.7601,5.2477 -15.8089,4.118 3.9703,8.6227 4.4647,22.7138 -3.755,27.6371 -3.7224,2.7667 -9.4233,2.2101 -12.611,2.3595 6.9675,9.1058 13.3573,23.6417 7.7937,35.9396 -3.0514,6.2127 -8.1871,10.2459 -13.4164,13.0751 8.1576,1.621 18.4706,7.6375 18.5335,19.5992 0.2684,6.8705 -4.2872,14.0329 -6.6336,18.0523 9.5032,-4.0496 21.1198,-8.9229 30.4206,-1.8675 4.2185,4.8032 5.2669,12.5359 4.5336,19.341 9.7526,-7.4693 19.9308,-3.4364 31.6699,2.0669 7.1673,4.727 10.9306,14.5874 12.7228,24.0757 12.7211,-11.412 28.0222,-24.6605 44.4879,-19.4145 11.663,4.222 18.8715,17.5893 26.2154,28.6922 3.5709,-12.0921 10.2046,-26.1182 21.499,-27.3611 11.2122,0.9888 16.4932,15.6578 21.797,25.9876 1.0301,5.2458 3.7503,9.2674 4.7958,6.9351 4.7126,-12.6267 11.1131,-27.202 22.6998,-30.8759 12.1066,-0.7895 20.3161,13.0246 26.8752,23.7884 2.745,-13.2383 8.3552,-28.9757 20.1883,-31.9731 11.771,-0.4093 19.191,13.5557 24.6474,24.7122 2.492,4.4306 4.5254,9.2336 6.9654,13.7072 1.9246,-11.6007 6.305,-34.772 16.8806,-35.0461 9.8855,0.046 17.6403,9.0457 24.8743,16.3182 0.084,-13.0242 10.7776,-25.156 21.1763,-20.7745 13.3079,3.5287 25.6597,2.1596 36.9264,10.7878 -3.293,-9.7904 -6.0684,-24.3563 1.8642,-31.8864 4.4628,-3.522 10.0895,-3.019 15.0037,-1.5516 -4.6538,-10.4409 -4.0903,-26.3037 5.0231,-32.6119 4.9585,-4.1878 10.9779,-5.4895 16.5984,-7.5904 -10.114,-8.983 -25.8708,-20.5205 -22.9674,-37.2338 0.99,-7.4925 11.5393,-17.7726 14.0048,-22.8728 -26.6966,11.1669 -25.3666,-5.2543 -8.8117,-23.2319 2.0175,-4.5343 1.1295,-4.4596 -2.2354,-1.4037 -9.1461,6.5579 -19.033,14.6573 -29.9431,13.8799 -8.0103,-4.3997 -5.6912,-27.2863 -0.3076,-34.4776 -12.3198,6.0067 -26.0025,13.3357 -39.3869,8.563 -8.7016,-7.0439 -7.6562,-22.7141 -3.51,-32.9592 1.5118,-4.1921 -0.5179,-1.4176 -2.4016,0.5453 -7.1801,7.2728 -15.5272,15.6673 -25.1601,15.4124 -8.9821,-3.6142 -10.7829,-18.3348 -7.7085,-28.1468 0.026,-2.4542 2.2821,-9.4239 -0.6918,-4.4875 -5.7727,7.2075 -15.5724,25.7274 -24.3185,23.3195 -4.2547,-2.1152 -4.838,-17.3813 -6.1448,-22.6562 -4.1741,8.4115 -13.5803,26.836 -22.3444,23.2991 -8.09,-4.5723 -9.2223,-17.2251 -9.4715,-27.0183 -2.9078,9.0285 -8.5499,15.9468 -17.5392,16.3909 -9.3817,-1.0281 -13.3874,-38.8005 -15.497,-48.6766 -0.6521,-3.0649 -3.3103,-9.8174 -2.0715,4.877 -2.5934,8.5192 -8.1821,43.6454 -16.4277,41.0158 -10.0529,-4.3306 -11.2847,-12.989 -14.2637,-24.0556 -2.4835,9.8199 -8.5781,21.7097 -17.9179,20.5297 -11.5009,-2.6642 -15.994,-18.8963 -20.9919,-29.7139 -0.8488,12.6013 -3.5452,28.2828 -13.5562,34.1657 -10.1628,3.0859 -18.2884,-8.2827 -23.1807,-17.972 -3.6697,-6.0281 -6.9452,-12.4134 -10.174,-18.8202 l 0.054,1.1376 z m 152.7992,266.1428 c 0,0.017 0.011,-0.055 0,0 z"
       id="path1504"
       inkscape:connector-curvature="0"
       sodipodi:nodetypes="cccccccccccccccccccccccccccccccccccccccccccccccccccccccccccccccccc" />
    <path
       style="fill:#ffffff;stroke:none;stroke-width:0.99999994"
       d="m 1452.7195,2949.0485 c 13.6365,51.0487 1.8285,73.4399 -12.8291,87.351 -14.6575,13.9112 -29.2574,24.6287 -30.4169,39.0049 -1.1585,14.3763 4.3679,32.4449 9.991,45.1906 5.6233,12.7459 -8.7567,28.7391 -16.1641,41.0823 -7.4074,12.3434 -32.4176,87.9891 -32.4176,87.9891 0,0 45.6605,-29.3056 57.0155,-43.5686 11.3552,-14.2629 -1.5936,-24.3112 1.6003,-31.5097 3.1938,-7.1984 16.2252,-28.4819 13.3417,-43.3703 -2.8832,-14.8884 -6.8861,-37.3598 -11.1969,-47.9831 -4.3108,-10.6233 8.1814,-20.8918 17.4263,-34.2439 9.2448,-13.3519 26.0549,-36.6775 19.2727,-60.0623 -6.7821,-23.3848 -15.6229,-39.88 -15.6229,-39.88 z"
       id="path3023"
       inkscape:connector-curvature="0"
       sodipodi:nodetypes="csssscssssssc" />
    <path
       style="color:#000000;display:inline;overflow:visible;visibility:visible;fill:#ffffff;fill-opacity:1;fill-rule:nonzero;stroke:none;stroke-width:1px;marker:none;enable-background:accumulate"
       d="m 1862.6683,2316.7331 c -1.3632,-38.0564 -0.8483,-75.183 56.4066,-100.0361 57.2549,-24.8531 157.3502,-12.5854 178.6008,-10.8732 34.6863,2.7946 126.072,9.9363 146.5201,37.8962 20.4482,27.9597 23.5178,61.2059 21.4478,91.3412 -1.907,27.7618 -10.9268,67.5414 -35.4646,76.8613 -24.5379,9.32 -200.1204,23.1758 -228.7479,16.9626 -28.6274,-6.2132 -72.7935,-14.9135 -97.3311,-33.5534 -24.8764,-18.897 -40.0685,-40.5422 -41.4317,-78.5986 z"
       id="path3373"
       inkscape:connector-curvature="0"
       sodipodi:nodetypes="zsssssssz" />
    <path
       style="color:#000000;display:inline;overflow:visible;visibility:visible;fill:#ffffff;fill-opacity:1;fill-rule:nonzero;stroke:none;stroke-width:1px;marker:none;enable-background:accumulate"
       d="m 2031.8102,2507.7263 c 30.9235,-44.7181 56.4448,-90.7801 41.0641,-127.8508 -21.7419,-52.4025 -15.1545,-27.3052 -15.1545,-27.3052 l 48.1596,27.1477 c 4.0617,-2.2231 16.5042,46.8286 -74.0692,128.0083 z"
       id="path3072-1"
       inkscape:connector-curvature="0"
       sodipodi:nodetypes="csccc" />
    <path
       style="display:inline;fill:#ffffff;stroke:none;stroke-width:1"
       d="m 1800.9769,3257.7326 c 3.4576,-82.4794 37.0675,-122.0071 85.2262,-142.1316 48.1586,-20.1246 332.0408,-14.5343 389.5637,7.8264 57.5225,22.3607 62.2024,79.8897 64.2667,143.2494 0.7819,73.3656 -66.8312,104.2317 -100.2749,113.1759 -33.4433,8.9443 -301.7256,16.077 -373.459,-16.8413 -65.3227,-30.0594 -65.3227,-105.2788 -65.3227,-105.2788 z"
       id="path3008"
       inkscape:connector-curvature="0"
       sodipodi:nodetypes="ccccccc" />
    <path
       style="color:#000000;display:inline;overflow:visible;visibility:visible;fill:#ffffff;fill-opacity:1;fill-rule:nonzero;stroke:none;stroke-width:1px;marker:none;enable-background:accumulate"
       d="m 2046.452,3138.2749 c 31.2021,-26.3616 74.0861,-59.4473 33.587,-95.3422 1.3128,2.6276 75.7675,26.7026 -7.7455,112.4393 -83.5133,85.7365 -101.538,90.3039 -101.538,90.3039 z"
       id="path4064"
       inkscape:connector-curvature="0"
       sodipodi:nodetypes="ccscc"
       inkscape:transform-center-x="86.439437"
       inkscape:transform-center-y="119.77252" />
    <g
       id="g5381"
       transform="matrix(-1.943999,-0.03507888,0.02110171,-1.1694129,2814.7591,4709.8659)"
       style="display:inline;fill:#ffffff;stroke-width:0.82700133">
      <path
         inkscape:connector-curvature="0"
         id="path5263"
         d="m 1231.4261,3164.2107 c -4.7051,-6.6655 -8.3522,-20.2367 -8.3522,-21.805 0,-1.5684 0.3921,-7.4497 0.3921,-7.4497 l -3.1367,-1.1763 2.7446,-5.0971 -3.1367,0.3921 c 0,0 8.4753,-16.4011 10.0436,-19.1457 1.5684,-2.7446 4.313,-9.018 4.313,-9.018 0,0 11.2013,-0.9423 14.338,-2.1186 3.1367,-1.1762 12.5468,-11.3705 12.5468,-11.3705 0,0 11.3706,5.4892 15.6836,6.2734 4.3129,0.7842 24.3095,1.9604 27.8383,0 3.5288,-1.9605 7.0576,-4.7051 7.0576,-4.7051 0,0 9.018,-0.7841 11.3705,-1.9604 2.3526,-1.1763 6.6655,-3.9209 6.6655,-3.9209 0,0 7.4497,0.7842 10.5864,0.3921 3.1367,-0.3921 17.644,0 19.2124,0 1.5683,0 12.5468,6.6655 12.5468,6.6655 l 7.0576,6.6655 c 0,0 5.8813,-0.3921 8.626,-1.1763 2.7446,-0.7841 5.0971,3.1367 5.0971,3.1367 0,0 10.3649,28.9788 11.9333,33.6838 1.5683,4.7051 2.3525,14.1152 2.3525,14.1152 0,0 -4.313,7.4497 -6.6655,10.5864 -2.3525,3.1367 -9.018,10.5864 -12.5468,13.331 -3.5288,2.7446 -7.8418,7.0576 -12.1548,4.313 -4.313,-2.7446 -8.6259,-2.3525 -10.1943,-0.3921 -1.5684,1.9604 -12.9389,15.6836 -16.8598,14.1152 -3.9209,-1.5684 -17.2519,-3.9209 -21.1728,-7.4497 -3.9209,-3.5288 -10.1943,4.7051 -12.9389,2.3525 -2.7446,-2.3525 -6.6655,-6.6655 -9.4102,-6.6655 -2.7446,0 -40.639,11.3296 -44.5599,9.7612 -3.9209,-1.5684 -13.5936,-9.7859 -15.9461,-11.3542 -2.3526,-1.5684 -8.2339,-10.9785 -8.2339,-10.9785 z"
         style="color:#000000;display:inline;overflow:visible;visibility:visible;fill:#ffffff;fill-opacity:1;fill-rule:nonzero;stroke:none;stroke-width:0.82700133px;marker:none;enable-background:accumulate"
         sodipodi:nodetypes="cscccccccccccccssccccccsssssscssccc" />
    </g>
    <path
       style="color:#000000;display:inline;overflow:visible;visibility:visible;fill:#ffffff;fill-opacity:1;fill-rule:nonzero;stroke:none;stroke-width:1px;marker:none;enable-background:accumulate"
       d="m 214.82896,1030.4867 c 6.80442,0.878 -13.01369,58.3529 -13.01369,58.3529 0,0 37.57996,20.9895 40.57677,25.605 -3.12032,14.3994 -21.44854,49.3771 -21.44854,49.3771 l 47.969,66.5041 -32.27308,-66.6621 30.22524,-55.2358 -42.64068,-25.4823 18.48922,-41.6529 z"
       id="path4448-7"
       inkscape:connector-curvature="0"
       sodipodi:nodetypes="cccccccccc" />
    <path
       style="color:#000000;display:inline;overflow:visible;visibility:visible;fill:#ffffff;fill-opacity:1;fill-rule:nonzero;stroke:none;stroke-width:1px;marker:none;enable-background:accumulate"
       d="m 1181.3418,1264.7261 c -13.8665,-3.5055 -55.1437,-19.0159 -6.106,-17.5657 -59.3797,-25.0538 -32.5866,-43.8491 -10.6916,-63.0001 -18.1994,-6.138 -47.6034,-8.1294 -37.3738,-24.7898 -19.517,1.4993 -31.4964,-4.8263 -36.7506,-18.1339 -14.8623,16.6729 -27.349,19.2808 -33.8988,-13.2573 -5.9732,24.2527 -19.7877,28.8493 -57.79865,-1.6874 -2.7979,8.899 11.59785,29.2427 -92.86732,14.4217 31.06193,16.9622 71.33888,54.7798 -4.02112,72.0652 26.93842,7.6306 44.11746,17.9678 2.13299,34.3899 27.2039,5.1866 25.23782,27.2561 17.97888,35.0755 34.45627,-14.845 53.77794,-13.3862 52.4848,8.8739 63.60652,-34.4878 49.19912,-4.5663 62.32942,2.0745 25.1052,-28.2285 46.7116,-14.0788 69.7714,-7.7794 7.3512,-33.4408 43.8059,-20.6979 74.8104,-20.6871 z"
       id="path3549-3-78"
       inkscape:connector-curvature="0"
       sodipodi:nodetypes="ccccccccccccccc" />
  </g>
  <g
     inkscape:groupmode="layer"
     id="layer1"
     inkscape:label="txt"
     style="display:inline">
    <text
       xml:space="preserve"
       style="font-style:normal;font-variant:normal;font-weight:normal;font-stretch:normal;line-height:0%;font-family:Lavi;-inkscape-font-specification:Lavi;letter-spacing:0px;word-spacing:0px;fill:#000000;fill-opacity:1;stroke:#000000;stroke-width:1.03244;stroke-miterlimit:4;stroke-dasharray:none;stroke-opacity:1;filter:url(#filter4375-4-1-1-1-9)"
       x="787.65729"
       y="1584.5073"
       id="text4580"
       transform="matrix(0.99628009,-0.49104872,-0.18392799,1.3011878,1393.6124,-1187.4855)"><tspan
         sodipodi:role="line"
         id="tspan4582"
         x="787.65729"
         y="1584.5073"
         style="font-size:70px;line-height:1.25;fill:#ffffff;stroke-width:1.03244"><tspan
           style="font-size:80.4001px;stroke-width:1.03244"
           id="tspan4617">Kleis!</tspan></tspan></text>
    <text
       xml:space="preserve"
       style="font-style:normal;font-variant:normal;font-weight:normal;font-stretch:normal;line-height:0%;font-family:Lavi;-inkscape-font-specification:Lavi;text-align:center;letter-spacing:0px;word-spacing:0px;text-anchor:middle;fill:#000000;fill-opacity:1;stroke:none;stroke-width:1.6;stroke-miterlimit:4;stroke-dasharray:none"
       x="1045.1902"
       y="1024.4766"
       id="text4246-7-6-2-04"><tspan
         sodipodi:role="line"
         style="font-size:45px;line-height:1.25;stroke:none;stroke-width:1.6;stroke-miterlimit:4;stroke-dasharray:none;stroke-opacity:1"
         x="1045.1902"
         y="1024.4766"
         id="tspan1010">Vinter</tspan><tspan
         sodipodi:role="line"
         style="font-size:45px;line-height:1.25;stroke:none;stroke-width:1.6;stroke-miterlimit:4;stroke-dasharray:none;stroke-opacity:1"
         x="1045.1902"
         y="1080.7266"
         id="tspan904">utan noko</tspan><tspan
         sodipodi:role="line"
         style="font-size:45px;line-height:1.25;stroke:none;stroke-width:1.6;stroke-miterlimit:4;stroke-dasharray:none;stroke-opacity:1"
         x="1045.1902"
         y="1136.9766"
         id="tspan906">samhaldsstre?!</tspan></text>
    <text
       xml:space="preserve"
       style="font-style:normal;font-variant:normal;font-weight:normal;font-stretch:normal;line-height:0%;font-family:Lavi;-inkscape-font-specification:Lavi;text-align:center;letter-spacing:0px;word-spacing:0px;text-anchor:middle;fill:#000000;fill-opacity:1;stroke:none;stroke-width:1.6;stroke-miterlimit:4;stroke-dasharray:none"
       x="2194.6575"
       y="1129.6553"
       id="text4246-7-6-2-04-3"><tspan
         sodipodi:role="line"
         style="font-size:45px;line-height:1.25;stroke:none;stroke-width:1.6;stroke-miterlimit:4;stroke-dasharray:none;stroke-opacity:1"
         x="2194.6575"
         y="1129.6553"
         id="tspan1525">Eg får</tspan><tspan
         sodipodi:role="line"
         style="font-size:45px;line-height:1.25;stroke:none;stroke-width:1.6;stroke-miterlimit:4;stroke-dasharray:none;stroke-opacity:1"
         x="2194.6575"
         y="1185.9053"
         id="tspan922">laga mitt eige</tspan><tspan
         sodipodi:role="line"
         style="font-size:45px;line-height:1.25;stroke:none;stroke-width:1.6;stroke-miterlimit:4;stroke-dasharray:none;stroke-opacity:1"
         x="2194.6575"
         y="1242.1553"
         id="tspan924">tre – ved hjelp</tspan><tspan
         sodipodi:role="line"
         style="font-size:45px;line-height:1.25;stroke:none;stroke-width:1.6;stroke-miterlimit:4;stroke-dasharray:none;stroke-opacity:1"
         x="2194.6575"
         y="1298.4053"
         id="tspan926">av trolldom!</tspan></text>
    <text
       xml:space="preserve"
       style="font-style:normal;font-variant:normal;font-weight:normal;font-stretch:normal;line-height:0%;font-family:Lavi;-inkscape-font-specification:Lavi;text-align:center;letter-spacing:0px;word-spacing:0px;text-anchor:middle;fill:#000000;fill-opacity:1;stroke:none;stroke-width:1.6;stroke-miterlimit:4;stroke-dasharray:none"
       x="318.74161"
       y="2254.5608"
       id="text4246-7-6-2-04-3-5"><tspan
         sodipodi:role="line"
         style="font-size:45px;line-height:1.25;stroke:none;stroke-width:1.6;stroke-miterlimit:4;stroke-dasharray:none;stroke-opacity:1"
         x="318.74161"
         y="2254.5608"
         id="tspan1139">Ja! Kanskje eg for</tspan><tspan
         sodipodi:role="line"
         style="font-size:45px;line-height:1.25;stroke:none;stroke-width:1.6;stroke-miterlimit:4;stroke-dasharray:none;stroke-opacity:1"
         x="318.74161"
         y="2310.8108"
         id="tspan948">fyrste gong kan</tspan><tspan
         sodipodi:role="line"
         style="font-size:45px;line-height:1.25;stroke:none;stroke-width:1.6;stroke-miterlimit:4;stroke-dasharray:none;stroke-opacity:1"
         x="318.74161"
         y="2367.0608"
         id="tspan950">kombinera trolldom</tspan><tspan
         sodipodi:role="line"
         style="font-size:45px;line-height:1.25;stroke:none;stroke-width:1.6;stroke-miterlimit:4;stroke-dasharray:none;stroke-opacity:1"
         x="318.74161"
         y="2423.3108"
         id="tspan952">frå både hippiah</tspan><tspan
         sodipodi:role="line"
         style="font-size:45px;line-height:1.25;stroke:none;stroke-width:1.6;stroke-miterlimit:4;stroke-dasharray:none;stroke-opacity:1"
         x="318.74161"
         y="2479.5608"
         id="tspan954">og kaosah!</tspan></text>
    <text
       xml:space="preserve"
       style="font-style:normal;font-variant:normal;font-weight:normal;font-stretch:normal;line-height:0%;font-family:Lavi;-inkscape-font-specification:Lavi;text-align:center;letter-spacing:0px;word-spacing:0px;text-anchor:middle;fill:#000000;fill-opacity:1;stroke:none;stroke-width:1.6;stroke-miterlimit:4;stroke-dasharray:none"
       x="895.09332"
       y="2355.1113"
       id="text4246-7-6-2-04-3-5-0"><tspan
         sodipodi:role="line"
         style="font-size:45px;line-height:1.25;stroke:none;stroke-width:1.6;stroke-miterlimit:4;stroke-dasharray:none;stroke-opacity:1"
         x="895.09332"
         y="2355.1113"
         id="tspan1263">Eit stort,</tspan><tspan
         sodipodi:role="line"
         style="font-size:45px;line-height:1.25;stroke:none;stroke-width:1.6;stroke-miterlimit:4;stroke-dasharray:none;stroke-opacity:1"
         x="895.09332"
         y="2411.3613"
         id="tspan970">grønt tre,</tspan><tspan
         sodipodi:role="line"
         style="font-size:45px;line-height:1.25;stroke:none;stroke-width:1.6;stroke-miterlimit:4;stroke-dasharray:none;stroke-opacity:1"
         x="895.09332"
         y="2467.6113"
         id="tspan972">lyssett av</tspan><tspan
         sodipodi:role="line"
         style="font-size:45px;line-height:1.25;stroke:none;stroke-width:1.6;stroke-miterlimit:4;stroke-dasharray:none;stroke-opacity:1"
         x="895.09332"
         y="2523.8613"
         id="tspan974">stjerner og</tspan><tspan
         sodipodi:role="line"
         style="font-size:45px;line-height:1.25;stroke:none;stroke-width:1.6;stroke-miterlimit:4;stroke-dasharray:none;stroke-opacity:1"
         x="895.09332"
         y="2580.1113"
         id="tspan976">mini-</tspan><tspan
         sodipodi:role="line"
         style="font-size:45px;line-height:1.25;stroke:none;stroke-width:1.6;stroke-miterlimit:4;stroke-dasharray:none;stroke-opacity:1"
         x="895.09332"
         y="2636.3613"
         id="tspan913">solsystem!</tspan></text>
    <text
       xml:space="preserve"
       style="font-style:normal;font-variant:normal;font-weight:normal;font-stretch:normal;font-size:10.771px;line-height:0%;font-family:Lavi;-inkscape-font-specification:Lavi;text-align:center;letter-spacing:0px;word-spacing:0px;text-anchor:middle;fill:#000000;fill-opacity:1;stroke:none;stroke-width:1.6;stroke-miterlimit:4;stroke-dasharray:none"
       x="926.3324"
       y="2873.3411"
       id="text4246-7-6-2-04-3-5-0-7"
       transform="scale(1.0118702,0.98826905)"><tspan
         sodipodi:role="line"
         style="font-size:40.3913px;line-height:1.25;stroke:none;stroke-width:1.6;stroke-miterlimit:4;stroke-dasharray:none;stroke-opacity:1"
         x="926.3324"
         y="2873.3411"
         id="tspan1257">Å, det</tspan><tspan
         sodipodi:role="line"
         style="font-size:40.3913px;line-height:1.25;stroke:none;stroke-width:1.6;stroke-miterlimit:4;stroke-dasharray:none;stroke-opacity:1"
         x="926.3324"
         y="2923.8301"
         id="tspan985">hadde vore</tspan><tspan
         sodipodi:role="line"
         style="font-size:40.3913px;line-height:1.25;stroke:none;stroke-width:1.6;stroke-miterlimit:4;stroke-dasharray:none;stroke-opacity:1"
         x="926.3324"
         y="2974.3193"
         id="tspan983">heilt nydeleg!</tspan></text>
    <flowRoot
       xml:space="preserve"
       id="flowRoot1245"
       style="font-style:normal;font-variant:normal;font-weight:normal;font-stretch:normal;font-size:0.666667px;line-height:318%;font-family:Neuropolitical;-inkscape-font-specification:Neuropolitical;text-align:center;letter-spacing:0px;word-spacing:0px;writing-mode:lr-tb;text-anchor:middle;fill:#000000;fill-opacity:1;stroke:none;stroke-width:1px;stroke-linecap:butt;stroke-linejoin:miter;stroke-opacity:1"><flowRegion
         id="flowRegion1247"><rect
           id="rect1249"
           width="13.224999"
           height="3.3062499"
           x="790.19373"
           y="2848.3625" /></flowRegion><flowPara
         id="flowPara1251" /></flowRoot>
    <text
       xml:space="preserve"
       style="font-style:normal;font-variant:normal;font-weight:normal;font-stretch:normal;line-height:0%;font-family:Lavi;-inkscape-font-specification:Lavi;text-align:center;letter-spacing:0px;word-spacing:0px;text-anchor:middle;fill:#000000;fill-opacity:1;stroke:none"
       x="1404.5569"
       y="3228.3157"
       id="text4246"><tspan
         sodipodi:role="line"
         style="font-size:45px;line-height:1.25"
         x="1404.5569"
         y="3228.3157"
         id="tspan4252">Og ikkje minst</tspan></text>
    <text
       xml:space="preserve"
       style="font-style:normal;font-variant:normal;font-weight:normal;font-stretch:normal;line-height:0%;font-family:Lavi;-inkscape-font-specification:Lavi;text-align:center;letter-spacing:0px;word-spacing:0px;text-anchor:middle;fill:#000000;fill-opacity:1;stroke:none"
       x="2274.2737"
       y="3295.3484"
       id="text4246-6"
       transform="skewX(-14.861122)"><tspan
         sodipodi:role="line"
         style="font-size:74.6667px;line-height:1.25"
         x="2274.2737"
         y="3295.3484"
         id="tspan4252-1">kreativt!</tspan></text>
    <text
       xml:space="preserve"
       style="font-style:normal;font-variant:normal;font-weight:normal;font-stretch:normal;line-height:0%;font-family:Lavi;-inkscape-font-specification:Lavi;text-align:center;letter-spacing:0px;word-spacing:0px;text-anchor:middle;fill:#000000;fill-opacity:1;stroke:none"
       x="2064.0093"
       y="2273.4563"
       id="text4246-2"><tspan
         sodipodi:role="line"
         style="font-size:45px;line-height:1.25"
         x="2064.0093"
         y="2273.4563"
         id="tspan1426">Men eg kan</tspan><tspan
         sodipodi:role="line"
         style="font-size:45px;line-height:1.25"
         x="2064.0093"
         y="2329.7063"
         id="tspan1003">ikkje bruka slik</tspan><tspan
         sodipodi:role="line"
         style="font-size:45px;line-height:1.25"
         x="2064.0093"
         y="2385.9563"
         id="tspan1009">magi her ...</tspan></text>
    <text
       xml:space="preserve"
       style="font-style:normal;font-variant:normal;font-weight:normal;font-stretch:normal;line-height:0%;font-family:Lavi;-inkscape-font-specification:Lavi;text-align:center;letter-spacing:0px;word-spacing:0px;text-anchor:middle;fill:#000000;fill-opacity:1;stroke:none"
       x="2069.6736"
       y="3170.0127"
       id="text4246-2-3"><tspan
         sodipodi:role="line"
         style="font-size:45px;line-height:1.25"
         x="2069.6736"
         y="3170.0127"
         id="tspan1436">Gudmødrene ville</tspan><tspan
         sodipodi:role="line"
         style="font-size:45px;line-height:1.25"
         x="2069.6736"
         y="3226.2627"
         id="tspan1020">straks oppdaga at</tspan><tspan
         sodipodi:role="line"
         style="font-size:45px;line-height:1.25"
         x="2069.6736"
         y="3282.5127"
         id="tspan1022">eg ikkje pugga</tspan><tspan
         sodipodi:role="line"
         style="font-size:45px;line-height:1.25"
         x="2069.6736"
         y="3338.7627"
         id="tspan1024">øydeleggingsformlar.</tspan><tspan
         sodipodi:role="line"
         x="2069.6736"
         y="3357.2698"
         id="tspan1026" /></text>
    <text
       xml:space="preserve"
       style="font-style:normal;font-variant:normal;font-weight:normal;font-stretch:normal;font-size:9.8646px;line-height:0%;font-family:Lavi;-inkscape-font-specification:Lavi;text-align:center;letter-spacing:0px;word-spacing:0px;text-anchor:middle;opacity:0.553;fill:#ffffff;fill-opacity:1;stroke:#ffffff;stroke-width:0.410156;stroke-miterlimit:4;stroke-dasharray:none;stroke-opacity:1"
       x="1723.8367"
       y="993.6333"
       id="text4246-8"
       transform="matrix(1.0148684,-0.23351779,-0.23771225,1.0400462,0,0)"><tspan
         sodipodi:role="line"
         style="font-size:25.2876px;line-height:1.25;fill:#ffffff;stroke:#ffffff;stroke-width:0.410156;stroke-miterlimit:4;stroke-dasharray:none;stroke-opacity:1"
         x="1723.8367"
         y="993.6333"
         id="tspan4150-8">trykk</tspan></text>
    <text
       xml:space="preserve"
       style="font-style:normal;font-variant:normal;font-weight:normal;font-stretch:normal;font-size:9.8646px;line-height:0%;font-family:Lavi;-inkscape-font-specification:Lavi;text-align:center;letter-spacing:0px;word-spacing:0px;text-anchor:middle;opacity:0.553;fill:#ffffff;fill-opacity:1;stroke:#ffffff;stroke-width:0.410156;stroke-miterlimit:4;stroke-dasharray:none;stroke-opacity:1"
       x="659.43341"
       y="516.69019"
       id="text4246-8-3"
       transform="matrix(1.0294788,0.15704104,-0.60436617,0.87917276,0,0)"><tspan
         sodipodi:role="line"
         style="font-size:25.2876px;line-height:1.25;fill:#ffffff;stroke:#ffffff;stroke-width:0.410156;stroke-miterlimit:4;stroke-dasharray:none;stroke-opacity:1"
         x="659.43341"
         y="516.69019"
         id="tspan4150-8-6">Ffff</tspan></text>
    <text
       xml:space="preserve"
       style="font-style:normal;font-variant:normal;font-weight:normal;font-stretch:normal;font-size:13.8721px;line-height:0%;font-family:Lavi;-inkscape-font-specification:Lavi;text-align:center;letter-spacing:0px;word-spacing:0px;text-anchor:middle;fill:#000000;fill-opacity:1;stroke:#000000;stroke-width:1.6;stroke-miterlimit:4;stroke-dasharray:none;stroke-opacity:1"
       x="1265.1823"
       y="1245.3798"
       id="text4246-7-6-2-04-7"
       transform="skewX(-10.479117)"><tspan
         sodipodi:role="line"
         style="font-size:52.0204px;line-height:1.25;stroke:#000000;stroke-width:1.6;stroke-miterlimit:4;stroke-dasharray:none;stroke-opacity:1"
         x="1265.1823"
         y="1245.3798"
         id="tspan1010-2">Aldri!</tspan></text>
    <text
       xml:space="preserve"
       style="font-style:normal;font-variant:normal;font-weight:normal;font-stretch:normal;line-height:0%;font-family:Lavi;-inkscape-font-specification:Lavi;text-align:center;letter-spacing:0px;word-spacing:0px;text-anchor:middle;display:inline;fill:#000000;fill-opacity:1;stroke:#000000;stroke-width:1.1;stroke-miterlimit:4;stroke-dasharray:none;stroke-opacity:1"
       x="811.54419"
       y="1010.7184"
       id="text4246-7-6-2"
       transform="skewX(-26.235822)"><tspan
         sodipodi:role="line"
         style="font-size:45px;line-height:1.25;stroke:#000000;stroke-width:1.1;stroke-miterlimit:4;stroke-dasharray:none;stroke-opacity:1"
         x="811.54419"
         y="1010.7184"
         id="tspan1069-6">Grrrrr...!!!</tspan></text>
  </g>
</svg>
