{
   "id": 0,
   "original-language": "en",
   "supporters": 0,
   "published": "2017-12-15",
   "pluxmlID": 0,
   "background-color": "#FFFFFF",
   "credits": {
      "art":[
         "David Revoy"
      ],
      "scenario":[
         "David Revoy"
      ],
      "beta-readers":[
         "Nick",
         "Name"
      ],
      "inspiration":[
         "Paragraph 1 - no line breaks allowed in JSON"
      ],
      "script-doctor":[
         "Nick",
         "Name"
      ]
   },
   "software":[
      {
         "name": "Krita",
         "version": "3.2.3"
      }
   ],
   "notes":[
      {
         "author": "The Artist",
         "text":[
            "Paragraph 1 - no line breaks allowed in JSON",
            "Paragraph 2 - no line breaks allowed in JSON"
         ]
      }
   ]
}
