<?xml version="1.0" encoding="UTF-8" standalone="no"?>
<!-- Created with Inkscape (http://www.inkscape.org/) -->

<svg
   xmlns:dc="http://purl.org/dc/elements/1.1/"
   xmlns:cc="http://creativecommons.org/ns#"
   xmlns:rdf="http://www.w3.org/1999/02/22-rdf-syntax-ns#"
   xmlns:svg="http://www.w3.org/2000/svg"
   xmlns="http://www.w3.org/2000/svg"
   xmlns:xlink="http://www.w3.org/1999/xlink"
   xmlns:sodipodi="http://sodipodi.sourceforge.net/DTD/sodipodi-0.dtd"
   xmlns:inkscape="http://www.inkscape.org/namespaces/inkscape"
   id="svg2"
   version="1.1"
   inkscape:version="0.92.3 (2405546, 2018-03-11)"
   width="2481"
   height="4503"
   sodipodi:docname="E14P07_092.svg">
  <sodipodi:namedview pagecolor="#ffffff" bordercolor="#666666" inkscape:pageopacity="0" inkscape:pageshadow="2" inkscape:window-width="1813" inkscape:window-height="955" id="namedview70" showgrid="false" inkscape:zoom="0.4" inkscape:cx="1284.4231" inkscape:cy="2618.6204" inkscape:current-layer="layer1" /><metadata
     id="metadata8">
    <rdf:RDF>
      <cc:Work
         rdf:about="">
        <dc:format>image/svg+xml</dc:format>
        <dc:type
           rdf:resource="http://purl.org/dc/dcmitype/StillImage" />
        <dc:title />
      </cc:Work>
    </rdf:RDF>
  </metadata>
  <defs
     id="defs6" />
  <sodipodi:namedview
     pagecolor="#ffffff"
     bordercolor="#666666"
     borderopacity="1"
     objecttolerance="10"
     gridtolerance="10"
     guidetolerance="10"
     inkscape:pageopacity="0"
     inkscape:pageshadow="2"
     inkscape:window-width="1920"
     inkscape:window-height="1025"
     id="namedview4"
     showgrid="false"
     inkscape:zoom="0.48668"
     inkscape:cx="1372.3271"
     inkscape:cy="511.99674"
     inkscape:window-x="0"
     inkscape:window-y="26"
     inkscape:window-maximized="1"
     inkscape:current-layer="layer2"
     inkscape:object-nodes="true"
     showguides="true"
     inkscape:guide-bbox="true">
    <sodipodi:guide
       position="3653.5365,4415.3377"
       orientation="0,1"
       id="guide4214"
       inkscape:locked="false" />
  </sodipodi:namedview>
  <g
     inkscape:groupmode="layer"
     id="layer1"
     inkscape:label="artwork"
     style="display:inline"
     transform="translate(0,1024)"
     sodipodi:insensitive="true">
    <image
       sodipodi:absref="/home/deevad/peppercarrot/webcomics/ep14_The-Dragon-s-Tooth/lang/vi/../gfx_Pepper-and-Carrot_by-David-Revoy_E14P07.png"
       xlink:href="../gfx_Pepper-and-Carrot_by-David-Revoy_E14P07.png"
       width="2481.4438"
       height="4504.5391"
       preserveAspectRatio="none"
       style="image-rendering:optimizeQuality"
       id="image4223"
       x="0.54707891"
       y="-1023.3771" />
  </g>
  <g
     inkscape:groupmode="layer"
     id="layer3"
     inkscape:label="speechbubbles"
     style="display:inline"
     transform="translate(0,1024)">
    <path
       style="fill:#ffffff;stroke:none"
       d="m -2021.8885,646.19917 c 1.0628,-51.0158 26.5707,-103.09442 170.0526,-112.65988 143.4819,-9.56546 203.0004,48.89014 207.2517,90.34047 4.2513,41.45033 -82.9007,96.71744 -162.6129,97.78027 -79.7121,1.06282 -214.6914,-11.69112 -214.6914,-75.46086 z"
       id="path4279"
       inkscape:connector-curvature="0" />
    <path
       style="fill:#ffffff;stroke:none"
       d="m -1788.0661,898.08964 c 70.1467,-44.63882 88.2148,-124.35099 45.7016,-190.24639 -42.5132,-65.8954 -82.9007,-54.20428 -82.9007,-54.20428 l 35.0734,41.45033 c 0,0 97.7803,97.78027 2.1257,203.00034 z"
       id="path4281"
       inkscape:connector-curvature="0"
       sodipodi:nodetypes="csccc" />
  </g>
  <g
     inkscape:groupmode="layer"
     id="layer2"
     inkscape:label="text"
     style="display:inline;opacity:0.855"
     transform="translate(0,1024)">
    <text
       xml:space="preserve"
       style="font-style:normal;font-variant:normal;font-weight:normal;font-stretch:normal;line-height:0%;font-family:Arial;-inkscape-font-specification:Arial;text-align:center;letter-spacing:0px;word-spacing:0px;text-anchor:middle;display:inline;fill:#000000;fill-opacity:1;stroke:none"
       x="1240.9395"
       y="-820.94409"
       id="text4213"><tspan
         sodipodi:role="line"
         x="1240.9395"
         y="-820.94409"
         style="font-style:normal;font-variant:normal;font-weight:500;font-stretch:normal;font-size:50px;line-height:1.25;font-family:ComicSpice;-inkscape-font-specification:'ComicSpice Medium'"
         id="tspan4219">Hạt Tiêu&amp;Cà Rốt hoàn toàn miễn phí và cảm ơn tới sự giúp đỡ</tspan><tspan
         sodipodi:role="line"
         x="1245.7246"
         y="-758.44409"
         style="font-style:normal;font-variant:normal;font-weight:500;font-stretch:normal;font-size:50px;line-height:1.25;font-family:ComicSpice;-inkscape-font-specification:'ComicSpice Medium'"
         id="tspan3357">bởi các nhà tài trợ. </tspan><tspan
         sodipodi:role="line"
         x="1240.9395"
         y="-695.94409"
         style="font-style:normal;font-variant:normal;font-weight:500;font-stretch:normal;font-size:50px;line-height:1.25;font-family:ComicSpice;-inkscape-font-specification:'ComicSpice Medium'"
         id="tspan3359">Tập này được tài trợ bởi 671 người này:</tspan></text>
    <text
       xml:space="preserve"
       style="font-style:normal;font-variant:normal;font-weight:normal;font-stretch:normal;line-height:0%;font-family:Arial;-inkscape-font-specification:Arial;text-align:center;letter-spacing:0px;word-spacing:0px;text-anchor:middle;display:inline;fill:#000000;fill-opacity:1;stroke:none"
       x="1408.7443"
       y="2901.1709"
       id="text4221"><tspan
         sodipodi:role="line"
         id="tspan4223"
         x="1408.7443"
         y="2901.1709"
         style="font-style:normal;font-variant:normal;font-weight:normal;font-stretch:normal;font-size:41.25px;line-height:1.25;font-family:Lavi;-inkscape-font-specification:Lavi">Bạn cũng có thể ủng hộ cho Hạt Tiêu&amp;Cà Rốt tập tiếp theo tại:</tspan></text>
    <text
       xml:space="preserve"
       style="font-style:normal;font-variant:normal;font-weight:normal;font-stretch:normal;line-height:0%;font-family:Arial;-inkscape-font-specification:Arial;text-align:center;letter-spacing:0px;word-spacing:0px;text-anchor:middle;display:inline;fill:#a72f14;fill-opacity:1;stroke:none"
       x="1419.4685"
       y="2978.8181"
       id="text4225"><tspan
         sodipodi:role="line"
         id="tspan4227"
         x="1419.4685"
         y="2978.8181"
         style="font-style:normal;font-variant:normal;font-weight:normal;font-stretch:normal;font-size:60px;line-height:1.25;font-family:Lavi;-inkscape-font-specification:Lavi">https://www.patreon.com/davidrevoy</tspan></text>
    <text
       xml:space="preserve"
       style="font-style:normal;font-variant:normal;font-weight:normal;font-stretch:normal;line-height:0%;font-family:Arial;-inkscape-font-specification:Arial;text-align:center;letter-spacing:0px;word-spacing:0px;text-anchor:middle;display:inline;fill:#000000;fill-opacity:1;stroke:none"
       x="1207.6826"
       y="3137.168"
       id="text4229"><tspan
         sodipodi:role="line"
         x="1207.6826"
         y="3137.168"
         style="font-style:normal;font-variant:normal;font-weight:500;font-stretch:normal;font-size:35px;line-height:1.25;font-family:ComicSpice;-inkscape-font-specification:'ComicSpice Medium'"
         id="tspan4237">License : Creative Commons Attribution 4.0</tspan><tspan
         sodipodi:role="line"
         x="1207.6826"
         y="3180.918"
         style="font-style:normal;font-variant:normal;font-weight:500;font-stretch:normal;font-size:35px;line-height:1.25;font-family:ComicSpice;-inkscape-font-specification:'ComicSpice Medium'"
         id="tspan3378">Nguồn mở : Bạn có thể tìm thấy ở  www.peppercarrot.com</tspan><tspan
         sodipodi:role="line"
         x="1207.6826"
         y="3224.668"
         style="font-style:normal;font-variant:normal;font-weight:500;font-stretch:normal;font-size:35px;line-height:1.25;font-family:ComicSpice;-inkscape-font-specification:'ComicSpice Medium'"
         id="tspan3380">Phần mềm: Tập này được vẽ với 100% các phần mềm miễn phí!</tspan><tspan
         sodipodi:role="line"
         x="1211.0322"
         y="3268.418"
         style="font-style:normal;font-variant:normal;font-weight:500;font-stretch:normal;font-size:35px;line-height:1.25;font-family:ComicSpice;-inkscape-font-specification:'ComicSpice Medium'"
         id="tspan3382">Krita 2.9.9, Inkscape 0.91 on Linux Mint 17 </tspan></text>
    <flowRoot
       xml:space="preserve"
       id="flowRoot3361"
       style="font-style:normal;font-weight:normal;line-height:0.01%;font-family:sans-serif;letter-spacing:0px;word-spacing:0px;fill:#000000;fill-opacity:1;stroke:none;stroke-width:1px;stroke-linecap:butt;stroke-linejoin:miter;stroke-opacity:1"><flowRegion
         id="flowRegion3363"><rect
           id="rect3365"
           width="279.4444"
           height="41.094765"
           x="1458.8641"
           y="290.78665" /></flowRegion><flowPara
         id="flowPara3367"
         style="font-size:40px;line-height:1.25"> </flowPara></flowRoot>  </g>
</svg>
