<?xml version="1.0" encoding="UTF-8" standalone="no"?>
<!-- Created with Inkscape (http://www.inkscape.org/) -->

<svg
   xmlns:dc="http://purl.org/dc/elements/1.1/"
   xmlns:cc="http://creativecommons.org/ns#"
   xmlns:rdf="http://www.w3.org/1999/02/22-rdf-syntax-ns#"
   xmlns:svg="http://www.w3.org/2000/svg"
   xmlns="http://www.w3.org/2000/svg"
   xmlns:xlink="http://www.w3.org/1999/xlink"
   xmlns:sodipodi="http://sodipodi.sourceforge.net/DTD/sodipodi-0.dtd"
   xmlns:inkscape="http://www.inkscape.org/namespaces/inkscape"
   id="svg2"
   version="1.1"
   inkscape:version="0.92.2 5c3e80d, 2017-08-06"
   width="2481"
   height="3503"
   sodipodi:docname="E04P03.svg">
  <metadata
     id="metadata8">
    <rdf:RDF>
      <cc:Work
         rdf:about="">
        <dc:format>image/svg+xml</dc:format>
        <dc:type
           rdf:resource="http://purl.org/dc/dcmitype/StillImage" />
        <dc:title />
      </cc:Work>
    </rdf:RDF>
  </metadata>
  <defs
     id="defs6" />
  <sodipodi:namedview
     pagecolor="#ffffff"
     bordercolor="#666666"
     borderopacity="1"
     objecttolerance="10"
     gridtolerance="10"
     guidetolerance="10"
     inkscape:pageopacity="0"
     inkscape:pageshadow="2"
     inkscape:window-width="1366"
     inkscape:window-height="703"
     id="namedview4"
     showgrid="false"
     inkscape:zoom="0.5668758"
     inkscape:cx="1361.0689"
     inkscape:cy="702.6175"
     inkscape:window-x="0"
     inkscape:window-y="0"
     inkscape:window-maximized="1"
     inkscape:current-layer="layer1" />
  <g
     inkscape:groupmode="layer"
     id="layer2"
     inkscape:label="artwork"
     sodipodi:insensitive="true">
    <image
       sodipodi:absref="/home/huftis/felles/omsetting/pepper-carrot/webcomics/ep04_Stroke-of-genius/lang/nn/../gfx_Pepper-and-Carrot_by-David-Revoy_E04P03.png"
       xlink:href="../gfx_Pepper-and-Carrot_by-David-Revoy_E04P03.png"
       y="0"
       x="0"
       id="image10"
       height="3503"
       width="2481" />
  </g>
  <g
     inkscape:groupmode="layer"
     id="layer3"
     inkscape:label="speechbubbles">
    <path
       style="fill:#ffffff;stroke:none;stroke-width:0.94611269"
       d="M 85.162546,225.60524 C 83.960336,170.36166 110.40883,104.69475 153.68817,94.271433 196.96751,83.848114 465.05898,73.424795 487.90083,80.721119 c 22.84187,7.296323 50.49257,20.846641 73.33444,40.650941 22.84187,19.80431 40.87493,53.15892 37.26832,80.25955 -3.60662,27.10063 -20.43747,82.34422 -36.06612,96.93686 -15.62864,14.59267 -57.70578,48.98961 -99.78292,55.2436 -42.07714,6.25399 -91.36748,11.46565 -110.60274,10.42332 -19.23526,-1.04233 -117.81598,-7.29632 -117.81598,-7.29632 0,0 -52.89697,4.16933 -69.72783,-6.25399 -16.83085,-10.42332 -60.11019,-28.14297 -73.334434,-71.92091 -13.22424,-43.77793 -6.01102,-15.63497 -6.01102,-53.15893 z"
       id="path3971"
       inkscape:connector-curvature="0" />
    <path
       style="color:#000000;display:inline;overflow:visible;visibility:visible;fill:#ffffff;fill-opacity:1;fill-rule:nonzero;stroke:none;stroke-width:1px;stroke-linecap:butt;stroke-linejoin:miter;stroke-opacity:1;marker:none;enable-background:accumulate"
       d="m 572.91828,454.50332 c -88.75621,-26.38698 -125.93786,-37.18166 -148.72661,-95.95266 -22.78876,-58.77099 -39.58047,-5.99704 -39.58047,-5.99704 0,0 8.39585,103.1491 188.30708,101.9497 z"
       id="path3984"
       inkscape:connector-curvature="0" />
    <path
       style="color:#000000;display:inline;overflow:visible;visibility:visible;fill:#ffffff;fill-opacity:1;fill-rule:nonzero;stroke:none;stroke-width:1.00677168px;stroke-linecap:butt;stroke-linejoin:miter;stroke-opacity:1;marker:none;enable-background:accumulate"
       d="m 1049.8494,298.18144 c -34.0397,-47.97632 -30.3926,-141.53016 -20.6669,-163.11951 9.7256,-21.58934 23.0983,-53.973363 69.2953,-53.973363 46.1969,0 367.1435,-22.788755 414.556,27.586383 47.4126,50.37515 46.1969,137.93194 4.8629,196.70294 -41.334,58.771 -262.5927,46.77692 -262.5927,46.77692 0,0 -153.1791,7.19645 -205.4546,-53.97337 z"
       id="path3992"
       inkscape:connector-curvature="0" />
    <path
       style="color:#000000;fill:#ffffff;fill-opacity:1;fill-rule:nonzero;stroke:none;stroke-width:1px;marker:none;visibility:visible;display:inline;overflow:visible;enable-background:accumulate"
       d="m 1146.6342,456.50332 c 86.3574,-52.77396 115.6987,-98.14741 141.122,-142.99485 11.9623,-21.10173 -40.3717,-44.11282 -40.3717,-44.11282 l -16.7917,47.97632 c 0,0 -16.7645,81.67766 -83.9586,139.13135 z"
       id="path4000"
       inkscape:connector-curvature="0"
       sodipodi:nodetypes="csccc" />
    <path
       style="color:#000000;display:inline;overflow:visible;visibility:visible;fill:#ffffff;fill-opacity:1;fill-rule:nonzero;stroke:none;stroke-width:0.95110762px;marker:none;enable-background:accumulate"
       d="m 428.79127,827.22965 c 58.79437,-48.32444 321.77806,-49.09185 367.37247,-11.35745 44.92261,37.1784 12.81108,174.69492 -31.6873,218.5313 -50.70418,49.9499 -277.05756,24.6585 -327.38226,-14.6107 -48.82772,-38.10106 -67.09727,-144.23871 -8.30291,-192.56315 z"
       id="path4008"
       inkscape:connector-curvature="0"
       sodipodi:nodetypes="zsssz" />
    <path
       style="color:#000000;display:inline;overflow:visible;visibility:visible;fill:#ffffff;fill-opacity:1;fill-rule:nonzero;stroke:none;stroke-width:1px;marker:none;enable-background:accumulate"
       d="m 1151.6896,916.45026 c -50.0655,-18.99475 -100.9594,-38.14301 -154.5315,-44.09381 -38.48708,-4.37587 -78.57566,1.00958 -113.15098,19.03609 -32.73956,16.67622 -60.16415,42.09485 -83.79625,69.90516 -13.4053,-7.41069 -22.60064,-20.28714 -31.82413,-32.14019 -3.37955,-5.27569 -8.76282,-10.89773 -10.49022,-16.28006 29.16601,-26.85941 65.28605,-45.62049 103.13999,-56.91895 60.13957,-17.92686 125.48697,-13.45925 184.38699,7.03526 37.6522,12.86195 73.1405,31.52397 106.2661,53.4565 z"
       id="path4010"
       inkscape:connector-curvature="0" />
    <path
       style="color:#000000;display:inline;overflow:visible;visibility:visible;fill:#ffffff;fill-opacity:1;fill-rule:nonzero;stroke:none;stroke-width:0.97185284px;stroke-linecap:butt;stroke-linejoin:miter;stroke-opacity:1;marker:none;enable-background:accumulate"
       d="m 1939.845,1785.1574 -11.0111,-2.0573 2.5909,19.2015 c -17.4227,1.0419 -26.5003,-4.9846 -38.8623,-8.2292 l 19.4311,24.6875 -3.2385,6.8577 c 3.1547,4.0097 7.9149,6.7445 9.0678,12.3438 -8.8013,3.4893 -15.1292,3.487 -22.4079,4.8268 6.8488,4.6372 12.5507,10.0028 16.5786,16.4319 l -23.3173,10.9722 21.3728,9.5992 c -16.076,15.7848 -36.2813,25.74 -55.0534,37.7187 l 66.7135,-5.4862 -10.3632,12.3438 c 6.6679,6.4246 6.0787,3.2445 9.0678,4.8004 1.4557,4.6235 -22.9342,23.8474 -20.7265,21.9445 2.5908,-0.6858 24.6127,-3.4289 24.6127,-3.4289 0,0 -19.4311,19.2015 -16.8403,19.2015 2.5908,0 23.9651,-4.8004 23.9651,-4.8004 l -7.1248,18.5157 27.8513,-10.2865 -11.6587,23.0224 c 7.2462,-1.3544 11.9215,-1.8272 9.3452,6.1781 -17.4345,28.5047 -44.1553,71.897 -39.8788,81.6014 14.7746,-10.9487 37.2605,-43.4171 58.3849,-55.2549 14.3538,1.9773 15.2175,10.0758 21.3742,15.7726 l 25.9082,-24.0018 4.5339,16.4584 19.4311,-20.573 v 21.2588 c 12.0587,-1.4877 18.1939,-13.9505 25.2605,-24.6876 l 1.9431,79.5488 42.1007,-67.205 8.4202,28.1164 6.4771,-26.0591 1.9431,21.9445 18.1357,-29.4879 13.6018,26.7448 12.9541,-24.6875 c 11.8521,26.9972 28.9098,48.483 48.5778,67.205 -2.7339,-27.6831 -5.0154,-54.5679 -3.8862,-75.4342 7.3406,-2.1744 14.6813,2.1747 22.0219,8.2292 l -3.8862,-18.5157 27.2036,12.3438 -12.3065,-28.8022 c 41.5254,-0.9228 33.1891,4.0201 42.7486,6.8577 l -7.7725,-18.5157 28.499,14.4011 c -7.7854,-15.3223 -18.0114,-31.9366 -23.3174,-45.9463 l 29.7944,3.4288 c -11.6754,-12.3266 -26.3443,-21.4838 -34.5127,-37.5234 l 26.0926,-1.5652 -24.6128,-20.573 19.4311,-11.658 -15.5448,-2.7431 25.9081,-24.6875 -34.3283,-2.0573 41.453,-44.5748 -47.93,9.6008 3.8861,-32.231 -26.5558,23.316 26.5558,-80.9203 c -21.4557,28.9445 -37.9876,52.1236 -67.0808,72.9817 l -9.3527,-8.1261 -10.3588,4.2083 2.5908,-23.1176 -38.2145,28.1163 3.8863,-13.0295 -11.6587,12.3438 2.5907,-17.1442 -20.0788,20.573 1.8487,-17.9252 -9.6211,11.7533 -2.9627,-11.2628 -11.2868,7.1482 c -3.3961,-29.7165 2.4394,-59.433 6.477,-89.1495 -13.2515,34.0184 -30.0804,64.7903 -52.464,90.5211 l -7.1248,-13.0249 -8.8834,12.0439 -8.9734,-15.5681 -13.5103,18.6033 c -10.6839,-14.1725 -16.9063,-22.8558 -21.0969,-37.0283 2.0667,13.2826 3.5693,22.2054 0.5547,36.8329 -39.4397,-22.3951 -38.259,-24.3922 -53.0187,-36.8329 -4.0445,15.9904 -8.0748,21.3145 -10.3632,33.6025 z"
       id="path4024"
       inkscape:connector-curvature="0"
       sodipodi:nodetypes="cccccccccccccccccsccccccccccccccccccccccccccccccccccccccccccccccccccccccccccccccccccc" />
    <path
       style="color:#000000;fill:#ffffff;fill-opacity:1;fill-rule:nonzero;stroke:none;stroke-width:1px;marker:none;visibility:visible;display:inline;overflow:visible;enable-background:accumulate"
       d="m 1848.5853,1575.0785 c 10.0461,44.0989 27.0514,87.1709 29.0118,132.4629 l 18.7724,-35.7599 c 9.4018,15.7423 8.3262,35.1951 10.8083,53.3881 l 15.3592,-20.1465 c 21.7256,37.425 24.8572,77.202 36.9759,115.8421 l 23.8921,-37.271 c -16.9368,-37.6417 -39.8877,-72.0885 -50.0597,-113.3238 l -17.0658,18.1319 c -5.5461,-13.7459 -10.5425,-27.7351 -13.0837,-42.8112 l -19.3412,24.6794 z"
       id="path4032"
       inkscape:connector-curvature="0"
       sodipodi:nodetypes="cccccccccccc" />
    <path
       style="color:#000000;display:inline;overflow:visible;visibility:visible;fill:#ffffff;fill-opacity:1;fill-rule:nonzero;stroke:none;stroke-width:1.01777625px;stroke-linecap:butt;stroke-linejoin:miter;stroke-opacity:1;marker:none;enable-background:accumulate"
       d="m 515.47249,2345.9965 c 26.95324,-16.3972 209.72309,-58.0491 275.62585,-0.6861 65.90275,57.363 38.96242,129.6301 1.14937,151.5323 -37.81307,21.9023 -173.97357,37.8836 -224.75111,19.1103 -50.77754,-18.7734 -90.33006,-46.8359 -92.91209,-104.2964 -1.05383,-23.4519 13.93473,-49.2629 40.88798,-65.6601 z"
       id="path4040"
       inkscape:connector-curvature="0"
       sodipodi:nodetypes="zssssz" />
    <path
       style="color:#000000;fill:#ffffff;fill-opacity:1;fill-rule:nonzero;stroke:none;stroke-width:1px;marker:none;visibility:visible;display:inline;overflow:visible;enable-background:accumulate"
       d="m 844.38604,2487.4707 c -46.71679,38.0588 -143.61096,79.6886 -134.17151,-10.1374 8.50339,-80.9185 -28.62326,-41.7422 -28.62326,-41.7422 l -16.6969,47.7054 c 0,0 42.33857,151.4647 179.49167,4.1742 z"
       id="path4048"
       inkscape:connector-curvature="0"
       sodipodi:nodetypes="csccc" />
    <path
       style="color:#000000;display:inline;overflow:visible;visibility:visible;fill:#ffffff;fill-opacity:1;fill-rule:nonzero;stroke:none;stroke-width:0.93339431px;marker:none;enable-background:accumulate"
       d="m 1742.2331,2645.636 c -31.8301,-36.5756 -49.6861,-81.4639 -39.5937,-115.5458 10.0926,-34.082 30.2776,-111.3896 84.6219,-114.7147 54.344,-3.325 329.9469,-37.4069 361.777,24.1068 31.8302,61.5136 54.3443,157.1091 29.5013,180.3846 -24.8431,23.2753 -70.6475,53.2009 -107.1357,53.2009 -36.4883,0 -83.8454,11.6377 -101.7014,8.3127 -17.856,-3.3251 -61.3314,-10.8064 -66.7658,-10.8064 -5.4344,0 -88.5034,0 -97.0432,-2.4939 -8.5398,-2.4938 -47.3572,7.4814 -63.6604,-22.4442 z"
       id="path4056"
       inkscape:connector-curvature="0" />
    <path
       style="color:#000000;display:inline;overflow:visible;visibility:visible;fill:#ffffff;fill-opacity:1;fill-rule:nonzero;stroke:none;stroke-width:1px;stroke-linecap:butt;stroke-linejoin:miter;stroke-opacity:1;marker:none;enable-background:accumulate"
       d="m 1716.508,2601.5167 c -30.8355,22.6731 -69.8333,55.3224 -105.2033,-7.2554 2.7207,2.7208 22.6731,97.9479 121.5279,44.4393 98.8548,-53.5086 105.2033,-71.6471 105.2033,-71.6471 z"
       id="path4064"
       inkscape:connector-curvature="0"
       sodipodi:nodetypes="ccscc" />
  </g>
  <g
     inkscape:groupmode="layer"
     id="layer1"
     inkscape:label="txt">
    <flowRoot
       xml:space="preserve"
       id="flowRoot2987"
       style="font-style:normal;font-variant:normal;font-weight:normal;font-stretch:normal;line-height:0.01%;font-family:Lavi;-inkscape-font-specification:Lavi;letter-spacing:0px;word-spacing:0px;fill:#000000;fill-opacity:1;stroke:none"
       transform="matrix(0.97226124,0,0,0.98626652,-386.96911,-123.3467)"><flowRegion
         id="flowRegion2989"><rect
           id="rect2991"
           width="1228.9047"
           height="338.34705"
           x="120.55251"
           y="265.53046"
           style="font-style:normal;font-variant:normal;font-weight:normal;font-stretch:normal;font-family:Lavi;-inkscape-font-specification:Lavi" /></flowRegion><flowPara
         style="font-size:48px;line-height:1.25;text-align:center;text-anchor:middle"
         id="flowPara3459">Ååå, søte, vesle </flowPara><flowPara
         style="font-size:48px;line-height:1.25;text-align:center;text-anchor:middle"
         id="flowPara7599">Gulrot! Kom du</flowPara><flowPara
         style="font-size:48px;line-height:1.25;text-align:center;text-anchor:middle"
         id="flowPara7601">heilt av deg sjølv?</flowPara></flowRoot>    <flowRoot
       xml:space="preserve"
       id="flowRoot2987-4"
       style="font-style:normal;font-variant:normal;font-weight:normal;font-stretch:normal;line-height:0.01%;font-family:Lavi;-inkscape-font-specification:Lavi;letter-spacing:0px;word-spacing:0px;fill:#000000;fill-opacity:1;stroke:none"
       transform="matrix(0.97226124,0,0,0.98626652,570.9484,-126.25179)"><flowRegion
         id="flowRegion2989-4"><rect
           id="rect2991-6"
           width="1228.9047"
           height="338.34705"
           x="120.55251"
           y="265.53046"
           style="font-style:normal;font-variant:normal;font-weight:normal;font-stretch:normal;font-family:Lavi;-inkscape-font-specification:Lavi" /></flowRegion><flowPara
         style="font-size:48px;line-height:1.25;text-align:center;text-anchor:middle"
         id="flowPara3472">Akkurat idet eg hadde </flowPara><flowPara
         style="font-size:48px;line-height:1.25;text-align:center;text-anchor:middle"
         id="flowPara7608">bruk for favoritt-</flowPara><flowPara
         style="font-size:48px;line-height:1.25;text-align:center;text-anchor:middle"
         id="flowPara7610">assistenten min.</flowPara></flowRoot>    <flowRoot
       xml:space="preserve"
       id="flowRoot2987-0"
       style="font-style:normal;font-variant:normal;font-weight:normal;font-stretch:normal;line-height:0.01%;font-family:Lavi;-inkscape-font-specification:Lavi;letter-spacing:0px;word-spacing:0px;fill:#000000;fill-opacity:1;stroke:none"
       transform="matrix(0.97226124,0,0,0.98626652,-113.66863,586.64891)"><flowRegion
         id="flowRegion2989-5"><rect
           id="rect2991-3"
           width="1228.9047"
           height="338.34705"
           x="120.55251"
           y="265.53046"
           style="font-style:normal;font-variant:normal;font-weight:normal;font-stretch:normal;font-family:Lavi;-inkscape-font-specification:Lavi" /></flowRegion><flowPara
         style="font-size:48px;line-height:1.25;text-align:center;text-anchor:middle"
         id="flowPara3493">Her ser du </flowPara><flowPara
         style="font-size:48px;line-height:1.25;text-align:center;text-anchor:middle"
         id="flowPara7617">meisterverket </flowPara><flowPara
         style="font-size:48px;line-height:1.25;text-align:center;text-anchor:middle"
         id="flowPara7619">mitt ...</flowPara></flowRoot>    <flowRoot
       xml:space="preserve"
       id="flowRoot2987-0-8"
       style="font-style:normal;font-variant:normal;font-weight:normal;font-stretch:normal;line-height:0.01%;font-family:Lavi;-inkscape-font-specification:Lavi;letter-spacing:0px;word-spacing:0px;fill:#000000;fill-opacity:1;stroke:none"
       transform="matrix(1.4223517,0,0,1.37337,1059.7359,1453.288)"><flowRegion
         id="flowRegion2989-5-3"><rect
           id="rect2991-3-9"
           width="1228.9047"
           height="338.34705"
           x="120.55251"
           y="265.53046"
           style="font-style:normal;font-variant:normal;font-weight:normal;font-stretch:normal;font-family:Lavi;-inkscape-font-specification:Lavi" /></flowRegion><flowPara
         style="font-size:48px;line-height:1.25;text-align:center;text-anchor:middle"
         id="flowPara3497">Eit geni-</flowPara><flowPara
         style="font-size:48px;line-height:1.25;text-align:center;text-anchor:middle"
         id="flowPara3563">brygg!</flowPara></flowRoot>    <flowRoot
       xml:space="preserve"
       id="flowRoot2987-0-8-0"
       style="font-style:normal;font-variant:normal;font-weight:normal;font-stretch:normal;line-height:0.01%;font-family:Lavi;-inkscape-font-specification:Lavi;letter-spacing:0px;word-spacing:0px;fill:#000000;fill-opacity:1;stroke:none"
       transform="matrix(0.99729969,0,0,0.93985282,-77.619774,2118.2762)"><flowRegion
         id="flowRegion2989-5-3-2"><rect
           id="rect2991-3-9-7"
           width="1228.9047"
           height="338.34705"
           x="120.55251"
           y="265.53046"
           style="font-style:normal;font-variant:normal;font-weight:normal;font-stretch:normal;font-family:Lavi;-inkscape-font-specification:Lavi" /></flowRegion><flowPara
         style="font-size:48px;line-height:1.25;text-align:center;text-anchor:middle"
         id="flowPara3526">Berre ein </flowPara><flowPara
         style="font-size:48px;line-height:1.25;text-align:center;text-anchor:middle"
         id="flowPara7623">liten slurk ...</flowPara></flowRoot>    <flowRoot
       xml:space="preserve"
       id="flowRoot2987-0-8-0-9"
       style="font-style:normal;font-variant:normal;font-weight:normal;font-stretch:normal;line-height:0.01%;font-family:Lavi;-inkscape-font-specification:Lavi;letter-spacing:0px;word-spacing:0px;fill:#000000;fill-opacity:1;stroke:none"
       transform="matrix(0.99729969,0,0,0.93985282,1212.7094,2228.8903)"><flowRegion
         id="flowRegion2989-5-3-2-1"><rect
           id="rect2991-3-9-7-5"
           width="1228.9047"
           height="338.34705"
           x="120.55251"
           y="265.53046"
           style="font-style:normal;font-variant:normal;font-weight:normal;font-stretch:normal;font-family:Lavi;-inkscape-font-specification:Lavi" /></flowRegion><flowPara
         style="font-size:48px;line-height:1.25;text-align:center;text-anchor:middle"
         id="flowPara3549">... og så skal du få </flowPara><flowPara
         style="font-size:48px;line-height:1.25;text-align:center;text-anchor:middle"
         id="flowPara7630">oppleva eit glimt </flowPara><flowPara
         style="font-size:48px;line-height:1.25;text-align:center;text-anchor:middle"
         id="flowPara7632">av genialitet.</flowPara></flowRoot>  </g>
</svg>
