<?xml version="1.0" encoding="UTF-8" standalone="no"?>
<svg
   xmlns:dc="http://purl.org/dc/elements/1.1/"
   xmlns:cc="http://creativecommons.org/ns#"
   xmlns:rdf="http://www.w3.org/1999/02/22-rdf-syntax-ns#"
   xmlns:svg="http://www.w3.org/2000/svg"
   xmlns="http://www.w3.org/2000/svg"
   xmlns:xlink="http://www.w3.org/1999/xlink"
   xmlns:sodipodi="http://sodipodi.sourceforge.net/DTD/sodipodi-0.dtd"
   xmlns:inkscape="http://www.inkscape.org/namespaces/inkscape"
   sodipodi:docname="E29P07.svg"
   height="3503"
   width="2481"
   inkscape:version="1.0 (4035a4fb49, 2020-05-01)"
   version="1.1"
   id="svg2">
  <metadata
     id="metadata8">
    <rdf:RDF>
      <cc:Work
         rdf:about="">
        <dc:format>image/svg+xml</dc:format>
        <dc:type
           rdf:resource="http://purl.org/dc/dcmitype/StillImage" />
        <dc:title />
      </cc:Work>
    </rdf:RDF>
  </metadata>
  <defs
     id="defs6">
    <filter
       inkscape:label="Drop Shadow"
       id="filter4375-4-1-1-1-9-5-8-8"
       style="color-interpolation-filters:sRGB">
      <feFlood
         radius="5.0999999999999996"
         result="flood"
         flood-color="rgb(197,34,84)"
         flood-opacity="1"
         id="feFlood4377-7-9-0-8-1-7-3-1" />
      <feComposite
         baseFrequency="0.053999999999999999 0.053999999999999999"
         result="composite1"
         operator="in"
         in="flood"
         in2="SourceGraphic"
         id="feComposite4379-3-8-8-2-77-4-1-0" />
      <feMorphology
         result="result3"
         radius="5.1272503082614058"
         operator="dilate"
         id="feMorphology4393-1-0-49-8-9-3-0-1" />
      <feComposite
         numOctaves="4"
         result="fbSourceGraphic"
         operator="over"
         in="SourceGraphic"
         in2="result3"
         id="feComposite4385-9-5-7-0-8-8-7-5" />
      <feColorMatrix
         id="feColorMatrix4544-9"
         values="0 0 0 -1 0 0 0 0 -1 0 0 0 0 -1 0 0 0 0 1 0"
         in="fbSourceGraphic"
         result="fbSourceGraphicAlpha" />
      <feTurbulence
         result="turbulence"
         baseFrequency="0.062 0.054054054054054057"
         seed="172"
         numOctaves="4.4123222748815163"
         type="fractalNoise"
         id="feTurbulence4546-3" />
      <feDisplacementMap
         result="fbSourceGraphic"
         xChannelSelector="R"
         yChannelSelector="G"
         scale="10.781991"
         in="fbSourceGraphic"
         in2="turbulence"
         id="feDisplacementMap4548-8" />
      <feColorMatrix
         scale="10.800000000000001"
         id="feColorMatrix4670-7"
         values="0 0 0 -1 0 0 0 0 -1 0 0 0 0 -1 0 0 0 0 1 0"
         in="fbSourceGraphic"
         result="fbSourceGraphicAlpha" />
      <feFlood
         dx="-2.3999999999999999"
         in="fbSourceGraphic"
         result="flood"
         flood-color="rgb(45,8,0)"
         flood-opacity="1"
         id="feFlood4672-4" />
      <feComposite
         result="composite1"
         operator="in"
         in="flood"
         in2="fbSourceGraphic"
         id="feComposite4674-8" />
      <feGaussianBlur
         result="blur"
         stdDeviation="0"
         in="composite1"
         id="feGaussianBlur4676-3" />
      <feOffset
         result="offset"
         dy="3.1000000000000001"
         dx="-2.3696682464454994"
         id="feOffset4678-6" />
      <feComposite
         result="composite2"
         operator="over"
         in="fbSourceGraphic"
         in2="offset"
         id="feComposite4680-4" />
    </filter>
    <filter
       inkscape:label="Drop Shadow"
       id="filter4375-4-1-1-1-9-5-8-8-3"
       style="color-interpolation-filters:sRGB">
      <feFlood
         radius="5.0999999999999996"
         result="flood"
         flood-color="rgb(33,167,196)"
         flood-opacity="1"
         id="feFlood4377-7-9-0-8-1-7-3-1-6" />
      <feComposite
         baseFrequency="0.053999999999999999 0.053999999999999999"
         result="composite1"
         operator="in"
         in="flood"
         in2="SourceGraphic"
         id="feComposite4379-3-8-8-2-77-4-1-0-7" />
      <feMorphology
         result="result3"
         radius="5.1272503082614058"
         operator="dilate"
         id="feMorphology4393-1-0-49-8-9-3-0-1-5" />
      <feComposite
         numOctaves="4"
         result="fbSourceGraphic"
         operator="over"
         in="SourceGraphic"
         in2="result3"
         id="feComposite4385-9-5-7-0-8-8-7-5-3" />
      <feColorMatrix
         id="feColorMatrix4544-9-5"
         values="0 0 0 -1 0 0 0 0 -1 0 0 0 0 -1 0 0 0 0 1 0"
         in="fbSourceGraphic"
         result="fbSourceGraphicAlpha" />
      <feTurbulence
         result="turbulence"
         baseFrequency="0.062 0.054054054054054057"
         seed="172"
         numOctaves="4.4123222748815163"
         type="fractalNoise"
         id="feTurbulence4546-3-6" />
      <feDisplacementMap
         result="fbSourceGraphic"
         xChannelSelector="R"
         yChannelSelector="G"
         scale="10.781991"
         in="fbSourceGraphic"
         in2="turbulence"
         id="feDisplacementMap4548-8-2" />
      <feColorMatrix
         scale="10.800000000000001"
         id="feColorMatrix4670-7-9"
         values="0 0 0 -1 0 0 0 0 -1 0 0 0 0 -1 0 0 0 0 1 0"
         in="fbSourceGraphic"
         result="fbSourceGraphicAlpha" />
      <feFlood
         dx="-2.3999999999999999"
         in="fbSourceGraphic"
         result="flood"
         flood-color="rgb(45,8,0)"
         flood-opacity="1"
         id="feFlood4672-4-1" />
      <feComposite
         result="composite1"
         operator="in"
         in="flood"
         in2="fbSourceGraphic"
         id="feComposite4674-8-2" />
      <feGaussianBlur
         result="blur"
         stdDeviation="0"
         in="composite1"
         id="feGaussianBlur4676-3-7" />
      <feOffset
         result="offset"
         dy="3.1000000000000001"
         dx="-2.3696682464454994"
         id="feOffset4678-6-0" />
      <feComposite
         result="composite2"
         operator="over"
         in="fbSourceGraphic"
         in2="offset"
         id="feComposite4680-4-9" />
    </filter>
    <filter
       inkscape:label="Drop Shadow"
       id="filter4375-4-1-1-1-9-5-8"
       style="color-interpolation-filters:sRGB">
      <feFlood
         result="flood"
         flood-color="rgb(165,138,223)"
         flood-opacity="1"
         id="feFlood4377-7-9-0-8-1-7-3" />
      <feComposite
         result="composite1"
         operator="in"
         in="flood"
         in2="SourceGraphic"
         id="feComposite4379-3-8-8-2-77-4-1" />
      <feMorphology
         result="result3"
         radius="6.2000000000000002"
         operator="dilate"
         id="feMorphology4393-1-0-49-8-9-3-0" />
      <feComposite
         result="fbSourceGraphic"
         operator="over"
         in="SourceGraphic"
         in2="result3"
         id="feComposite4385-9-5-7-0-8-8-7" />
      <feColorMatrix
         id="feColorMatrix4544"
         values="0 0 0 -1 0 0 0 0 -1 0 0 0 0 -1 0 0 0 0 1 0"
         in="fbSourceGraphic"
         result="fbSourceGraphicAlpha" />
      <feTurbulence
         result="turbulence"
         baseFrequency="0.129 0.0050000000000000001"
         seed="37"
         numOctaves="3"
         type="fractalNoise"
         id="feTurbulence4546" />
      <feDisplacementMap
         result="fbSourceGraphic"
         xChannelSelector="R"
         yChannelSelector="G"
         scale="6.6"
         in="fbSourceGraphic"
         in2="turbulence"
         id="feDisplacementMap4548" />
      <feColorMatrix
         id="feColorMatrix4670"
         values="0 0 0 -1 0 0 0 0 -1 0 0 0 0 -1 0 0 0 0 1 0"
         in="fbSourceGraphic"
         result="fbSourceGraphicAlpha" />
      <feFlood
         in="fbSourceGraphic"
         result="flood"
         flood-color="rgb(48,14,7)"
         flood-opacity="1"
         id="feFlood4672" />
      <feComposite
         result="composite1"
         operator="in"
         in="flood"
         in2="fbSourceGraphic"
         id="feComposite4674" />
      <feGaussianBlur
         result="blur"
         stdDeviation="0"
         in="composite1"
         id="feGaussianBlur4676" />
      <feOffset
         result="offset"
         dy="6"
         dx="6"
         id="feOffset4678" />
      <feComposite
         result="composite2"
         operator="over"
         in="fbSourceGraphic"
         in2="offset"
         id="feComposite4680" />
    </filter>
    <filter
       inkscape:label="Drop Shadow"
       id="filter4375-4-1-1-1-9-5-8-8-3-2"
       style="color-interpolation-filters:sRGB">
      <feFlood
         radius="5.0999999999999996"
         result="flood"
         flood-color="rgb(224,116,57)"
         flood-opacity="1"
         id="feFlood4377-7-9-0-8-1-7-3-1-6-6" />
      <feComposite
         baseFrequency="0.053999999999999999 0.053999999999999999"
         result="composite1"
         operator="in"
         in="flood"
         in2="SourceGraphic"
         id="feComposite4379-3-8-8-2-77-4-1-0-7-1" />
      <feMorphology
         result="result3"
         radius="5.1272503082614058"
         operator="dilate"
         id="feMorphology4393-1-0-49-8-9-3-0-1-5-8" />
      <feComposite
         numOctaves="4"
         result="fbSourceGraphic"
         operator="over"
         in="SourceGraphic"
         in2="result3"
         id="feComposite4385-9-5-7-0-8-8-7-5-3-7" />
      <feColorMatrix
         id="feColorMatrix4544-9-5-9"
         values="0 0 0 -1 0 0 0 0 -1 0 0 0 0 -1 0 0 0 0 1 0"
         in="fbSourceGraphic"
         result="fbSourceGraphicAlpha" />
      <feTurbulence
         result="turbulence"
         baseFrequency="0.062 0.054054054054054057"
         seed="172"
         numOctaves="4.4123222748815163"
         type="fractalNoise"
         id="feTurbulence4546-3-6-2" />
      <feDisplacementMap
         result="fbSourceGraphic"
         xChannelSelector="R"
         yChannelSelector="G"
         scale="10.781991"
         in="fbSourceGraphic"
         in2="turbulence"
         id="feDisplacementMap4548-8-2-0" />
      <feColorMatrix
         scale="10.800000000000001"
         id="feColorMatrix4670-7-9-2"
         values="0 0 0 -1 0 0 0 0 -1 0 0 0 0 -1 0 0 0 0 1 0"
         in="fbSourceGraphic"
         result="fbSourceGraphicAlpha" />
      <feFlood
         dx="-2.3999999999999999"
         in="fbSourceGraphic"
         result="flood"
         flood-color="rgb(45,8,0)"
         flood-opacity="1"
         id="feFlood4672-4-1-3" />
      <feComposite
         result="composite1"
         operator="in"
         in="flood"
         in2="fbSourceGraphic"
         id="feComposite4674-8-2-7" />
      <feGaussianBlur
         result="blur"
         stdDeviation="0"
         in="composite1"
         id="feGaussianBlur4676-3-7-5" />
      <feOffset
         result="offset"
         dy="3.1000000000000001"
         dx="-2.3696682464454994"
         id="feOffset4678-6-0-9" />
      <feComposite
         result="composite2"
         operator="over"
         in="fbSourceGraphic"
         in2="offset"
         id="feComposite4680-4-9-2" />
    </filter>
    <filter
       inkscape:label="Drop Shadow"
       id="filter4375-4-1-1-1-9-5-8-8-3-1"
       style="color-interpolation-filters:sRGB">
      <feFlood
         radius="5.0999999999999996"
         result="flood"
         flood-color="rgb(138,195,32)"
         flood-opacity="1"
         id="feFlood4377-7-9-0-8-1-7-3-1-6-2" />
      <feComposite
         baseFrequency="0.053999999999999999 0.053999999999999999"
         result="composite1"
         operator="in"
         in="flood"
         in2="SourceGraphic"
         id="feComposite4379-3-8-8-2-77-4-1-0-7-9" />
      <feMorphology
         result="result3"
         radius="5.1272503082614058"
         operator="dilate"
         id="feMorphology4393-1-0-49-8-9-3-0-1-5-3" />
      <feComposite
         numOctaves="4"
         result="fbSourceGraphic"
         operator="over"
         in="SourceGraphic"
         in2="result3"
         id="feComposite4385-9-5-7-0-8-8-7-5-3-1" />
      <feColorMatrix
         id="feColorMatrix4544-9-5-94"
         values="0 0 0 -1 0 0 0 0 -1 0 0 0 0 -1 0 0 0 0 1 0"
         in="fbSourceGraphic"
         result="fbSourceGraphicAlpha" />
      <feTurbulence
         result="turbulence"
         baseFrequency="0.062 0.054054054054054057"
         seed="172"
         numOctaves="4.4123222748815163"
         type="fractalNoise"
         id="feTurbulence4546-3-6-7" />
      <feDisplacementMap
         result="fbSourceGraphic"
         xChannelSelector="R"
         yChannelSelector="G"
         scale="10.781991"
         in="fbSourceGraphic"
         in2="turbulence"
         id="feDisplacementMap4548-8-2-8" />
      <feColorMatrix
         scale="10.800000000000001"
         id="feColorMatrix4670-7-9-4"
         values="0 0 0 -1 0 0 0 0 -1 0 0 0 0 -1 0 0 0 0 1 0"
         in="fbSourceGraphic"
         result="fbSourceGraphicAlpha" />
      <feFlood
         dx="-2.3999999999999999"
         in="fbSourceGraphic"
         result="flood"
         flood-color="rgb(45,8,0)"
         flood-opacity="1"
         id="feFlood4672-4-1-5" />
      <feComposite
         result="composite1"
         operator="in"
         in="flood"
         in2="fbSourceGraphic"
         id="feComposite4674-8-2-0" />
      <feGaussianBlur
         result="blur"
         stdDeviation="0"
         in="composite1"
         id="feGaussianBlur4676-3-7-3" />
      <feOffset
         result="offset"
         dy="3.1000000000000001"
         dx="-2.3696682464454994"
         id="feOffset4678-6-0-6" />
      <feComposite
         result="composite2"
         operator="over"
         in="fbSourceGraphic"
         in2="offset"
         id="feComposite4680-4-9-1" />
    </filter>
  </defs>
  <sodipodi:namedview
     inkscape:document-rotation="0"
     inkscape:current-layer="layer1"
     inkscape:window-maximized="1"
     inkscape:window-y="-8"
     inkscape:window-x="-8"
     inkscape:cy="2791.901"
     inkscape:cx="1305.3952"
     inkscape:zoom="0.47935746"
     showgrid="false"
     id="namedview4"
     inkscape:window-height="715"
     inkscape:window-width="1366"
     inkscape:pageshadow="2"
     inkscape:pageopacity="0"
     guidetolerance="10"
     gridtolerance="10"
     objecttolerance="10"
     borderopacity="1"
     bordercolor="#666666"
     pagecolor="#ffffff" />
  <g
     sodipodi:insensitive="true"
     inkscape:label="artwork"
     id="layer2"
     inkscape:groupmode="layer">
    <image
       sodipodi:absref="E:\Aslan's Works\2. Personal Projects\1. Pepper&amp;Carrot Translation\Episode 29\lang\gfx_Pepper-and-Carrot_by-David-Revoy_E29P07.png"
       xlink:href="../gfx_Pepper-and-Carrot_by-David-Revoy_E29P07.png"
       y="0"
       x="0"
       id="image10"
       height="3503"
       width="2481" />
  </g>
  <g
     inkscape:label="speechbubbles"
     id="layer3"
     inkscape:groupmode="layer">
    <path
       sodipodi:nodetypes="cssssc"
       inkscape:connector-curvature="0"
       id="path4546"
       d="m 731.19291,2223.7885 c 6.92405,-59.2273 64.9998,-100.5285 211.18409,-83.7351 78.3042,8.9953 167.3316,16.3385 158.0995,103.1372 -9.2321,86.7987 -137.32726,79.6506 -163.86955,80.6717 -26.5423,1.0213 -164.00861,-13.3848 -186.9498,-43.91 -14.36064,-19.1079 -19.61824,-37.7828 -18.46424,-56.1638 z"
       style="color:#000000;display:inline;overflow:visible;visibility:visible;fill:#ffffff;fill-opacity:1;fill-rule:nonzero;stroke:none;stroke-width:1px;marker:none;enable-background:accumulate" />
    <path
       sodipodi:nodetypes="cssssc"
       inkscape:connector-curvature="0"
       id="path4546-7"
       d="m 285.70484,2208.0145 c 7.81209,-79.067 84.49322,-135.5129 280.46755,-116.7384 104.97439,10.0563 224.25359,17.648 214.02939,133.4994 -10.2245,115.8514 -181.76319,109.4806 -217.24603,111.4938 -35.48284,2.0133 -219.73593,-13.7954 -251.17401,-53.8936 -19.67949,-25.1003 -27.17046,-49.8477 -26.0769,-74.3612 z"
       style="color:#000000;display:inline;overflow:visible;visibility:visible;fill:#ffffff;fill-opacity:1;fill-rule:nonzero;stroke:none;stroke-width:1.03565px;marker:none;enable-background:accumulate" />
    <path
       sodipodi:nodetypes="ccccc"
       inkscape:connector-curvature="0"
       id="path4018"
       d="m 1264.4613,2369.0899 c -68.9818,7.0477 -181.7717,-37.4545 -214.9576,-82.4279 -32.1257,-30.93 -2.2052,-71.781 -2.2052,-71.781 l 38.6986,45.0182 c 13.8582,47.6036 108.3678,107.6046 178.4642,109.1907 z"
       style="color:#000000;display:inline;overflow:visible;visibility:visible;fill:#ffffff;fill-opacity:1;fill-rule:nonzero;stroke:none;stroke-width:1px;marker:none;enable-background:accumulate" />
    <path
       sodipodi:nodetypes="cssssc"
       inkscape:connector-curvature="0"
       id="path4546-3"
       d="m 590.11111,2988.411 c 6.57205,-56.9867 74.39171,-86.0194 186.84961,-82.3388 64.6723,2.1167 166.59604,24.5763 165.60415,88.6087 -1.2994,83.8883 -118.67225,91.3167 -143.88296,91.7895 -52.39092,0.9826 -151.2631,-5.372 -179.38896,-29.8509 -27.22956,-23.6986 -30.27718,-50.5227 -29.18184,-68.2085 z"
       style="color:#000000;display:inline;overflow:visible;visibility:visible;fill:#ffffff;fill-opacity:1;fill-rule:nonzero;stroke:none;stroke-width:1.05745053px;marker:none;enable-background:accumulate" />
    <path
       sodipodi:nodetypes="cccc"
       inkscape:connector-curvature="0"
       id="path4008"
       d="m 844.03272,3016.5426 c 34.15235,53.8617 89.08303,230.0835 388.43678,143.835 -286.93461,115.5461 -379.22599,-72.7154 -409.69165,-107.768 -29.22284,-18.8944 21.25487,-36.067 21.25487,-36.067 z"
       style="color:#000000;display:inline;overflow:visible;visibility:visible;fill:#ffffff;fill-opacity:1;fill-rule:nonzero;stroke:none;stroke-width:1px;marker:none;enable-background:accumulate" />
  </g>
  <g
     inkscape:label="txt"
     id="layer1"
     inkscape:groupmode="layer">
    <text
       transform="matrix(0.90914284,-0.43465082,0.01570153,1.5085221,-226.57781,-572.39142)"
       id="text4580-6-0-0-3-2"
       y="1584.5073"
       x="787.65729"
       style="font-style:normal;font-variant:normal;font-weight:normal;font-stretch:normal;font-size:81.7714px;line-height:0%;font-family:Lavi;-inkscape-font-specification:Lavi;letter-spacing:0px;word-spacing:0px;fill:#ffebb6;fill-opacity:1;stroke:#ffe260;stroke-width:0.581347;stroke-miterlimit:4;stroke-dasharray:none;stroke-opacity:1;filter:url(#filter4375-4-1-1-1-9-5-8-8-3-2)"
       xml:space="preserve"><tspan
         rotate="0 0 0 0 0 0 0 0 0"
         style="font-style:normal;font-variant:normal;font-weight:bold;font-stretch:normal;font-size:81.7714px;line-height:1.25;font-family:'XP Vosta';-inkscape-font-specification:'XP Vosta Bold';direction:rtl;fill:#ffebb6;fill-opacity:1;stroke:#ffe260;stroke-width:0.581347;stroke-opacity:1"
         y="1584.5073"
         x="787.65729"
         id="tspan4582-1-1-0-6-8"
         sodipodi:role="line">بــــوم!</tspan></text>
    <text
       transform="matrix(1.5682944,-0.94428682,0.30820258,2.6970395,-1184.6431,-2235.2033)"
       id="text4580-6-0-0"
       y="1584.5073"
       x="787.65729"
       style="font-style:normal;font-variant:normal;font-weight:normal;font-stretch:normal;font-size:90.3014px;line-height:0%;font-family:Lavi;-inkscape-font-specification:Lavi;letter-spacing:0px;word-spacing:0px;fill:#f9c0e7;fill-opacity:1;stroke:#ffe260;stroke-width:0.320995;stroke-miterlimit:4;stroke-dasharray:none;stroke-opacity:1;filter:url(#filter4375-4-1-1-1-9-5-8-8)"
       xml:space="preserve"><tspan
         rotate="0 0 0 0 0 0 0 0"
         style="font-style:normal;font-variant:normal;font-weight:bold;font-stretch:normal;font-size:90.3014px;line-height:1.25;font-family:'XP Vosta';-inkscape-font-specification:'XP Vosta Bold';direction:rtl;fill:#f9c0e7;fill-opacity:1;stroke:#ffe260;stroke-width:0.320995;stroke-opacity:1"
         y="1584.5073"
         x="787.65729"
         id="tspan4582-1-1-0"
         sodipodi:role="line">بـــوم!</tspan></text>
    <text
       transform="matrix(1.0268399,-0.55986053,0.20179547,1.5990543,-634.89387,-932.05901)"
       id="text4580-6-0-0-3"
       y="1584.5073"
       x="787.65729"
       style="font-style:normal;font-variant:normal;font-weight:normal;font-stretch:normal;line-height:0%;font-family:Lavi;-inkscape-font-specification:Lavi;letter-spacing:0px;word-spacing:0px;fill:#c0f9f2;fill-opacity:1;stroke:#ffe260;stroke-width:0.510703;stroke-miterlimit:4;stroke-dasharray:none;stroke-opacity:1;filter:url(#filter4375-4-1-1-1-9-5-8-8-3)"
       xml:space="preserve"><tspan
         rotate="0 0 0 0 0 0 0 0 0 0 0 0 0"
         style="font-style:normal;font-variant:normal;font-weight:bold;font-stretch:normal;font-size:70px;line-height:1.25;font-family:'XP Vosta';-inkscape-font-specification:'XP Vosta Bold';direction:rtl;fill:#c0f9f2;fill-opacity:1;stroke:#ffe260;stroke-width:0.510703;stroke-opacity:1"
         y="1584.5073"
         x="787.65729"
         id="tspan4582-1-1-0-6"
         sodipodi:role="line">فــــــــوش!</tspan></text>
    <text
       transform="matrix(0.82925451,-0.33146462,-0.12236907,1.3156408,84.565978,-253.61051)"
       id="text4580-6-0"
       y="1584.5073"
       x="787.65729"
       style="font-style:normal;font-variant:normal;font-weight:normal;font-stretch:normal;font-size:88.5912px;line-height:0%;font-family:Lavi;-inkscape-font-specification:Lavi;letter-spacing:0px;word-spacing:0px;fill:#ffffff;fill-opacity:1;stroke:#98b9ca;stroke-width:0.754558;stroke-miterlimit:4;stroke-dasharray:none;stroke-opacity:1;filter:url(#filter4375-4-1-1-1-9-5-8)"
       xml:space="preserve"><tspan
         rotate="0 0 0 0 0 0 0 0 0 0 0 0 0 0 0 0 0 0 0 0"
         style="font-style:normal;font-variant:normal;font-weight:normal;font-stretch:normal;font-size:88.5912px;line-height:1.25;font-family:'XP Vosta';-inkscape-font-specification:'XP Vosta';direction:rtl;fill:#ffffff;fill-opacity:1;stroke:#98b9ca;stroke-width:0.754558;stroke-opacity:1"
         y="1584.5073"
         x="787.65729"
         id="tspan4582-1-1"
         sodipodi:role="line">فــــــــــیـــــز!</tspan></text>
    <text
       transform="matrix(1.0155659,-0.1071932,-0.62325375,1.5304869,705.02288,-579.4249)"
       id="text4580-6-0-0-3-0"
       y="1584.5073"
       x="787.65729"
       style="font-style:normal;font-variant:normal;font-weight:normal;font-stretch:normal;font-size:78.7123px;line-height:0%;font-family:Lavi;-inkscape-font-specification:Lavi;letter-spacing:0px;word-spacing:0px;fill:#e8f9c0;fill-opacity:1;stroke:#ffe260;stroke-width:0.559599;stroke-miterlimit:4;stroke-dasharray:none;stroke-opacity:1;filter:url(#filter4375-4-1-1-1-9-5-8-8-3-1)"
       xml:space="preserve"><tspan
         rotate="0 0 0 0 0 0 0 0 0 0 0 0 0 0"
         style="font-style:normal;font-variant:normal;font-weight:bold;font-stretch:normal;font-size:78.7123px;line-height:1.25;font-family:'XP Vosta';-inkscape-font-specification:'XP Vosta Bold';direction:rtl;fill:#e8f9c0;fill-opacity:1;stroke:#ffe260;stroke-width:0.559599;stroke-opacity:1"
         y="1584.5073"
         x="787.65729"
         id="tspan4582-1-1-0-6-6"
         sodipodi:role="line">پـــــــــوف!</tspan></text>
    <text
       id="text4246"
       y="2213.7019"
       x="916.48596"
       style="font-style:normal;font-variant:normal;font-weight:normal;font-stretch:normal;font-size:72px;line-height:80%;font-family:Lavi;-inkscape-font-specification:Lavi;text-align:center;letter-spacing:0px;word-spacing:0px;text-anchor:middle;fill:#000000;fill-opacity:1;stroke:none"
       xml:space="preserve"><tspan
         rotate="0 0 0 0 0 0 0 0 0 0 0 0"
         id="tspan926"
         y="2213.7019"
         x="916.48596"
         style="font-style:normal;font-variant:normal;font-weight:normal;font-stretch:normal;font-size:72px;font-family:Midan;-inkscape-font-specification:Midan;direction:rtl"
         sodipodi:role="line">نگران نباش،</tspan><tspan
         id="tspan121"
         rotate="0 0 0 0 0 0 0 0 0 0 0 0 0 0 0 0 0"
         y="2279.0298"
         x="916.48596"
         style="font-style:normal;font-variant:normal;font-weight:normal;font-stretch:normal;font-size:72px;font-family:Midan;-inkscape-font-specification:Midan;direction:rtl"
         sodipodi:role="line">هویج.</tspan></text>
    <text
       id="text4246-5"
       y="2193.6335"
       x="535.23975"
       style="font-style:normal;font-variant:normal;font-weight:normal;font-stretch:normal;font-size:74.6667px;line-height:80%;font-family:Lavi;-inkscape-font-specification:Lavi;text-align:center;letter-spacing:0px;word-spacing:0px;text-anchor:middle;fill:#000000;fill-opacity:1;stroke:none"
       xml:space="preserve"><tspan
         id="tspan128"
         y="2193.6335"
         x="535.23975"
         style="font-style:normal;font-variant:normal;font-weight:normal;font-stretch:normal;font-size:74.6667px;font-family:Midan;-inkscape-font-specification:Midan;direction:rtl"
         sodipodi:role="line">احتمالاً هنوزم یه سری</tspan><tspan
         id="tspan130"
         rotate="0 0 0 0 0 0 0 0 0 0 0 0 0 0 0 0 0 0"
         y="2261.3809"
         x="535.23975"
         style="font-style:normal;font-variant:normal;font-weight:normal;font-stretch:normal;font-size:74.6667px;font-family:Midan;-inkscape-font-specification:Midan;direction:rtl"
         sodipodi:role="line">دارن جشن می<tspan
   id="tspan342"
   style="letter-spacing:-8px"> </tspan>گیرن.</tspan></text>
    <text
       id="text4246-5-6"
       y="2974.8652"
       x="762.91809"
       style="font-style:normal;font-variant:normal;font-weight:normal;font-stretch:normal;font-size:66.6667px;line-height:80%;font-family:Lavi;-inkscape-font-specification:Lavi;text-align:center;letter-spacing:0px;word-spacing:0px;text-anchor:middle;fill:#000000;fill-opacity:1;stroke:none"
       xml:space="preserve"><tspan
         rotate="0 0 0 0 0 0 0 0 0 0"
         id="tspan932"
         y="2974.8652"
         x="762.91809"
         style="font-style:normal;font-variant:normal;font-weight:normal;font-stretch:normal;font-size:66.6667px;font-family:Midan;-inkscape-font-specification:Midan;direction:rtl"
         sodipodi:role="line">خوب دیگه،</tspan><tspan
         id="tspan348"
         rotate="0 0 0 0 0 0 0 0 0 0 0 0 0 0 0 0 0 0 0 0 0"
         y="3035.354"
         x="762.91809"
         style="font-style:normal;font-variant:normal;font-weight:normal;font-stretch:normal;font-size:66.6667px;font-family:Midan;-inkscape-font-specification:Midan;direction:rtl"
         sodipodi:role="line">بگیر بخواب.</tspan></text>
  </g>
</svg>
