<?xml version="1.0" encoding="UTF-8" standalone="no"?>
<!-- Created with Inkscape (http://www.inkscape.org/) -->

<svg
   xmlns:dc="http://purl.org/dc/elements/1.1/"
   xmlns:cc="http://creativecommons.org/ns#"
   xmlns:rdf="http://www.w3.org/1999/02/22-rdf-syntax-ns#"
   xmlns:svg="http://www.w3.org/2000/svg"
   xmlns="http://www.w3.org/2000/svg"
   xmlns:xlink="http://www.w3.org/1999/xlink"
   xmlns:sodipodi="http://sodipodi.sourceforge.net/DTD/sodipodi-0.dtd"
   xmlns:inkscape="http://www.inkscape.org/namespaces/inkscape"
   id="svg2"
   version="1.1"
   inkscape:version="0.92.4 5da689c313, 2019-01-14"
   width="2481"
   height="3503"
   sodipodi:docname="E28P04.svg">
  <metadata
     id="metadata8">
    <rdf:RDF>
      <cc:Work
         rdf:about="">
        <dc:format>image/svg+xml</dc:format>
        <dc:type
           rdf:resource="http://purl.org/dc/dcmitype/StillImage" />
        <dc:title />
      </cc:Work>
    </rdf:RDF>
  </metadata>
  <defs
     id="defs6">
    <filter
       style="color-interpolation-filters:sRGB"
       id="filter4375-4-1-1-1-9"
       inkscape:label="deevad outline effect">
      <feFlood
         id="feFlood4377-7-9-0-8-1"
         flood-opacity="1"
         flood-color="rgb(222,191,116)"
         result="flood" />
      <feComposite
         id="feComposite4379-3-8-8-2-77"
         in2="SourceGraphic"
         in="flood"
         operator="in"
         result="composite1" />
      <feMorphology
         id="feMorphology4393-1-0-49-8-9"
         operator="dilate"
         radius="4"
         result="result3" />
      <feComposite
         id="feComposite4385-9-5-7-0-8"
         in2="result3"
         in="SourceGraphic"
         operator="over"
         result="composite2" />
    </filter>
    <filter
       style="color-interpolation-filters:sRGB"
       id="filter4375-4-1-1-1-9-6"
       inkscape:label="deevad outline effect">
      <feFlood
         id="feFlood4377-7-9-0-8-1-5"
         flood-opacity="1"
         flood-color="rgb(222,191,116)"
         result="flood" />
      <feComposite
         id="feComposite4379-3-8-8-2-77-6"
         in2="SourceGraphic"
         in="flood"
         operator="in"
         result="composite1" />
      <feMorphology
         id="feMorphology4393-1-0-49-8-9-8"
         operator="dilate"
         radius="4"
         result="result3" />
      <feComposite
         id="feComposite4385-9-5-7-0-8-0"
         in2="result3"
         in="SourceGraphic"
         operator="over"
         result="composite2" />
    </filter>
    <filter
       style="color-interpolation-filters:sRGB"
       id="filter987"
       inkscape:label="deevad outline effect">
      <feFlood
         id="feFlood979"
         flood-opacity="1"
         flood-color="rgb(222,191,116)"
         result="flood" />
      <feComposite
         id="feComposite981"
         in2="SourceGraphic"
         in="flood"
         operator="in"
         result="composite1" />
      <feMorphology
         id="feMorphology983"
         operator="dilate"
         radius="4"
         result="result3" />
      <feComposite
         id="feComposite985"
         in2="result3"
         in="SourceGraphic"
         operator="over"
         result="composite2" />
    </filter>
    <filter
       style="color-interpolation-filters:sRGB"
       id="filter4375-4-1-1-1-9-4"
       inkscape:label="deevad outline effect">
      <feFlood
         id="feFlood4377-7-9-0-8-1-8"
         flood-opacity="1"
         flood-color="rgb(222,191,116)"
         result="flood" />
      <feComposite
         id="feComposite4379-3-8-8-2-77-2"
         in2="SourceGraphic"
         in="flood"
         operator="in"
         result="composite1" />
      <feMorphology
         id="feMorphology4393-1-0-49-8-9-3"
         operator="dilate"
         radius="4"
         result="result3" />
      <feComposite
         id="feComposite4385-9-5-7-0-8-8"
         in2="result3"
         in="SourceGraphic"
         operator="over"
         result="composite2" />
    </filter>
    <filter
       style="color-interpolation-filters:sRGB"
       id="filter1046"
       inkscape:label="deevad outline effect">
      <feFlood
         id="feFlood1038"
         flood-opacity="1"
         flood-color="rgb(222,191,116)"
         result="flood" />
      <feComposite
         id="feComposite1040"
         in2="SourceGraphic"
         in="flood"
         operator="in"
         result="composite1" />
      <feMorphology
         id="feMorphology1042"
         operator="dilate"
         radius="4"
         result="result3" />
      <feComposite
         id="feComposite1044"
         in2="result3"
         in="SourceGraphic"
         operator="over"
         result="composite2" />
    </filter>
    <filter
       style="color-interpolation-filters:sRGB"
       id="filter4375-4-1-1-1-9-4-8"
       inkscape:label="deevad outline effect">
      <feFlood
         id="feFlood4377-7-9-0-8-1-8-7"
         flood-opacity="1"
         flood-color="rgb(222,191,116)"
         result="flood" />
      <feComposite
         id="feComposite4379-3-8-8-2-77-2-7"
         in2="SourceGraphic"
         in="flood"
         operator="in"
         result="composite1" />
      <feMorphology
         id="feMorphology4393-1-0-49-8-9-3-3"
         operator="dilate"
         radius="4"
         result="result3" />
      <feComposite
         id="feComposite4385-9-5-7-0-8-8-5"
         in2="result3"
         in="SourceGraphic"
         operator="over"
         result="composite2" />
    </filter>
    <filter
       style="color-interpolation-filters:sRGB"
       id="filter1105"
       inkscape:label="deevad outline effect">
      <feFlood
         id="feFlood1097"
         flood-opacity="1"
         flood-color="rgb(222,191,116)"
         result="flood" />
      <feComposite
         id="feComposite1099"
         in2="SourceGraphic"
         in="flood"
         operator="in"
         result="composite1" />
      <feMorphology
         id="feMorphology1101"
         operator="dilate"
         radius="4"
         result="result3" />
      <feComposite
         id="feComposite1103"
         in2="result3"
         in="SourceGraphic"
         operator="over"
         result="composite2" />
    </filter>
  </defs>
  <sodipodi:namedview
     pagecolor="#ffffff"
     bordercolor="#666666"
     borderopacity="1"
     objecttolerance="10"
     gridtolerance="10"
     guidetolerance="10"
     inkscape:pageopacity="0"
     inkscape:pageshadow="2"
     inkscape:window-width="1920"
     inkscape:window-height="1001"
     id="namedview4"
     showgrid="false"
     inkscape:zoom="0.47887026"
     inkscape:cx="1008.9571"
     inkscape:cy="2727.5516"
     inkscape:window-x="0"
     inkscape:window-y="45"
     inkscape:window-maximized="1"
     inkscape:current-layer="layer3"
     inkscape:snap-global="false" />
  <g
     inkscape:groupmode="layer"
     id="layer2"
     inkscape:label="artwork"
     sodipodi:insensitive="true">
    <image
       sodipodi:absref="/home/ambernite/peppercarrot/webcomics/ep28_The-Festivities/lang/kr/../gfx_Pepper-and-Carrot_by-David-Revoy_E28P04.png"
       xlink:href="../gfx_Pepper-and-Carrot_by-David-Revoy_E28P04.png"
       y="0"
       x="0"
       id="image10"
       height="3503"
       width="2481" />
  </g>
  <g
     inkscape:groupmode="layer"
     id="layer3"
     inkscape:label="speechbubbles">
    <path
       style="color:#000000;display:inline;overflow:visible;visibility:visible;fill:#ffffff;fill-opacity:1;fill-rule:nonzero;stroke:none;stroke-width:0.94770974px;marker:none;enable-background:accumulate"
       d="m 210.12388,231.36938 c 4.19735,-43.93429 56.2403,-76.55736 191.7032,-69.62631 72.56123,3.71258 154.95256,5.80685 149.64555,70.15926 -5.30709,64.35234 -123.7278,63.85925 -148.17296,65.60234 -24.44518,1.74317 -151.77826,-3.75267 -174.06791,-25.40709 -13.95281,-13.5551 -19.49283,-27.13047 -19.10788,-40.7282 z"
       id="path4546-6"
       inkscape:connector-curvature="0"
       sodipodi:nodetypes="cssssc" />
    <path
       style="color:#000000;display:inline;overflow:visible;visibility:visible;fill:#ffffff;fill-opacity:1;fill-rule:nonzero;stroke:none;stroke-width:1px;marker:none;enable-background:accumulate"
       d="m 522.95156,341.83676 c -42.01307,-12.55848 -55.95663,-19.27588 -57.24338,-67.82246 -1.28666,-48.54662 -20.9759,-45.84166 -20.9759,-45.84166 l -18.70982,30.00689 c 0,0 10.61745,102.6107 96.9291,83.65723 z"
       id="path3072"
       inkscape:connector-curvature="0" />
    <path
       style="fill:#ffffff;fill-opacity:1;stroke:none;stroke-width:0.97011203"
       d="m 1144.0624,905.00661 c -5.0363,-95.23342 48.3484,-126.61703 188.3574,-122.28824 140.0091,4.32872 172.9891,71.08928 172.6471,106.30139 -0.6018,61.90355 -23.4522,109.87613 -88.0373,130.98774 -65.6371,21.4555 -206.7629,-0.028 -239.1258,-30.86354 -23.2718,-22.17333 -32.8342,-59.24685 -33.8414,-84.13735 z"
       id="path3238"
       inkscape:connector-curvature="0"
       sodipodi:nodetypes="cssssc" />
    <path
       style="color:#000000;display:inline;overflow:visible;visibility:visible;fill:#ffffff;fill-opacity:1;fill-rule:nonzero;stroke:none;stroke-width:0.99999994px;marker:none;enable-background:accumulate"
       d="m 1202.5039,677.28412 c 72.8787,37.68069 84.927,85.98909 79.0153,111.91483 -6.7279,29.50523 -34.8614,35.12104 -34.8614,35.12104 l 55.2996,19.88637 c 34.023,-65.93077 21.1022,-125.89631 -99.4535,-166.92224 z"
       id="path3072-1"
       inkscape:connector-curvature="0"
       sodipodi:nodetypes="csccc" />
    <path
       style="color:#000000;display:inline;overflow:visible;visibility:visible;fill:#ffffff;fill-opacity:1;fill-rule:nonzero;stroke:none;stroke-width:0.92307556px;marker:none;enable-background:accumulate"
       d="m 2278.9528,402.01074 c -97.3394,45.82291 -203.119,13.44632 -234.4518,-15.26941 -31.3326,-28.71569 -47.7239,-121.7064 -13.1619,-158.13676 34.5619,-36.43042 71.4039,-53.93923 163.0332,-53.2931 192.2056,7.46301 163.2119,185.00333 84.5805,226.69927 z"
       id="path4040"
       inkscape:connector-curvature="0"
       sodipodi:nodetypes="csscc" />
    <path
       style="fill:#ffffff;fill-rule:evenodd;stroke:none;stroke-width:1px;stroke-linecap:butt;stroke-linejoin:miter;stroke-opacity:1"
       d="m 2236.3776,401.61616 c -14.8967,27.78135 -16.9465,32.37624 -16.1948,38.97929 0.7516,6.60305 14.7438,14.22693 10.5567,29.15096 -4.1871,14.92405 -44.8499,20.68957 -49.7351,27.13164 -4.8851,6.44207 -11.8101,18.46724 -11.8101,18.46724 0,0 2.4424,-19.675 10.1459,-26.03657 7.7035,-6.36158 35.547,-9.20723 35.9762,-24.23858 0.4293,-15.03135 -15.9529,-17.03818 -15.6309,-28.31169 0.3219,-11.27351 11.4609,-40.56398 11.4609,-40.56398 z"
       id="path922"
       inkscape:connector-curvature="0"
       sodipodi:nodetypes="ccsccscccc" />
    <path
       style="color:#000000;display:inline;overflow:visible;visibility:visible;fill:#ffffff;fill-opacity:1;fill-rule:nonzero;stroke:none;stroke-width:1.00851429px;marker:none;enable-background:accumulate"
       d="m 760.99428,1247.4924 c -0.82136,-33.3711 47.79992,-62.2339 103.65292,-64.5354 55.85291,-2.3014 96.51776,25.9688 101.44593,60.4907 4.92824,34.522 -49.28195,67.8932 -97.74263,69.0439 -48.46066,1.1507 -108.40617,-1.7432 -107.35622,-64.9992 z"
       id="path3565"
       inkscape:connector-curvature="0"
       sodipodi:nodetypes="cscsc" />
    <path
       style="fill:#ffffff;fill-opacity:1;stroke:none;stroke-width:1.09199572"
       d="m 1073.6175,1250.6814 c -2.8577,-33.1575 16.0966,-49.6518 33.3545,-57.4653 21.8719,-9.9025 146.0321,-30.3375 198.6936,6.8159 26.9086,18.9845 29.9934,72.5563 -22.3661,95.7706 -52.3597,23.2142 -139.7444,10.4987 -154.619,6.278 -14.875,-4.2208 -52.088,-15.5227 -55.063,-51.3992 z"
       id="path3659-8"
       inkscape:connector-curvature="0"
       sodipodi:nodetypes="cssssc" />
    <path
       style="color:#000000;display:inline;overflow:visible;visibility:visible;fill:#ffffff;fill-opacity:1;fill-rule:nonzero;stroke:none;stroke-width:1px;marker:none;enable-background:accumulate"
       d="m 762.46876,1339.2067 c 34.84642,4.7576 60.09382,-4.9504 76.31206,-38.0347 16.21824,-33.0844 2.98136,-36.978 2.98136,-36.978 0,0 -22.92398,70.2821 -79.29342,75.0127 z"
       id="path5002"
       inkscape:connector-curvature="0"
       sodipodi:nodetypes="cscc" />
    <path
       style="color:#000000;display:inline;overflow:visible;visibility:visible;fill:#ffffff;fill-opacity:1;fill-rule:nonzero;stroke:none;stroke-width:1px;marker:none;enable-background:accumulate"
       d="m 1200.668,1350.7499 c -22.0187,-23.7251 -28.5842,-33.5373 -15.2378,-70.8777 13.3464,-37.3404 0.5267,-41.9284 0.5267,-41.9284 l -20.1693,16.498 c 0,0 -23.3832,81.59 34.8804,96.3081 z"
       id="path3072-9"
       inkscape:connector-curvature="0" />
    <path
       style="fill:#ffffff;fill-rule:evenodd;stroke:none;stroke-width:0.93800759px;stroke-linecap:butt;stroke-linejoin:miter;stroke-opacity:1"
       d="m 161.57532,2119.7054 -23.09028,3.1086 18.98824,-22.7202 -0.0531,-72.6867 -0.47551,-23.3496 -20.72349,-34.91 24.71229,8.3093 -29.26331,-40.5825 48.20778,15.7278 -6.34106,-18.5417 33.72715,10.9123 306.98752,-3.1034 21.12892,-10.5946 -3.56633,14.1442 41.61934,-13.7398 -16.46245,16.9815 62.66648,-19.8421 -25.44957,32.3899 23.04447,-5.4566 -15.93805,22.901 -1.97713,68.2468 -0.78,76.8444 24.27656,29.2747 -33.43663,-10.7159 25.31255,40.0042 -65.95693,-21.7092 17.38975,20.4653 -50.37835,-14.8699 12.04546,16.9593 -32.24119,-12.9046 -274.70699,2.0167 -59.0721,15.9969 18.26537,-22.9177 -69.31012,31.3921 54.67026,-53.9933 -28.02328,6.3965 z"
       id="path1035"
       inkscape:connector-curvature="0"
       sodipodi:nodetypes="ccccccccccccccccccccccccccccccccccccc" />
    <path
       style="color:#000000;display:inline;overflow:visible;visibility:visible;fill:#ffffff;fill-opacity:1;fill-rule:nonzero;stroke:none;stroke-width:0.99999994px;marker:none;enable-background:accumulate"
       d="m 338.82946,2155.5995 c -3.16206,31.9356 -4.43517,74.4334 -68.81805,64.0726 3.51709,-0.3132 80.93631,37.3214 104.22702,-54.8867 23.29069,-92.2081 14.70299,-105.929 14.70299,-105.929 z"
       id="path4064"
       inkscape:connector-curvature="0"
       sodipodi:nodetypes="ccscc" />
    <path
       style="color:#000000;display:inline;overflow:visible;visibility:visible;fill:#ffffff;fill-opacity:1;fill-rule:nonzero;stroke:none;stroke-width:1.06363046px;marker:none;enable-background:accumulate"
       d="m 976.43082,2642.7004 c -0.70222,-28.7981 11.93726,-48.3809 18.95925,-57.5962 7.02203,-9.2155 51.26013,-29.9502 67.41073,-29.9502 45.6991,2.6149 133.8128,7.7914 118.2557,110.2701 -7.7242,34.5578 -59.9735,38.3285 -70.5066,41.7843 -10.5329,3.4559 -49.5894,0.694 -59.42,-0.4578 -9.8308,-1.1519 -76.80565,-16.8211 -74.69908,-64.0502 z"
       id="path3357"
       inkscape:connector-curvature="0"
       sodipodi:nodetypes="ccccccc" />
    <path
       style="color:#000000;display:inline;overflow:visible;visibility:visible;fill:#ffffff;fill-opacity:1;fill-rule:nonzero;stroke:none;stroke-width:1px;marker:none;enable-background:accumulate"
       d="m 1053.2112,2471.8445 c 42.562,38.1309 30.9091,101.3953 6.44,96.5527 -29.6347,37.5034 -18.094,38.1309 -18.094,38.1309 l 33.2898,-11.0238 c 0,15.4037 79.1436,-58.1295 -21.6358,-123.6598 z"
       id="path3072-92"
       inkscape:connector-curvature="0"
       sodipodi:nodetypes="ccccc" />
    <path
       style="fill:#ffffff;fill-opacity:1;stroke:none;stroke-width:1"
       d="m 2198.3032,1950.6682 c -1.7012,-22.1072 9.5818,-33.1046 19.855,-38.3141 13.0198,-6.6023 87.2062,-21.4795 113.5776,12.0631 12.352,15.711 22.5534,40.8571 -8.6148,56.3349 -31.1683,15.4776 -83.1858,6.9998 -92.0404,4.1857 -8.8546,-2.8142 -31.0066,-10.3495 -32.7774,-34.2696 z"
       id="path3659-8-0"
       inkscape:connector-curvature="0"
       sodipodi:nodetypes="cssssc" />
    <path
       style="fill:#ffffff;fill-rule:evenodd;stroke:none;stroke-width:1px;stroke-linecap:butt;stroke-linejoin:miter;stroke-opacity:1"
       d="m 2173.406,2020.0379 c 29.9739,-13.444 31.8142,4.3615 43.8953,-5.5877 12.0812,-9.9492 4.271,-14.7221 5.9747,-23.2109 2.171,-8.4889 19.5625,-14.6593 25.9584,-21.0552 6.3959,-6.3959 -13.4149,-18.9446 -23.364,-11.838 -9.9492,7.1066 -13.1544,15.8205 -17.4379,23.8227 -2.8816,7.0675 8.1387,18.2141 1.0325,24.61 -7.1066,6.3959 -7.6324,-2.3754 -19.7136,1.1779 -12.0811,3.5533 -16.345,12.0812 -16.345,12.0812 z"
       id="path1097"
       inkscape:connector-curvature="0"
       sodipodi:nodetypes="cccsccsccc" />
    <path
       style="color:#000000;display:inline;overflow:visible;visibility:visible;fill:#ffffff;fill-opacity:1;fill-rule:nonzero;stroke:none;stroke-width:0.85884696px;marker:none;enable-background:accumulate"
       d="m 1973.9821,2435.3571 c 20.6876,-29.4045 38.1747,-58.4086 163.5522,-57.9264 126.3148,0.4857 142.3492,0.032 181.2028,25.8915 35.898,23.8919 33.8311,137.6346 20.88,191.5752 -12.9513,53.9407 -56.4957,78.6861 -180.3419,74.3709 -123.8462,-4.3153 -116.6797,-3.6753 -151.5335,-32.453 -47.5627,-39.271 -54.4472,-172.0538 -33.7596,-201.4582 z"
       id="path4530"
       inkscape:connector-curvature="0"
       sodipodi:nodetypes="zsssssz" />
    <path
       style="fill:#ffffff;fill-rule:evenodd;stroke:none;stroke-width:1px;stroke-linecap:butt;stroke-linejoin:miter;stroke-opacity:1"
       d="m 2012.3054,2768.4538 c 73.9706,-26.3006 87.1209,-92.0523 87.1209,-133.147 0,-41.0948 -31.232,-85.4771 -31.232,-85.4771 l -19.7255,27.9444 c 0,0 1.6438,4.9314 6.5751,44.3824 4.9314,39.4509 31.2321,82.1895 -42.7385,146.2973 z"
       id="path1167"
       inkscape:connector-curvature="0" />
    <path
       style="color:#000000;display:inline;overflow:visible;visibility:visible;fill:#ffffff;fill-opacity:1;fill-rule:nonzero;stroke:none;stroke-width:0.99999994px;marker:none;enable-background:accumulate"
       d="m 1061.7088,3240.5858 c -9.8478,32.2167 51.8659,121.3348 137.5704,110.5133 -2.9664,-0.2632 -108.5106,25.5291 -160.8486,-69.3197 -45.94784,-83.2682 -16.9236,-118.1415 -16.9236,-118.1415 z"
       id="path4064-6"
       inkscape:connector-curvature="0"
       sodipodi:nodetypes="ccscc" />
    <path
       style="fill:#ffffff;fill-opacity:1;fill-rule:evenodd;stroke:none;stroke-width:0.97329754px;stroke-linecap:butt;stroke-linejoin:miter;stroke-opacity:1"
       d="m 759.35357,2867.5488 15.71715,6.2302 -27.61388,-36.0651 43.51237,28.1263 -6.26092,-23.0198 33.66802,18.0306 -6.11587,-17.3913 21.88674,14.58 13.1036,4.2224 152.07535,-2.2041 43.36037,-18.0544 -8.0108,18.0377 79.0447,-33.6129 -33.1009,51.7701 34.7027,-12.1041 -21.9494,39.1424 21.6527,-3.1975 -21.3171,31.0933 16.3247,3.2305 -23.0079,42.4998 26.0256,39.8272 -26.3221,-6.3908 21.5752,23.7164 -36.7422,-1.8377 25.2618,37.2029 -37.1743,-10.864 40.1897,65.7637 -56.0302,-37.7233 -1.7502,23.2516 -35.7716,-30.7349 -131.54972,13.1618 -45.81561,10.8228 13.23522,-19.8124 -50.45466,12.7072 13.89606,-25.59 -61.93291,35.7243 34.28853,-57.5007 -27.13247,14.6743 20.883,-37.1201 -18.72551,12.6246 16.35947,-29.9644 -1.46761,-108.9141 z"
       id="path1184"
       inkscape:connector-curvature="0"
       sodipodi:nodetypes="ccccccccccccccccccccccccccccccccccccccccccc" />
    <path
       style="fill:#ffffff;fill-opacity:1;fill-rule:evenodd;stroke:none;stroke-width:0.96183592px;stroke-linecap:butt;stroke-linejoin:miter;stroke-opacity:1"
       d="m 910.48873,3113.9934 -21.19586,-46.9404 36.88724,23.1901 -5.72349,-20.8313 20.77178,14.8938 3.92284,-16.5856 105.01646,11.9747 120.9007,-2.9674 25.0905,-10.8621 -6.7872,15.4856 33.5795,-16.4042 -11.6253,20.9179 51.9616,-25.9395 -33.5049,53.6703 30.057,-13.1126 -23.6063,38.5675 19.9208,-6.6369 -16.9677,26.8352 15.0535,-4.3197 -13.4556,19.1138 -3.1704,102.1386 12.7581,17.0242 -17.7594,-3.7381 24.116,33.5026 -48.1031,-27.4987 14.7266,26.8022 -39.2927,-25.608 4.1158,17.0499 -26.0452,-17.5143 -194.76039,5.2081 -19.99894,11.3076 6.20552,-12.7674 -28.166,14.491 6.49389,-22.2197 -51.76868,32.9718 36.33454,-60.2383 -27.58627,19.567 22.82854,-34.7586 -19.90295,4.3101 9.32328,-17.7434 0.73375,-91.0597 -14.97653,-43.1113 z"
       id="path1186"
       inkscape:connector-curvature="0"
       sodipodi:nodetypes="ccccccccccccccccccccccccccccccccccccccccccc" />
  </g>
  <g
     inkscape:groupmode="layer"
     id="layer1"
     inkscape:label="txt">
    <text
       transform="matrix(0.97558618,-0.35136142,-0.02659511,1.0346031,0,0)"
       id="text948"
       y="683.33594"
       x="730.56049"
       style="font-style:normal;font-variant:normal;font-weight:normal;font-stretch:normal;font-size:23.24326706px;line-height:100%;font-family:'Nanum Pen Script OTF';-inkscape-font-specification:'Nanum Pen Script OTF';text-align:center;letter-spacing:0px;word-spacing:0px;text-anchor:middle;opacity:0.6;fill:#ffffff;fill-opacity:1;stroke:#ffffff;stroke-width:0.57559305;stroke-miterlimit:4;stroke-dasharray:none;stroke-opacity:1"
       xml:space="preserve"><tspan
         y="683.33594"
         x="730.56049"
         style="font-style:normal;font-variant:normal;font-weight:normal;font-stretch:normal;font-size:59.58350754px;line-height:100%;font-family:'Nanum Pen Script OTF';-inkscape-font-specification:'Nanum Pen Script OTF';fill:#ffffff;stroke:#ffffff;stroke-width:0.57559305;stroke-miterlimit:4;stroke-dasharray:none;stroke-opacity:1"
         sodipodi:role="line"
         id="tspan1058">긁적</tspan><tspan
         y="742.91943"
         x="730.56049"
         style="font-style:normal;font-variant:normal;font-weight:normal;font-stretch:normal;font-size:59.58350754px;line-height:100%;font-family:'Nanum Pen Script OTF';-inkscape-font-specification:'Nanum Pen Script OTF';fill:#ffffff;stroke:#ffffff;stroke-width:0.57559305;stroke-miterlimit:4;stroke-dasharray:none;stroke-opacity:1"
         sodipodi:role="line"
         id="tspan1062">긁적</tspan></text>
    <text
       id="text934"
       y="247.06642"
       x="385.21716"
       style="font-style:normal;font-variant:normal;font-weight:normal;font-stretch:normal;font-size:15.13523388px;line-height:100%;font-family:'Nanum Pen Script OTF';-inkscape-font-specification:'Nanum Pen Script OTF';text-align:center;letter-spacing:0px;word-spacing:0px;text-anchor:middle;fill:#000000;fill-opacity:1;stroke:none;stroke-width:1.26126945"
       xml:space="preserve"><tspan
         id="tspan932"
         y="247.06642"
         x="385.21716"
         style="font-style:normal;font-variant:normal;font-weight:normal;font-stretch:normal;font-size:56.75712585px;line-height:100%;font-family:'Nanum Pen Script OTF';-inkscape-font-specification:'Nanum Pen Script OTF';stroke-width:1.26126945"
         sodipodi:role="line">아! 너였구나!</tspan></text>
    <text
       id="text942"
       y="863.94739"
       x="1326.7509"
       style="font-style:normal;font-variant:normal;font-weight:normal;font-stretch:normal;font-size:15.06720066px;line-height:100%;font-family:'Nanum Pen Script OTF';-inkscape-font-specification:'Nanum Pen Script OTF';text-align:center;letter-spacing:0px;word-spacing:0px;text-anchor:middle;fill:#000000;fill-opacity:1;stroke:none;stroke-width:1.25560009"
       xml:space="preserve"><tspan
         y="863.94739"
         x="1326.7509"
         style="font-style:normal;font-variant:normal;font-weight:normal;font-stretch:normal;font-size:56.50200272px;line-height:100%;font-family:'Nanum Pen Script OTF';-inkscape-font-specification:'Nanum Pen Script OTF';stroke-width:1.25560009"
         sodipodi:role="line"
         id="tspan1068">내가 너무</tspan><tspan
         y="920.4494"
         x="1326.7509"
         style="font-style:normal;font-variant:normal;font-weight:normal;font-stretch:normal;font-size:56.50200272px;line-height:100%;font-family:'Nanum Pen Script OTF';-inkscape-font-specification:'Nanum Pen Script OTF';stroke-width:1.25560009"
         sodipodi:role="line"
         id="tspan923">깊이 생각에</tspan><tspan
         y="976.95142"
         x="1326.7509"
         style="font-style:normal;font-variant:normal;font-weight:normal;font-stretch:normal;font-size:56.50200272px;line-height:100%;font-family:'Nanum Pen Script OTF';-inkscape-font-specification:'Nanum Pen Script OTF';stroke-width:1.25560009"
         sodipodi:role="line"
         id="tspan1070">빠져 있었나 봐.</tspan></text>
    <text
       id="text958"
       y="265.70987"
       x="2177.9243"
       style="font-style:normal;font-variant:normal;font-weight:normal;font-stretch:normal;font-size:14.48244667px;line-height:100%;font-family:'Nanum Pen Script OTF';-inkscape-font-specification:'Nanum Pen Script OTF';text-align:center;letter-spacing:0px;word-spacing:0px;text-anchor:middle;fill:#000000;fill-opacity:1;stroke:none;stroke-width:1.20687056"
       xml:space="preserve"><tspan
         id="tspan956"
         y="265.70987"
         x="2177.9243"
         style="font-style:normal;font-variant:normal;font-weight:normal;font-stretch:normal;font-size:54.30917358px;line-height:100%;font-family:'Nanum Pen Script OTF';-inkscape-font-specification:'Nanum Pen Script OTF';stroke-width:1.20687056"
         sodipodi:role="line">난 들어갈게.</tspan><tspan
         y="320.01904"
         x="2177.9243"
         style="font-style:normal;font-variant:normal;font-weight:normal;font-stretch:normal;font-size:54.30917358px;line-height:100%;font-family:'Nanum Pen Script OTF';-inkscape-font-specification:'Nanum Pen Script OTF';stroke-width:1.20687056"
         sodipodi:role="line"
         id="tspan1081">바깥이</tspan><tspan
         y="374.32822"
         x="2177.9243"
         style="font-style:normal;font-variant:normal;font-weight:normal;font-stretch:normal;font-size:54.30917358px;line-height:100%;font-family:'Nanum Pen Script OTF';-inkscape-font-specification:'Nanum Pen Script OTF';stroke-width:1.20687056"
         sodipodi:role="line"
         id="tspan1083">추워지고 있어.</tspan></text>
    <text
       id="text965"
       y="1234.0848"
       x="1395.182"
       style="font-style:normal;font-variant:normal;font-weight:normal;font-stretch:normal;font-size:13.13049126px;line-height:100%;font-family:'Nanum Pen Script OTF';-inkscape-font-specification:'Nanum Pen Script OTF';text-align:center;letter-spacing:0px;word-spacing:0px;text-anchor:middle;fill:#000000;fill-opacity:1;stroke:none;stroke-width:1.31084275"
       xml:space="preserve"
       transform="skewX(-8.9958469)"><tspan
         id="tspan960"
         y="1234.0848"
         x="1395.182"
         style="font-style:normal;font-variant:normal;font-weight:normal;font-stretch:normal;font-size:49.23934174px;line-height:100%;font-family:'Nanum Pen Script OTF';-inkscape-font-specification:'Nanum Pen Script OTF';stroke-width:1.57036817"
         sodipodi:role="line">빨리!</tspan><tspan
         id="tspan963"
         y="1283.3242"
         x="1395.182"
         style="font-style:normal;font-variant:normal;font-weight:normal;font-stretch:normal;font-size:49.23934174px;line-height:100%;font-family:'Nanum Pen Script OTF';-inkscape-font-specification:'Nanum Pen Script OTF';stroke-width:1.57036817"
         sodipodi:role="line"> 그분이 왔어!</tspan></text>
    <text
       id="text971"
       y="1237.4697"
       x="1061.6627"
       style="font-style:normal;font-variant:normal;font-weight:normal;font-stretch:normal;font-size:13.26236153px;line-height:100%;font-family:'Nanum Pen Script OTF';-inkscape-font-specification:'Nanum Pen Script OTF';text-align:center;letter-spacing:0px;word-spacing:0px;text-anchor:middle;fill:#000000;fill-opacity:1;stroke:none;stroke-width:1.32400763"
       xml:space="preserve"
       transform="skewX(-9.0633362)"><tspan
         id="tspan969"
         y="1237.4697"
         x="1061.6627"
         style="font-style:normal;font-variant:normal;font-weight:normal;font-stretch:normal;font-size:49.7338562px;line-height:100%;font-family:'Nanum Pen Script OTF';-inkscape-font-specification:'Nanum Pen Script OTF';stroke-width:1.58613944"
         sodipodi:role="line">어서!</tspan><tspan
         y="1287.2036"
         x="1061.6627"
         style="font-style:normal;font-variant:normal;font-weight:normal;font-stretch:normal;font-size:49.7338562px;line-height:100%;font-family:'Nanum Pen Script OTF';-inkscape-font-specification:'Nanum Pen Script OTF';stroke-width:1.58613944"
         sodipodi:role="line"
         id="tspan1091"> 그분이다!</tspan></text>
    <text
       id="text981"
       y="2024.166"
       x="379.69028"
       style="font-style:normal;font-variant:normal;font-weight:normal;font-stretch:normal;font-size:14.89282703px;line-height:100%;font-family:'Nanum Pen Script OTF';-inkscape-font-specification:'Nanum Pen Script OTF';text-align:center;letter-spacing:0px;word-spacing:0px;text-anchor:middle;fill:#000000;fill-opacity:1;stroke:none;stroke-width:1.24106896"
       xml:space="preserve"><tspan
         id="tspan979"
         y="2024.166"
         x="379.69028"
         style="font-style:normal;font-variant:normal;font-weight:normal;font-stretch:normal;font-size:55.84810257px;line-height:100%;font-family:'Nanum Pen Script OTF';-inkscape-font-specification:'Nanum Pen Script OTF';stroke-width:1.24106896"
         sodipodi:role="line">사프란 씨! 퀄리시티</tspan><tspan
         y="2080.0142"
         x="379.69028"
         style="font-style:normal;font-variant:normal;font-weight:normal;font-stretch:normal;font-size:55.84810257px;line-height:100%;font-family:'Nanum Pen Script OTF';-inkscape-font-specification:'Nanum Pen Script OTF';stroke-width:1.24106896"
         sodipodi:role="line"
         id="tspan1006">데일리지에 한 말씀 좀</tspan><tspan
         y="2135.8623"
         x="379.69028"
         style="font-style:normal;font-variant:normal;font-weight:normal;font-stretch:normal;font-size:55.84810257px;line-height:100%;font-family:'Nanum Pen Script OTF';-inkscape-font-specification:'Nanum Pen Script OTF';stroke-width:1.24106896"
         sodipodi:role="line"
         id="tspan1010">해주시겠습니까?</tspan></text>
    <text
       id="text987"
       y="2615.6819"
       x="1084.6144"
       style="font-style:normal;font-variant:normal;font-weight:normal;font-stretch:normal;font-size:14.06252289px;line-height:100%;font-family:'Nanum Pen Script OTF';-inkscape-font-specification:'Nanum Pen Script OTF';text-align:center;letter-spacing:0px;word-spacing:0px;text-anchor:middle;fill:#000000;fill-opacity:1;stroke:none;stroke-width:1.17187691"
       xml:space="preserve"><tspan
         id="tspan985"
         y="2615.6819"
         x="1084.6144"
         style="font-style:normal;font-variant:normal;font-weight:normal;font-stretch:normal;font-size:52.73446274px;line-height:100%;font-family:'Nanum Pen Script OTF';-inkscape-font-specification:'Nanum Pen Script OTF';stroke-width:1.17187691"
         sodipodi:role="line">네,</tspan><tspan
         y="2668.4163"
         x="1084.6144"
         style="font-style:normal;font-variant:normal;font-weight:normal;font-stretch:normal;font-size:52.73446274px;line-height:100%;font-family:'Nanum Pen Script OTF';-inkscape-font-specification:'Nanum Pen Script OTF';stroke-width:1.17187691"
         sodipodi:role="line"
         id="tspan1039">물론이죠!</tspan></text>
    <text
       id="text991"
       y="1950.7856"
       x="2272.3433"
       style="font-style:normal;font-variant:normal;font-weight:normal;font-stretch:normal;font-size:18.28240204px;line-height:100%;font-family:'Nanum Pen Script OTF';-inkscape-font-specification:'Nanum Pen Script OTF';text-align:center;letter-spacing:0px;word-spacing:0px;text-anchor:middle;fill:#000000;fill-opacity:1;stroke:none;stroke-width:1.52353346"
       xml:space="preserve"><tspan
         id="tspan989"
         y="1950.7856"
         x="2272.3433"
         style="font-style:normal;font-variant:normal;font-weight:normal;font-stretch:normal;font-size:68.55900574px;line-height:100%;font-family:'Nanum Pen Script OTF';-inkscape-font-specification:'Nanum Pen Script OTF';stroke-width:1.52353346"
         sodipodi:role="line">...</tspan></text>
    <text
       id="text1003"
       y="2453.145"
       x="2156.1685"
       style="font-style:normal;font-variant:normal;font-weight:normal;font-stretch:normal;font-size:15.48431587px;line-height:100%;font-family:'Nanum Pen Script OTF';-inkscape-font-specification:'Nanum Pen Script OTF';text-align:center;letter-spacing:0px;word-spacing:0px;text-anchor:middle;fill:#000000;fill-opacity:1;stroke:none;stroke-width:1.29035962"
       xml:space="preserve"><tspan
         y="2453.145"
         x="2156.1685"
         style="font-style:normal;font-variant:normal;font-weight:normal;font-stretch:normal;font-size:58.06618118px;line-height:100%;font-family:'Nanum Pen Script OTF';-inkscape-font-specification:'Nanum Pen Script OTF';stroke-width:1.29035962"
         sodipodi:role="line"
         id="tspan998">보여, 당근아?</tspan><tspan
         y="2511.2112"
         x="2156.1685"
         style="font-style:normal;font-variant:normal;font-weight:normal;font-stretch:normal;font-size:58.06618118px;line-height:100%;font-family:'Nanum Pen Script OTF';-inkscape-font-specification:'Nanum Pen Script OTF';stroke-width:1.29035962"
         sodipodi:role="line"
         id="tspan1080">이제 내가 왜</tspan><tspan
         y="2569.2773"
         x="2156.1685"
         style="font-style:normal;font-variant:normal;font-weight:normal;font-stretch:normal;font-size:58.06618118px;line-height:100%;font-family:'Nanum Pen Script OTF';-inkscape-font-specification:'Nanum Pen Script OTF';stroke-width:1.29035962"
         sodipodi:role="line"
         id="tspan1082">분위기를 못 타는지</tspan><tspan
         y="2627.3435"
         x="2156.1685"
         style="font-style:normal;font-variant:normal;font-weight:normal;font-stretch:normal;font-size:58.06618118px;line-height:100%;font-family:'Nanum Pen Script OTF';-inkscape-font-specification:'Nanum Pen Script OTF';stroke-width:1.29035962"
         sodipodi:role="line"
         id="tspan1084">알 것 같아.</tspan></text>
    <text
       transform="matrix(0.73164061,-0.40734468,-0.01994499,0.99097317,216.68717,44.197749)"
       id="text1011"
       y="2475.9683"
       x="1191.4009"
       style="font-style:normal;font-variant:normal;font-weight:normal;font-stretch:normal;font-size:79.97832489px;line-height:100%;font-family:'Nanum Pen Script OTF';-inkscape-font-specification:'Nanum Pen Script OTF';font-variant-ligatures:normal;font-variant-position:normal;font-variant-caps:normal;font-variant-numeric:normal;font-variant-alternates:normal;font-feature-settings:normal;text-indent:0;text-align:start;text-decoration:none;text-decoration-line:none;text-decoration-style:solid;text-decoration-color:#000000;letter-spacing:0px;word-spacing:0px;text-transform:none;writing-mode:lr-tb;direction:ltr;text-orientation:mixed;dominant-baseline:auto;baseline-shift:baseline;text-anchor:start;white-space:normal;shape-padding:0;opacity:1;vector-effect:none;fill:#ffffff;fill-opacity:1;stroke:none;stroke-width:1.78316224;stroke-linecap:butt;stroke-linejoin:miter;stroke-miterlimit:4;stroke-dasharray:none;stroke-dashoffset:0;stroke-opacity:1;filter:url(#filter4375-4-1-1-1-9)"
       xml:space="preserve"><tspan
         id="tspan1009"
         y="2475.9683"
         x="1191.4009"
         style="font-style:normal;font-variant:normal;font-weight:normal;font-stretch:normal;font-size:79.97832489px;line-height:100%;font-family:'Nanum Pen Script OTF';-inkscape-font-specification:'Nanum Pen Script OTF';font-variant-ligatures:normal;font-variant-position:normal;font-variant-caps:normal;font-variant-numeric:normal;font-variant-alternates:normal;font-feature-settings:normal;text-indent:0;text-align:start;text-decoration:none;text-decoration-line:none;text-decoration-style:solid;text-decoration-color:#000000;letter-spacing:0px;word-spacing:0px;text-transform:none;writing-mode:lr-tb;direction:ltr;text-orientation:mixed;dominant-baseline:auto;baseline-shift:baseline;text-anchor:start;white-space:normal;shape-padding:0;vector-effect:none;fill:#ffffff;fill-opacity:1;stroke:none;stroke-width:1.78316224;stroke-linecap:butt;stroke-linejoin:miter;stroke-miterlimit:4;stroke-dasharray:none;stroke-dashoffset:0;stroke-opacity:1;filter:url(#filter4375-4-1-1-1-9)"
         sodipodi:role="line">펑펑</tspan></text>
    <text
       id="text1019"
       y="2939.0371"
       x="932.01746"
       style="font-style:normal;font-variant:normal;font-weight:normal;font-stretch:normal;font-size:15.04352474px;line-height:100%;font-family:'Nanum Pen Script OTF';-inkscape-font-specification:'Nanum Pen Script OTF';text-align:center;letter-spacing:0px;word-spacing:0px;text-anchor:middle;fill:#000000;fill-opacity:1;stroke:none;stroke-width:1.25362706"
       xml:space="preserve"><tspan
         id="tspan1017"
         y="2939.0371"
         x="932.01746"
         style="font-style:normal;font-variant:normal;font-weight:normal;font-stretch:normal;font-size:56.41321564px;line-height:100%;font-family:'Nanum Pen Script OTF';-inkscape-font-specification:'Nanum Pen Script OTF';stroke-width:1.25362706"
         sodipodi:role="line">사프란 씨!</tspan><tspan
         y="2995.4504"
         x="932.01746"
         style="font-style:normal;font-variant:normal;font-weight:normal;font-stretch:normal;font-size:56.41321564px;line-height:100%;font-family:'Nanum Pen Script OTF';-inkscape-font-specification:'Nanum Pen Script OTF';stroke-width:1.25362706"
         sodipodi:role="line"
         id="tspan1047">헤레바 스타일</tspan><tspan
         y="3051.8635"
         x="932.01746"
         style="font-style:normal;font-variant:normal;font-weight:normal;font-stretch:normal;font-size:56.41321564px;line-height:100%;font-family:'Nanum Pen Script OTF';-inkscape-font-specification:'Nanum Pen Script OTF';stroke-width:1.25362706"
         sodipodi:role="line"
         id="tspan1049">가제트입니다.</tspan></text>
    <text
       transform="matrix(0.82265877,-0.45801951,-0.02242621,1.114253,145.19173,130.06128)"
       id="text1027"
       y="2475.9683"
       x="1191.4009"
       style="font-style:normal;font-variant:normal;font-weight:normal;font-stretch:normal;font-size:79.97832489px;line-height:100%;font-family:'Nanum Pen Script OTF';-inkscape-font-specification:'Nanum Pen Script OTF';font-variant-ligatures:normal;font-variant-position:normal;font-variant-caps:normal;font-variant-numeric:normal;font-variant-alternates:normal;font-feature-settings:normal;text-indent:0;text-align:start;text-decoration:none;text-decoration-line:none;text-decoration-style:solid;text-decoration-color:#000000;letter-spacing:0px;word-spacing:0px;text-transform:none;writing-mode:lr-tb;direction:ltr;text-orientation:mixed;dominant-baseline:auto;baseline-shift:baseline;text-anchor:start;white-space:normal;shape-padding:0;opacity:1;vector-effect:none;fill:#ffffff;fill-opacity:1;stroke:none;stroke-width:1.78316224;stroke-linecap:butt;stroke-linejoin:miter;stroke-miterlimit:4;stroke-dasharray:none;stroke-dashoffset:0;stroke-opacity:1;filter:url(#filter4375-4-1-1-1-9-6)"
       xml:space="preserve"><tspan
         id="tspan1025"
         y="2475.9683"
         x="1191.4009"
         style="font-style:normal;font-variant:normal;font-weight:normal;font-stretch:normal;font-size:79.97832489px;line-height:100%;font-family:'Nanum Pen Script OTF';-inkscape-font-specification:'Nanum Pen Script OTF';font-variant-ligatures:normal;font-variant-position:normal;font-variant-caps:normal;font-variant-numeric:normal;font-variant-alternates:normal;font-feature-settings:normal;text-indent:0;text-align:start;text-decoration:none;text-decoration-line:none;text-decoration-style:solid;text-decoration-color:#000000;letter-spacing:0px;word-spacing:0px;text-transform:none;writing-mode:lr-tb;direction:ltr;text-orientation:mixed;dominant-baseline:auto;baseline-shift:baseline;text-anchor:start;white-space:normal;shape-padding:0;vector-effect:none;fill:#ffffff;fill-opacity:1;stroke:none;stroke-width:1.78316224;stroke-linecap:butt;stroke-linejoin:miter;stroke-miterlimit:4;stroke-dasharray:none;stroke-dashoffset:0;stroke-opacity:1;filter:url(#filter4375-4-1-1-1-9-6)"
         sodipodi:role="line">펑펑</tspan></text>
    <text
       transform="matrix(0.76893758,-0.42810996,-0.02096173,1.0414902,-210.43548,-61.53774)"
       id="text1036"
       y="2475.9683"
       x="1191.4009"
       style="font-style:normal;font-variant:normal;font-weight:normal;font-stretch:normal;font-size:79.97832489px;line-height:100%;font-family:'Nanum Pen Script OTF';-inkscape-font-specification:'Nanum Pen Script OTF';font-variant-ligatures:normal;font-variant-position:normal;font-variant-caps:normal;font-variant-numeric:normal;font-variant-alternates:normal;font-feature-settings:normal;text-indent:0;text-align:start;text-decoration:none;text-decoration-line:none;text-decoration-style:solid;text-decoration-color:#000000;letter-spacing:0px;word-spacing:0px;text-transform:none;writing-mode:lr-tb;direction:ltr;text-orientation:mixed;dominant-baseline:auto;baseline-shift:baseline;text-anchor:start;white-space:normal;shape-padding:0;opacity:1;vector-effect:none;fill:#ffffff;fill-opacity:1;stroke:none;stroke-width:1.78316224;stroke-linecap:butt;stroke-linejoin:miter;stroke-miterlimit:4;stroke-dasharray:none;stroke-dashoffset:0;stroke-opacity:1;filter:url(#filter4375-4-1-1-1-9-4)"
       xml:space="preserve"><tspan
         id="tspan1034"
         y="2475.9683"
         x="1191.4009"
         style="font-style:normal;font-variant:normal;font-weight:normal;font-stretch:normal;font-size:79.97832489px;line-height:100%;font-family:'Nanum Pen Script OTF';-inkscape-font-specification:'Nanum Pen Script OTF';font-variant-ligatures:normal;font-variant-position:normal;font-variant-caps:normal;font-variant-numeric:normal;font-variant-alternates:normal;font-feature-settings:normal;text-indent:0;text-align:start;text-decoration:none;text-decoration-line:none;text-decoration-style:solid;text-decoration-color:#000000;letter-spacing:0px;word-spacing:0px;text-transform:none;writing-mode:lr-tb;direction:ltr;text-orientation:mixed;dominant-baseline:auto;baseline-shift:baseline;text-anchor:start;white-space:normal;shape-padding:0;vector-effect:none;fill:#ffffff;fill-opacity:1;stroke:none;stroke-width:1.78316224;stroke-linecap:butt;stroke-linejoin:miter;stroke-miterlimit:4;stroke-dasharray:none;stroke-dashoffset:0;stroke-opacity:1;filter:url(#filter4375-4-1-1-1-9-4)"
         sodipodi:role="line">펑펑</tspan></text>
    <text
       transform="matrix(0.79237484,-0.44115878,-0.02160065,1.0732349,-544.14452,166.66771)"
       id="text1044"
       y="2475.9683"
       x="1191.4009"
       style="font-style:normal;font-variant:normal;font-weight:normal;font-stretch:normal;font-size:79.97832489px;line-height:100%;font-family:'Nanum Pen Script OTF';-inkscape-font-specification:'Nanum Pen Script OTF';font-variant-ligatures:normal;font-variant-position:normal;font-variant-caps:normal;font-variant-numeric:normal;font-variant-alternates:normal;font-feature-settings:normal;text-indent:0;text-align:start;text-decoration:none;text-decoration-line:none;text-decoration-style:solid;text-decoration-color:#000000;letter-spacing:0px;word-spacing:0px;text-transform:none;writing-mode:lr-tb;direction:ltr;text-orientation:mixed;dominant-baseline:auto;baseline-shift:baseline;text-anchor:start;white-space:normal;shape-padding:0;opacity:1;vector-effect:none;fill:#ffffff;fill-opacity:1;stroke:none;stroke-width:1.78316224;stroke-linecap:butt;stroke-linejoin:miter;stroke-miterlimit:4;stroke-dasharray:none;stroke-dashoffset:0;stroke-opacity:1;filter:url(#filter4375-4-1-1-1-9-4-8)"
       xml:space="preserve"><tspan
         id="tspan1042"
         y="2475.9683"
         x="1191.4009"
         style="font-style:normal;font-variant:normal;font-weight:normal;font-stretch:normal;font-size:79.97832489px;line-height:100%;font-family:'Nanum Pen Script OTF';-inkscape-font-specification:'Nanum Pen Script OTF';font-variant-ligatures:normal;font-variant-position:normal;font-variant-caps:normal;font-variant-numeric:normal;font-variant-alternates:normal;font-feature-settings:normal;text-indent:0;text-align:start;text-decoration:none;text-decoration-line:none;text-decoration-style:solid;text-decoration-color:#000000;letter-spacing:0px;word-spacing:0px;text-transform:none;writing-mode:lr-tb;direction:ltr;text-orientation:mixed;dominant-baseline:auto;baseline-shift:baseline;text-anchor:start;white-space:normal;shape-padding:0;vector-effect:none;fill:#ffffff;fill-opacity:1;stroke:none;stroke-width:1.78316224;stroke-linecap:butt;stroke-linejoin:miter;stroke-miterlimit:4;stroke-dasharray:none;stroke-dashoffset:0;stroke-opacity:1;filter:url(#filter4375-4-1-1-1-9-4-8)"
         sodipodi:role="line">펑펑</tspan></text>
    <text
       id="text1054"
       y="3097.0625"
       x="1071.3097"
       style="font-style:normal;font-variant:normal;font-weight:normal;font-stretch:normal;font-size:15.38299465px;line-height:100%;font-family:'Nanum Pen Script OTF';-inkscape-font-specification:'Nanum Pen Script OTF';text-align:center;letter-spacing:0px;word-spacing:0px;text-anchor:middle;fill:#000000;fill-opacity:1;stroke:none;stroke-width:1.28191626"
       xml:space="preserve"><tspan
         id="tspan1052"
         y="3108.2502"
         x="1071.3097"
         style="font-style:normal;font-variant:normal;font-weight:normal;font-stretch:normal;font-size:57.68622971px;line-height:100%;font-family:'Nanum Pen Script OTF';-inkscape-font-specification:'Nanum Pen Script OTF';stroke-width:1.28191626"
         sodipodi:role="line" /><tspan
         y="3154.3992"
         x="1071.3097"
         style="font-style:normal;font-variant:normal;font-weight:normal;font-stretch:normal;font-size:57.68622971px;line-height:100%;font-family:'Nanum Pen Script OTF';-inkscape-font-specification:'Nanum Pen Script OTF';stroke-width:1.28191626"
         sodipodi:role="line"
         id="tspan1069">오늘 어떤</tspan><tspan
         y="3212.0854"
         x="1071.3097"
         style="font-style:normal;font-variant:normal;font-weight:normal;font-stretch:normal;font-size:57.68622971px;line-height:100%;font-family:'Nanum Pen Script OTF';-inkscape-font-specification:'Nanum Pen Script OTF';stroke-width:1.28191626"
         sodipodi:role="line"
         id="tspan1073">디자이너의 옷을</tspan><tspan
         y="3269.7715"
         x="1071.3097"
         style="font-style:normal;font-variant:normal;font-weight:normal;font-stretch:normal;font-size:57.68622971px;line-height:100%;font-family:'Nanum Pen Script OTF';-inkscape-font-specification:'Nanum Pen Script OTF';stroke-width:1.28191626"
         sodipodi:role="line"
         id="tspan1065">입고 있으십니까?</tspan></text>
  </g>
</svg>
