<?xml version="1.0" encoding="UTF-8" standalone="no"?>
<svg
   xmlns:dc="http://purl.org/dc/elements/1.1/"
   xmlns:cc="http://creativecommons.org/ns#"
   xmlns:rdf="http://www.w3.org/1999/02/22-rdf-syntax-ns#"
   xmlns:svg="http://www.w3.org/2000/svg"
   xmlns="http://www.w3.org/2000/svg"
   xmlns:xlink="http://www.w3.org/1999/xlink"
   xmlns:sodipodi="http://sodipodi.sourceforge.net/DTD/sodipodi-0.dtd"
   xmlns:inkscape="http://www.inkscape.org/namespaces/inkscape"
   id="svg2"
   version="1.1"
   inkscape:version="1.0.2 (e86c870879, 2021-01-15)"
   width="2481"
   height="3503"
   sodipodi:docname="E34P03.svg">
  <metadata
     id="metadata8">
    <rdf:RDF>
      <cc:Work
         rdf:about="">
        <dc:format>image/svg+xml</dc:format>
        <dc:type
           rdf:resource="http://purl.org/dc/dcmitype/StillImage" />
        <dc:title />
      </cc:Work>
    </rdf:RDF>
  </metadata>
  <defs
     id="defs6" />
  <sodipodi:namedview
     pagecolor="#ffffff"
     bordercolor="#666666"
     borderopacity="1"
     objecttolerance="10"
     gridtolerance="10"
     guidetolerance="10"
     inkscape:pageopacity="0"
     inkscape:pageshadow="2"
     inkscape:window-width="1920"
     inkscape:window-height="1016"
     id="namedview4"
     showgrid="false"
     inkscape:zoom="1.1313709"
     inkscape:cx="975.94231"
     inkscape:cy="409.38988"
     inkscape:window-x="0"
     inkscape:window-y="0"
     inkscape:window-maximized="1"
     inkscape:current-layer="layer1"
     inkscape:document-rotation="0"
     borderlayer="true" />
  <g
     inkscape:groupmode="layer"
     id="layer2"
     inkscape:label="artwork"
     sodipodi:insensitive="true">
    <image
       sodipodi:absref="/home/martin/peppercarrot/webcomics/new-ep34_The-Knighting-of-Shichimi/lang/gfx_Pepper-and-Carrot_by-David-Revoy_E34P03.png"
       xlink:href="../gfx_Pepper-and-Carrot_by-David-Revoy_E34P03.png"
       y="0"
       x="0"
       id="image10"
       height="3503"
       width="2481" />
  </g>
  <g
     inkscape:groupmode="layer"
     id="layer3"
     inkscape:label="speechbubbles"
     style="display:inline">
    <path
       style="color:#000000;display:inline;overflow:visible;visibility:visible;fill:#ffffff;fill-opacity:1;fill-rule:nonzero;stroke:none;stroke-width:1.27603px;marker:none;enable-background:accumulate"
       d="m 1190.9446,2139.3379 c -61.6554,2.7009 -122.7936,11.5443 -183.4138,22.133 -23.98315,5.7535 -47.29325,16.659 -63.8681,34.3389 -16.43346,17.9307 -24.90989,41.1654 -28.21141,64.3773 -4.54367,30.5246 3.72592,62.0353 20.45035,88.2998 11.04028,18.8819 26.57782,36.1306 47.09927,46.2308 26.34899,13.8689 55.77699,21.1305 84.75049,28.3633 27.5025,6.3665 55.5612,10.3157 83.6387,13.6191 34.7002,3.6393 69.8062,4.4547 104.5746,1.135 26.4602,-2.4578 52.9145,-6.1326 78.5222,-13.0202 30.8725,-8.5032 60.5992,-22.472 84.0268,-43.5168 17.4672,-15.7564 30.6564,-35.7587 37.3918,-57.6766 7.4053,-22.9296 9.9048,-47.3314 6.8585,-71.143 -3.5049,-24.3825 -15.4896,-48.1084 -35.4306,-64.3144 -18.6393,-15.3081 -42.107,-23.9854 -65.4943,-30.6313 -27.6323,-7.8243 -56.3748,-11.342 -85.0626,-13.4863 -18.3338,-1.3662 -36.66,-2.8628 -55.0167,-3.9308 -10.2611,-0.5416 -20.5375,-0.8433 -30.8152,-0.7778 z"
       id="path4546-6-08-2"
       inkscape:connector-curvature="0"
       sodipodi:nodetypes="cssssc" />
    <path
       style="color:#000000;display:inline;overflow:visible;visibility:visible;fill:#ffffff;fill-opacity:1;fill-rule:nonzero;stroke:none;stroke-width:0.586403px;marker:none;enable-background:accumulate"
       d="m 786.34677,2123.5123 c 5.02464,-42.62 47.16918,-72.3401 153.25243,-60.2559 56.824,6.4733 121.4295,11.7571 114.7301,74.2181 -6.6996,62.4603 -99.65607,57.3161 -118.91724,58.0513 -19.26129,0.7346 -119.01807,-9.6322 -135.66614,-31.5981 -10.42127,-13.7499 -14.23657,-27.1885 -13.39915,-40.4154 z"
       id="path4546-6-08"
       inkscape:connector-curvature="0"
       sodipodi:nodetypes="cssssc" />
    <path
       style="fill:#ffffff;fill-rule:evenodd;stroke:none;stroke-width:1.25695px;stroke-linecap:butt;stroke-linejoin:miter;stroke-opacity:1"
       d="m 1471.3459,2456.5997 c -67.1764,-16.6519 -104.4231,-46.199 -116.7263,-96.6707 l -26.7459,22.416 c 34.4783,64.0674 88.4565,69.7439 143.4722,74.2547 z"
       id="path1291"
       inkscape:connector-curvature="0"
       sodipodi:nodetypes="cccc" />
    <path
       style="fill:#ffffff;stroke:none;stroke-width:0.972695"
       d="m 2046.8887,294.17773 c -39.6592,0.87259 -79.2406,4.12342 -118.6411,8.63598 -28.0761,3.45619 -56.6998,8.7612 -81.6288,22.80258 -17.1243,9.86351 -30.928,25.65948 -38.0389,44.13553 -3.2439,8.45302 -5.0977,17.61391 -3.6698,26.6585 2.5878,20.45788 16.297,38.69489 34.5305,48.01837 23.5697,13.04305 50.5265,17.35954 76.6085,22.56825 54.2988,10.19294 109.7958,12.72511 164.9351,11.01783 25.6859,-0.94521 51.3777,-2.71212 76.8507,-6.20311 23.5879,-3.55066 47.3991,-9.33854 68.0381,-21.70917 17.7212,-11.42475 30.0651,-31.58925 30.1199,-52.91361 0.4824,-26.36472 -14.7234,-51.3424 -36.1599,-65.9823 -10.8413,-7.63135 -23.4313,-12.19522 -36.1123,-15.7183 -37.7184,-11.56823 -76.8489,-18.49494 -116.2156,-20.92918 -6.8665,-0.32876 -13.7425,-0.44763 -20.6164,-0.38137 z"
       id="path3100-2-0"
       inkscape:connector-curvature="0" />
    <path
       style="fill:#ffffff;stroke:none;stroke-width:1.18283"
       d="m 2076.8823,247.4485 c -7.5449,58.07386 -115.0445,73.80425 -191.5313,73.87191 -130.0722,4.35437 -261.8812,-2.91346 -388.7622,-21.54286 -81.9336,-16.08413 -121.7572,-90.80562 -53.7835,-128.46041 69.7185,-29.32136 159.2702,-26.7993 239.7252,-32.43727 113.7926,-2.96731 231.6569,2.45137 338.2128,29.62082 47.4698,14.78235 63.9174,47.65096 56.139,78.94781 z"
       id="path3100-2"
       inkscape:connector-curvature="0" />
    <path
       style="color:#000000;display:inline;overflow:visible;visibility:visible;fill:#ffffff;fill-opacity:1;fill-rule:nonzero;stroke:none;stroke-width:1.04847px;marker:none;enable-background:accumulate"
       d="m 958.34055,195.82747 c -46.71512,1.97256 -92.16122,14.78781 -135.08802,31.86236 -16.17153,6.0412 -33.39857,11.10542 -46.65707,22.27907 -14.28028,12.27709 -23.00586,29.26452 -28.68812,46.5123 -8.70082,27.79175 -10.94167,56.95124 -11.75506,85.80343 -0.42611,14.205 -0.22808,28.49694 2.31774,42.53674 2.87504,16.20658 7.81521,32.16544 15.37206,46.96541 11.51589,21.16768 31.27707,37.31361 53.09442,48.46106 21.78739,11.12462 46.11925,17.08105 70.60517,19.55921 24.28385,2.70294 48.76581,3.62077 73.20377,3.43745 32.89408,-0.61129 66.10166,-4.54037 97.13206,-15.35277 27.3629,-10.46929 49.1728,-31.98253 61.5697,-57.23234 13.3234,-25.79043 22.1977,-53.67295 26.197,-82.15941 3.744,-28.84328 1.8329,-58.79216 -8.8405,-86.19601 -8.8364,-21.97965 -24.5321,-41.28487 -44.3121,-55.34236 -22.8697,-17.06899 -48.5835,-30.40002 -75.1413,-41.47241 -15.53597,-5.96668 -32.15805,-10.00912 -49.00975,-9.66173 z"
       id="path4040-40"
       inkscape:connector-curvature="0"
       sodipodi:nodetypes="zssssz" />
    <path
       style="fill:#ffffff;stroke:none;stroke-width:1.36939"
       d="m 892.09961,88.826334 c -28.75402,0.336902 -57.83216,3.363847 -85.19428,13.397696 -16.3116,5.96492 -32.41506,13.84832 -45.4192,26.26982 -9.12602,8.95523 -15.8987,20.99968 -17.81839,34.25248 -2.89051,17.39156 1.5927,35.79962 11.34058,49.90043 13.456,20.82892 35.77762,34.44258 59.16006,36.76059 35.76084,5.3918 71.958,4.07814 107.95733,4.28932 28.05868,-0.11683 56.41595,-0.50982 83.90449,-7.2605 18.7707,-4.74747 37.197,-13.23746 51.5197,-27.44646 10.6108,-10.80905 17.6808,-26.23856 17.2066,-42.17946 -0.2887,-19.07421 -9.2063,-37.26922 -22.3777,-49.721 -14.6982,-14.31521 -33.3654,-22.89254 -52.3065,-28.366649 -27.6725,-7.935641 -56.47609,-8.997119 -84.94555,-9.729496 -7.6746,-0.160188 -15.35121,-0.243815 -23.02714,-0.166771 z"
       id="path3280-1"
       inkscape:connector-curvature="0"
       sodipodi:nodetypes="csssc" />
    <path
       style="color:#000000;display:inline;overflow:visible;visibility:visible;fill:#ffffff;fill-opacity:1;fill-rule:nonzero;stroke:none;stroke-width:0.990091px;marker:none;enable-background:accumulate"
       d="m 488.9942,566.25992 c -18.78498,50.92279 -2.84901,105.08842 13.19711,114.63467 -28.06687,-12.75099 -51.50197,-72.60161 -41.41962,-110.56135 11.40195,-31.85325 28.22251,-4.07332 28.22251,-4.07332 z"
       id="path4480-2"
       inkscape:connector-curvature="0"
       sodipodi:nodetypes="cccc"
       inkscape:transform-center-x="54.91025"
       inkscape:transform-center-y="-145.58616" />
    <path
       style="color:#000000;display:inline;overflow:visible;visibility:visible;fill:#ffffff;fill-opacity:1;fill-rule:nonzero;stroke:none;stroke-width:1.13562px;marker:none;enable-background:accumulate"
       d="m 500.64648,297.6875 c -34.49589,1.10447 -69.4681,2.45433 -102.8418,12.06047 -15.69075,4.51242 -30.64795,11.90596 -43.11437,22.52811 -13.48066,11.226 -23.69532,25.98295 -30.65054,42.01454 -11.02599,25.14979 -14.66035,53.24409 -12.04685,80.48657 2.84889,25.70322 14.42686,50.02788 31.07411,69.64919 7.8848,9.12778 17.65056,16.53943 28.4604,21.86991 20.1191,10.48909 41.73212,18.00794 63.82625,23.07165 28.80114,6.46133 58.32381,9.71941 87.8365,9.86819 18.75376,0.0503 37.60238,-1.41819 55.84896,-5.93268 24.70365,-5.85062 48.64801,-15.22908 70.44929,-28.27101 21.52208,-13.84482 38.73713,-35.23298 45.07535,-60.26879 8.56816,-30.49731 9.14614,-63.19529 1.87645,-94.0132 -3.77229,-15.33854 -10.90739,-29.94598 -21.51688,-41.72532 -10.29623,-11.77457 -23.62623,-20.62277 -38.04559,-26.54042 -25.65476,-11.3088 -53.41879,-16.56294 -80.94724,-20.99145 -18.30362,-2.60316 -36.79545,-3.89644 -55.28404,-3.80576 z"
       id="path4546-6-5-5"
       inkscape:connector-curvature="0"
       sodipodi:nodetypes="cssssc" />
    <path
       style="color:#000000;display:inline;overflow:visible;visibility:visible;fill:#ffffff;fill-opacity:1;fill-rule:nonzero;stroke:none;stroke-width:0.807396px;marker:none;enable-background:accumulate"
       d="m 275.062,122.38281 c -28.53745,0.68643 -57.44637,4.60046 -84.25111,16.78803 -14.55134,6.90084 -28.02292,18.89121 -35.16485,35.74547 -8.34544,20.64639 -8.82672,45.06065 -3.04,66.71181 3.82628,13.43431 11.62543,25.42778 22.1907,32.30259 16.45856,11.5596 35.27812,17.42486 54.10463,20.50986 14.49978,2.38165 29.10007,3.75524 43.6639,5.44806 26.65833,2.56675 53.55884,2.91769 80.13752,-1.01693 24.40029,-3.55299 48.84031,-9.01684 71.73174,-19.92043 12.36814,-5.90857 24.55251,-13.59551 33.47908,-25.60571 12.24984,-16.00103 15.95309,-39.42064 11.85938,-60.13619 -3.0401,-15.96647 -10.90459,-30.7211 -22.28856,-40.14017 -13.87086,-11.79649 -30.75518,-16.96784 -47.28418,-20.73869 -25.4976,-5.68926 -51.47629,-7.12509 -77.32629,-8.89364 -15.92315,-0.90071 -31.87102,-1.35513 -47.81196,-1.05406 z"
       id="path4546-6-5-3"
       inkscape:connector-curvature="0"
       sodipodi:nodetypes="cssssc" />
    <path
       id="path1081"
       style="fill:#ffffff;fill-rule:evenodd;stroke:none;stroke-width:1px;stroke-linecap:butt;stroke-linejoin:miter;stroke-opacity:1"
       d="m 293.67188,278.28125 c -10.34602,0.0639 -20.49884,2.27426 -30.72657,3.55078 -2.69982,4.93778 -4.08222,10.48922 -6.23101,15.68234 -5.67931,15.85263 -11.23804,31.88728 -14.15471,48.50943 -1.55744,12.04107 -0.85288,24.84605 5.20433,35.64519 9.1497,17.95023 22.70579,33.83652 27.94646,53.6304 3.09231,10.90551 5.52274,22.36337 4.35032,33.73572 -2.11881,9.59327 -8.21891,17.62309 -11.87847,26.63366 -6.87167,15.32803 -10.49807,32.77889 -6.43519,49.37594 1.01596,4.68537 2.40213,9.28257 3.95804,13.81467 -2.44284,-26.62563 4.52474,-54.43511 21.1636,-75.60842 5.87927,-7.58781 10.3557,-16.41037 11.5087,-26.03213 2.42129,-15.20105 -1.52987,-30.55332 -7.50308,-44.47184 -6.35087,-15.65438 -14.74681,-30.53834 -19.38839,-46.84497 -2.53518,-14.1623 4.48464,-27.52853 11.07638,-39.5497 6.64471,-12.19187 14.72253,-23.64193 20.19033,-36.44305 2.35665,-5.59735 -3.25033,-12.19349 -9.08074,-11.62802 z" />
    <path
       style="color:#000000;display:inline;overflow:visible;visibility:visible;fill:#ffffff;fill-opacity:1;fill-rule:nonzero;stroke:none;stroke-width:0.747612px;marker:none;enable-background:accumulate"
       d="m 899.59119,503.04082 c -2.31202,46.97432 46.46212,99.91514 106.27011,73.88577 -68.51547,11.60614 -80.86302,-50.88993 -74.49691,-77.22915 6.052,-16.0625 -31.7732,3.34338 -31.7732,3.34338 z"
       id="path3978-4"
       inkscape:connector-curvature="0"
       sodipodi:nodetypes="cccc" />
    <path
       style="fill:#ffffff;fill-rule:evenodd;stroke:none;stroke-width:1.17292px;stroke-linecap:butt;stroke-linejoin:miter;stroke-opacity:1"
       d="m 2105.6372,449.67287 c 46.9908,56.36735 25.0644,96.94489 0.9732,119.18809 57.8143,-39.15954 50.7085,-84.22782 24.8731,-138.46075 -6.4903,-8.77797 -25.8463,19.27266 -25.8463,19.27266 z"
       id="path1359"
       inkscape:connector-curvature="0"
       sodipodi:nodetypes="cccc" />
    <path
       style="color:#000000;display:inline;overflow:visible;visibility:visible;fill:#ffffff;fill-opacity:1;fill-rule:nonzero;stroke:none;stroke-width:0.497909px;marker:none;enable-background:accumulate"
       d="m 769.80573,1784.4258 c -18.96629,0.867 -38.28802,5.9216 -54.49503,18.3531 -11.33491,9.5893 -17.48646,26.9834 -16.07747,43.572 0.45788,13.3373 4.17545,27.3028 12.69217,36.2633 9.35651,9.28 21.5025,12.594 33.12964,15.0694 16.84366,3.3542 33.89207,5.3796 50.96404,5.6186 22.7562,-0.1737 45.59797,-5.0256 66.75704,-15.3087 8.76281,-4.6176 17.28085,-11.9976 21.00002,-23.0724 7.84766,-22.3457 0.0196,-50.8982 -17.26036,-63.133 -12.52342,-9.2197 -27.27841,-12.1995 -41.59639,-14.2998 -18.28798,-2.4933 -36.72054,-3.2792 -55.11366,-3.0625 z"
       id="path4546-6-5-3-5"
       inkscape:connector-curvature="0"
       sodipodi:nodetypes="cssssc" />
    <path
       style="color:#000000;display:inline;overflow:visible;visibility:visible;fill:#ffffff;fill-opacity:1;fill-rule:nonzero;stroke:none;stroke-width:0.710537px;marker:none;enable-background:accumulate"
       d="m 849.98651,1849.2956 c 26.9288,18.2447 60.46856,37.1401 111.40082,-0.4118 -51.33263,27.0778 -81.7058,-0.5873 -98.47579,-20.0818 -9.1535,-13.7188 -12.92502,20.4935 -12.92503,20.4936 z"
       id="path3978-4-3"
       inkscape:connector-curvature="0"
       sodipodi:nodetypes="cccc" />
  </g>
  <g
     inkscape:groupmode="layer"
     id="layer1"
     inkscape:label="txt">
    <text
       xml:space="preserve"
       style="font-style:normal;font-variant:normal;font-weight:normal;font-stretch:normal;font-size:45px;line-height:1.25;font-family:Lavi;-inkscape-font-specification:Lavi;text-align:center;letter-spacing:0px;word-spacing:0px;text-anchor:middle;fill:#000000;fill-opacity:1;stroke:none"
       x="304.50552"
       y="197.44516"
       id="text4246-3-2-2-6-3-7-9-3"><tspan
         style="font-size:45px"
         sodipodi:role="line"
         x="304.50552"
         y="197.44516"
         id="tspan850">Hast du sie</tspan><tspan
         style="font-size:45px"
         sodipodi:role="line"
         x="304.50552"
         y="253.69516"
         id="tspan60">eingeladen?</tspan></text>
    <text
       xml:space="preserve"
       style="font-style:normal;font-variant:normal;font-weight:normal;font-stretch:normal;font-size:45px;line-height:1.25;font-family:Lavi;-inkscape-font-specification:Lavi;text-align:center;letter-spacing:0px;word-spacing:0px;text-anchor:middle;fill:#000000;fill-opacity:1;stroke:none"
       x="501.70325"
       y="372.79623"
       id="text4246-3-2-2-6-3-7-9-3-3"><tspan
         style="font-size:45px"
         sodipodi:role="line"
         x="501.70325"
         y="372.79623"
         id="tspan890">Ja. Das ist</tspan><tspan
         style="font-size:45px"
         sodipodi:role="line"
         x="501.70325"
         y="429.04623"
         id="tspan71">meine Freundin</tspan><tspan
         style="font-size:45px"
         sodipodi:role="line"
         x="501.70325"
         y="485.29623"
         id="tspan73">Pepper. Alles</tspan><tspan
         style="font-size:45px"
         sodipodi:role="line"
         x="501.70325"
         y="541.54626"
         id="tspan75">gut.</tspan></text>
    <text
       xml:space="preserve"
       style="font-style:normal;font-variant:normal;font-weight:normal;font-stretch:normal;font-size:45px;line-height:1.25;font-family:Lavi;-inkscape-font-specification:Lavi;text-align:center;letter-spacing:0px;word-spacing:0px;text-anchor:middle;fill:#000000;fill-opacity:1;stroke:none"
       x="909.74799"
       y="162.51166"
       id="text4246-3-2-2-6-3-7-9-3-3-5"><tspan
         style="font-size:45px"
         sodipodi:role="line"
         x="909.74799"
         y="162.51166"
         id="tspan971">Carrot, alles</tspan><tspan
         style="font-size:45px"
         sodipodi:role="line"
         x="909.74799"
         y="218.76166"
         id="tspan878"> in Ordnung?</tspan></text>
    <text
       xml:space="preserve"
       style="font-style:normal;font-variant:normal;font-weight:normal;font-stretch:normal;font-size:40px;line-height:1.25;font-family:Lavi;-inkscape-font-specification:Lavi;text-align:center;letter-spacing:0px;word-spacing:0px;text-anchor:middle;fill:#000000;fill-opacity:1;stroke:none"
       x="935.49323"
       y="298.72784"
       id="text4246-3-2-2-6-3-7-9-3-3-5-9"><tspan
         sodipodi:role="line"
         x="935.49323"
         y="298.72784"
         style="font-size:40px"
         id="tspan109">Die Bruchlandung</tspan><tspan
         sodipodi:role="line"
         x="935.49323"
         y="348.72784"
         style="font-size:40px"
         id="tspan99">tut mir leid. Leider</tspan><tspan
         sodipodi:role="line"
         x="935.49323"
         y="398.72784"
         style="font-size:40px"
         id="tspan101">habe ich das Hyper-</tspan><tspan
         sodipodi:role="line"
         x="935.49323"
         y="448.72784"
         style="font-size:40px"
         id="tspan117">tempo noch nicht</tspan><tspan
         sodipodi:role="line"
         x="935.49323"
         y="498.72784"
         style="font-size:40px"
         id="tspan65">ganz im Griff.</tspan></text>
    <text
       xml:space="preserve"
       style="font-style:normal;font-variant:normal;font-weight:normal;font-stretch:normal;font-size:45px;line-height:1.25;font-family:Lavi;-inkscape-font-specification:Lavi;text-align:center;letter-spacing:0px;word-spacing:0px;text-anchor:middle;fill:#000000;fill-opacity:1;stroke:none"
       x="1740.8796"
       y="214.67836"
       id="text4246-3-2-2-6-3-7-9-3-3-5-9-2"><tspan
         style="font-size:45px"
         sodipodi:role="line"
         x="1740.8796"
         y="214.67836"
         id="tspan1045">Ich entschuldige mich</tspan><tspan
         style="font-size:45px"
         sodipodi:role="line"
         x="1740.8796"
         y="270.92834"
         id="tspan167">nochmal für die Umstände</tspan></text>
    <text
       xml:space="preserve"
       style="font-style:normal;font-variant:normal;font-weight:normal;font-stretch:normal;font-size:45px;line-height:1.25;font-family:Lavi;-inkscape-font-specification:Lavi;text-align:center;letter-spacing:0px;word-spacing:0px;text-anchor:middle;fill:#000000;fill-opacity:1;stroke:none"
       x="2037.0015"
       y="366.36926"
       id="text4246-3-2-2-6-3-7-9-3-3-5-9-2-6"><tspan
         style="font-size:45px"
         sodipodi:role="line"
         x="2037.0015"
         y="366.36926"
         id="tspan8459">und was meine</tspan><tspan
         style="font-size:45px"
         sodipodi:role="line"
         x="2037.0015"
         y="422.61926"
         id="tspan171">Kleidung angeht...</tspan></text>
    <text
       xml:space="preserve"
       style="font-style:normal;font-variant:normal;font-weight:normal;font-stretch:normal;font-size:45px;line-height:1.25;font-family:Lavi;-inkscape-font-specification:Lavi;text-align:center;letter-spacing:0px;word-spacing:0px;text-anchor:middle;fill:#000000;fill-opacity:1;stroke:none"
       x="786.79211"
       y="1859.8729"
       id="text4246-3-2-2-6-3-7-9-3-3-5-9-2-6-3"><tspan
         style="font-size:45px"
         sodipodi:role="line"
         x="786.79211"
         y="1859.8729"
         id="tspan8459-7">hi hi</tspan></text>
    <text
       xml:space="preserve"
       style="font-style:normal;font-variant:normal;font-weight:normal;font-stretch:normal;font-size:45px;line-height:1.25;font-family:Lavi;-inkscape-font-specification:Lavi;text-align:center;letter-spacing:0px;word-spacing:0px;text-anchor:middle;fill:#000000;fill-opacity:1;stroke:none"
       x="922.21698"
       y="2143.4609"
       id="text4246-3-2-2-6-3-7-9-3-3-5-9-2-6-1"><tspan
         style="font-size:45px"
         sodipodi:role="line"
         x="922.21698"
         y="2143.4609"
         id="tspan1077-7">Shichimi,</tspan></text>
    <text
       xml:space="preserve"
       style="font-style:normal;font-variant:normal;font-weight:normal;font-stretch:normal;font-size:45px;line-height:1.25;font-family:Lavi;-inkscape-font-specification:Lavi;text-align:center;letter-spacing:0px;word-spacing:0px;text-anchor:middle;fill:#000000;fill-opacity:1;stroke:none"
       x="1190.3296"
       y="2218.6311"
       id="text4246-3-2-2-6-3-7-9-3-3-5-9-2-6-1-9"><tspan
         style="font-size:45px"
         x="1190.3296"
         y="2218.6311"
         id="tspan1077-7-2"
         sodipodi:role="line">diese junge Hexe,</tspan><tspan
         style="font-size:45px"
         x="1190.3296"
         y="2274.8811"
         sodipodi:role="line"
         id="tspan1133">die gerade angekommen</tspan><tspan
         style="font-size:45px"
         x="1190.3296"
         y="2331.1311"
         sodipodi:role="line"
         id="tspan1135">ist, ist sie <tspan
   style="font-style:italic;font-variant:normal;font-weight:normal;font-stretch:normal;font-family:Lavi;-inkscape-font-specification:'Lavi Italic'"
   id="tspan8461">wirklich</tspan> eine</tspan><tspan
         style="font-size:45px"
         x="1190.3296"
         y="2387.3811"
         sodipodi:role="line"
         id="tspan1137">Freundin von dir?</tspan></text>
  </g>
</svg>
