<?xml version="1.0" encoding="UTF-8" standalone="no"?>
<svg
   xmlns:dc="http://purl.org/dc/elements/1.1/"
   xmlns:cc="http://creativecommons.org/ns#"
   xmlns:rdf="http://www.w3.org/1999/02/22-rdf-syntax-ns#"
   xmlns:svg="http://www.w3.org/2000/svg"
   xmlns="http://www.w3.org/2000/svg"
   xmlns:xlink="http://www.w3.org/1999/xlink"
   xmlns:sodipodi="http://sodipodi.sourceforge.net/DTD/sodipodi-0.dtd"
   xmlns:inkscape="http://www.inkscape.org/namespaces/inkscape"
   id="svg2"
   version="1.1"
   inkscape:version="1.0 (4035a4fb49, 2020-05-01)"
   width="2481"
   height="3503"
   sodipodi:docname="E32P07.svg">
  <metadata
     id="metadata8">
    <rdf:RDF>
      <cc:Work
         rdf:about="">
        <dc:format>image/svg+xml</dc:format>
        <dc:type
           rdf:resource="http://purl.org/dc/dcmitype/StillImage" />
        <dc:title />
      </cc:Work>
    </rdf:RDF>
  </metadata>
  <defs
     id="defs6" />
  <sodipodi:namedview
     pagecolor="#ffffff"
     bordercolor="#666666"
     borderopacity="1"
     objecttolerance="10"
     gridtolerance="10"
     guidetolerance="10"
     inkscape:pageopacity="0"
     inkscape:pageshadow="2"
     inkscape:window-width="1366"
     inkscape:window-height="705"
     id="namedview4"
     showgrid="false"
     inkscape:zoom="0.23000001"
     inkscape:cx="881.14469"
     inkscape:cy="2588.543"
     inkscape:window-x="-8"
     inkscape:window-y="-8"
     inkscape:window-maximized="1"
     inkscape:current-layer="layer1"
     inkscape:document-rotation="0" />
  <g
     inkscape:groupmode="layer"
     id="layer2"
     inkscape:label="artwork"
     sodipodi:insensitive="true">
    <image
       sodipodi:absref="F:\ep32_The-Battlefield_lang-pack\csold\..\gfx_Pepper-and-Carrot_by-David-Revoy_E32P07.png"
       xlink:href="../gfx_Pepper-and-Carrot_by-David-Revoy_E32P07.png"
       width="2481"
       height="3503"
       id="image10"
       x="0"
       y="0" />
  </g>
  <g
     inkscape:groupmode="layer"
     id="layer3"
     inkscape:label="speechbubbles" />
  <g
     inkscape:groupmode="layer"
     id="layer1"
     inkscape:label="txt">
    <path
       style="color:#000000;display:inline;overflow:visible;visibility:visible;opacity:1;fill:#ffffff;fill-opacity:1;fill-rule:nonzero;stroke:none;stroke-width:1px;marker:none;enable-background:accumulate"
       d="m 1056.8386,2202.0169 c -10.399,3.1097 -19.0647,10.6359 -24.862,19.6711 -4.6138,7.2893 -17.2509,15.4965 -15.9508,24.1556 0.9045,6.2645 3.4885,12.2114 7.0602,17.4088 4.9823,4.1786 10.7717,7.2309 16.4747,10.2898 13.956,7.1808 39.0329,12.0634 54.1262,16.1118 11.6919,3.244 23.3837,6.488 35.0756,9.732 5.0949,3.3041 6.8782,10.3837 4.7324,15.9258 -2.5523,8.028 -5.7927,15.981 -6.4238,24.4649 0.469,8.3691 7.2362,15.6672 15.3278,17.4183 23.1263,6.8834 46.95,10.9935 70.7295,14.8666 16.8553,2.5917 33.8211,4.4192 50.6435,7.2326 8.6937,1.344 17.4528,2.335 26.2503,2.6075 -14.7027,-2.9835 -29.0454,-7.4415 -43.6031,-11.0191 -17.5491,-3.9894 -35.2233,-7.6141 -52.357,-13.1989 -12.1385,-3.8263 -24.3458,-7.4273 -36.5828,-10.9238 -2.1361,-0.6181 -4.2722,-1.2362 -6.4082,-1.8543 -3.8086,-2.8565 -4.791,-8.4047 -3.0215,-12.6797 3.1112,-10.0301 7.2356,-19.7537 9.5683,-30.0176 0.1907,-7.1989 -5.0046,-13.8258 -11.6328,-16.2568 -8.1859,-3.2713 -16.7215,-5.5386 -25.1516,-8.0754 -10.6728,-3.1009 -17.6074,-6.3044 -28.2511,-9.5031 -1.634,-0.5123 -3.3158,-0.9349 -4.8985,-1.5745 -6.4463,-4.0275 -11.4798,-10.04 -14.9988,-16.7269 -0.6308,-10.1283 2.4237,-19.9428 4.0156,-29.8414 0.7111,-3.8042 0.5769,-8.0798 -1.8053,-11.3085 -2.8415,-4.4602 -11.7784,-7.3612 -17.0919,-7.1782 -0.3216,0.091 -0.6432,0.1823 -0.9649,0.2734 z m 241.4961,179.3652 c 1.4323,-0.5267 2.8646,-1.0533 4.2969,-1.58 -1.4323,0.5267 -2.8646,1.0533 -4.2969,1.58 z"
       id="path4496-04"
       inkscape:connector-curvature="0"
       sodipodi:nodetypes="ccccccccccccccccccccccccccccccc" />
    <path
       style="display:inline;fill:#ffffff;stroke:none;stroke-width:0.87079054"
       d="m 585.06775,1870.6276 c -47.43242,0.6782 -95.45687,4.0668 -141.25008,21.8937 -22.35693,8.6654 -44.2023,24.0214 -58.59379,49.0945 -10.57098,18.6698 -13.30406,42.9761 -12.77408,65.8184 0.42793,19.7036 1.82751,40.4055 9.79917,57.5486 6.04861,13.3917 15.59732,23.245 25.54283,31.1095 18.51227,14.0953 39.61548,20.0699 60.23249,26.0222 51.78034,13.9844 104.83338,15.5838 157.48685,15.8606 53.55806,-0.034 107.21133,-1.5616 160.51318,-9.0154 27.58801,-4.4177 55.60992,-12.8394 79.35556,-32.9338 17.95288,-15.5347 31.56884,-41.2612 33.74739,-70.0746 1.66903,-20.1457 -0.23695,-40.8139 -5.22352,-59.9342 -6.74727,-24.9872 -20.22108,-47.0031 -38.09115,-59.073 -21.07942,-15.0988 -45.1489,-19.7219 -68.58777,-23.4983 -31.66841,-4.6248 -63.53862,-5.7861 -95.30786,-8.6309 -35.58424,-2.5148 -71.2097,-4.3192 -106.84922,-4.1873 z"
       id="path3280-8-1"
       inkscape:connector-curvature="0"
       sodipodi:nodetypes="csssc" />
    <path
       style="color:#000000;display:inline;overflow:visible;visibility:visible;fill:#ffffff;fill-opacity:1;fill-rule:nonzero;stroke:none;stroke-width:0.99682px;marker:none;enable-background:accumulate"
       d="m 976.14415,2052.4384 c -53.06818,0.5959 -106.65411,8.0909 -156.56569,28.4393 -16.66499,6.9887 -33.49825,15.8155 -45.24596,30.9422 -21.38673,27.1714 -27.31492,68.1619 -13.06397,100.6723 13.26593,31.7051 41.59214,54.7234 72.80683,61.3942 51.53885,15.5805 105.28786,20.8482 158.64337,20.149 32.81867,0.1016 66.29717,-0.1208 97.94457,-10.7792 22.3265,-7.4161 43.9604,-19.2416 60.4991,-37.4789 22.5231,-25.1964 34.5593,-61.8426 29.6531,-96.8414 -2.5489,-17.5816 -10.8434,-34.049 -23.0984,-45.8327 -12.7039,-12.7217 -28.7333,-20.6139 -45.0028,-26.3199 -30.6348,-11.4217 -62.6206,-18.0035 -94.7138,-22.2064 -13.9022,-1.554 -27.8819,-2.2515 -41.85635,-2.1385 z"
       id="path4546-1"
       inkscape:connector-curvature="0"
       sodipodi:nodetypes="cssssc" />
    <text
       xml:space="preserve"
       style="font-style:normal;font-variant:normal;font-weight:normal;font-stretch:normal;line-height:0%;font-family:Lavi;-inkscape-font-specification:Lavi;text-align:center;letter-spacing:0px;word-spacing:0px;text-anchor:middle;display:inline;fill:#000000;fill-opacity:1;stroke:none"
       x="628.37128"
       y="1939.3921"
       id="text4246-7-6-1-7-6-3-5-6"><tspan
         sodipodi:role="line"
         style="font-size:45px;line-height:1.25"
         x="628.37128"
         y="1939.3921"
         id="tspan979">Když nad tím tak</tspan><tspan
         sodipodi:role="line"
         style="font-size:45px;line-height:1.25"
         x="628.37128"
         y="1995.6421"
         id="tspan3755">přemýšlím, asi bych</tspan><tspan
         sodipodi:role="line"
         style="font-size:45px;line-height:1.25"
         x="628.37128"
         y="2051.8921"
         id="tspan3771">nakonec radši tu </tspan><tspan
         id="tspan29"
         sodipodi:role="line"
         style="font-size:45px;line-height:1.25"
         x="628.37128"
         y="2108.1421">malou holku.</tspan><tspan
         sodipodi:role="line"
         style="font-size:45px;line-height:1.25"
         x="635.40253"
         y="2164.3921"
         id="tspan848"> </tspan></text>
    <text
       xml:space="preserve"
       style="font-style:normal;font-variant:normal;font-weight:normal;font-stretch:normal;line-height:0%;font-family:Lavi;-inkscape-font-specification:Lavi;text-align:center;letter-spacing:0px;word-spacing:0px;text-anchor:middle;display:inline;fill:#000000;fill-opacity:1;stroke:none"
       x="969.6701"
       y="2132.6045"
       id="text4246-7-6-1-7-6-3-5-6-4"><tspan
         sodipodi:role="line"
         style="font-size:45px;line-height:1.25"
         x="969.6701"
         y="2132.6045"
         id="tspan862">Tahle bude</tspan><tspan
         sodipodi:role="line"
         style="font-size:45px;line-height:1.25"
         x="969.6701"
         y="2188.8545"
         id="tspan3757">určitě chtít strašně</tspan><tspan
         sodipodi:role="line"
         style="font-size:45px;line-height:1.25"
         x="969.6701"
         y="2245.1045"
         id="tspan836">moc peněz.</tspan></text>
    <text
       xml:space="preserve"
       style="font-style:normal;font-variant:normal;font-weight:normal;font-stretch:normal;line-height:0%;font-family:Lavi;-inkscape-font-specification:'Lavi, Normal';text-align:center;letter-spacing:0px;word-spacing:0px;writing-mode:lr-tb;text-anchor:middle;display:inline;fill:#241c1c;fill-opacity:1;stroke:#000000;stroke-width:0.822;stroke-miterlimit:4;stroke-dasharray:none;stroke-opacity:1"
       x="3348.4124"
       y="3325.6951"
       id="text4213"
       transform="matrix(0.96049651,0,-0.32716292,1.0411282,0,0)"><tspan
         sodipodi:role="line"
         id="tspan3562"
         x="3348.4124"
         y="3325.6951"
         style="font-style:normal;font-variant:normal;font-weight:normal;font-stretch:normal;font-size:43.8573px;line-height:1.25;font-family:Lavi;-inkscape-font-specification:'Lavi, Normal';text-align:center;writing-mode:lr-tb;text-anchor:middle;stroke-width:0.822">POKRAČOVÁNí PŘÍŠTĚ...</tspan><tspan
         sodipodi:role="line"
         x="3348.4124"
         y="3380.5168"
         style="font-style:normal;font-variant:normal;font-weight:normal;font-stretch:normal;font-size:43.8573px;line-height:1.25;font-family:Lavi;-inkscape-font-specification:'Lavi, Normal';text-align:center;writing-mode:lr-tb;text-anchor:middle;stroke-width:0.822"
         id="tspan856"> </tspan><tspan
         sodipodi:role="line"
         x="3355.2651"
         y="3435.3384"
         style="font-style:normal;font-variant:normal;font-weight:normal;font-stretch:normal;font-size:43.8573px;line-height:1.25;font-family:Lavi;-inkscape-font-specification:'Lavi, Normal';text-align:center;writing-mode:lr-tb;text-anchor:middle;stroke-width:0.822"
         id="tspan858"> </tspan></text>
  </g>
</svg>
