<?xml version="1.0" encoding="UTF-8" standalone="no"?>
<svg
   xmlns:dc="http://purl.org/dc/elements/1.1/"
   xmlns:cc="http://creativecommons.org/ns#"
   xmlns:rdf="http://www.w3.org/1999/02/22-rdf-syntax-ns#"
   xmlns:svg="http://www.w3.org/2000/svg"
   xmlns="http://www.w3.org/2000/svg"
   xmlns:xlink="http://www.w3.org/1999/xlink"
   xmlns:sodipodi="http://sodipodi.sourceforge.net/DTD/sodipodi-0.dtd"
   xmlns:inkscape="http://www.inkscape.org/namespaces/inkscape"
   id="svg2"
   version="1.1"
   inkscape:version="1.0 (4035a4fb49, 2020-05-01)"
   width="2481"
   height="3503"
   sodipodi:docname="E32P02.svg">
  <metadata
     id="metadata8">
    <rdf:RDF>
      <cc:Work
         rdf:about="">
        <dc:format>image/svg+xml</dc:format>
        <dc:type
           rdf:resource="http://purl.org/dc/dcmitype/StillImage" />
        <dc:title />
      </cc:Work>
    </rdf:RDF>
  </metadata>
  <defs
     id="defs6" />
  <sodipodi:namedview
     pagecolor="#ffffff"
     bordercolor="#666666"
     borderopacity="1"
     objecttolerance="10"
     gridtolerance="10"
     guidetolerance="10"
     inkscape:pageopacity="0"
     inkscape:pageshadow="2"
     inkscape:window-width="1366"
     inkscape:window-height="705"
     id="namedview4"
     showgrid="false"
     inkscape:zoom="0.46000001"
     inkscape:cx="1269.7462"
     inkscape:cy="3040.0673"
     inkscape:window-x="-8"
     inkscape:window-y="-8"
     inkscape:window-maximized="1"
     inkscape:current-layer="layer1"
     inkscape:snap-global="false"
     inkscape:document-rotation="0" />
  <g
     inkscape:groupmode="layer"
     id="layer2"
     inkscape:label="artwork"
     sodipodi:insensitive="true">
    <image
       sodipodi:absref="F:\ep32_The-Battlefield_lang-pack\csold\..\gfx_Pepper-and-Carrot_by-David-Revoy_E32P02.png"
       xlink:href="../gfx_Pepper-and-Carrot_by-David-Revoy_E32P02.png"
       y="0"
       x="0"
       id="image10"
       height="3503"
       width="2481" />
  </g>
  <g
     inkscape:groupmode="layer"
     id="layer3"
     inkscape:label="speechbubbles"
     style="display:inline">
    <path
       style="color:#000000;display:inline;overflow:visible;visibility:visible;fill:#ffffff;fill-opacity:1;fill-rule:nonzero;stroke:none;stroke-width:0.99999994px;marker:none;enable-background:accumulate"
       d="m 303.40226,242.57926 c 6.23317,-13.32156 32.5191,-11.58279 41.82188,-7.70285 -17.62056,-17.62881 -15.83439,-27.1707 10.68632,-25.7426 -40.96821,-32.79331 -5.34647,-24.56942 2.59197,-30.85334 -33.58567,-13.4592 -16.68244,-23.7017 -9.13136,-34.92663 -39.83114,-4.83026 -24.57799,-22.47413 -24.50448,-37.86542 -4.20389,6.7604 -22.77095,26.70077 -20.94684,2.40858 -29.03941,20.1501 -62.52976,31.533 -60.3934,-9.126366 -12.97164,19.135546 -24.55812,26.546746 -20.9469,2.408566 -29.96824,28.59289 -52.32274,14.6271 -75.09861,3.08167 -7.34927,8.81832 -9.76366,23.34907 -29.59482,17.68254 1.74824,9.74179 -5.82872,15.46535 -21.695436,17.6039 19.837236,7.96633 22.936536,14.25875 -15.846151,16.36193 28.885817,3.8216 55.743237,8.06724 19.283826,25.85858 10.597721,1.70338 37.960461,-13.48148 20.096531,37.85428 20.27152,-14.8211 40.89807,-21.95507 61.34634,16.06504 13.63976,-16.34948 34.77505,-22.84576 40.99014,0.154 4.23094,-9.04247 17.68916,-11.12728 28.81767,-10.3277 3.85386,4.20567 7.688,9.76209 11.53324,16.91179 9.14491,-13.10329 21.50498,-21.26755 40.99008,0.15403 z"
       id="path3549-3-7-5"
       inkscape:connector-curvature="0"
       sodipodi:nodetypes="cccccccccccccccccccc" />
    <path
       style="color:#000000;display:inline;overflow:visible;visibility:visible;fill:#ffffff;fill-opacity:1;fill-rule:nonzero;stroke:none;stroke-width:0.909211px;marker:none;enable-background:accumulate"
       d="m 462.78096,108.35173 c -50.49155,1.41788 -101.38497,9.72541 -147.16066,29.00161 -31.62964,14.29639 -52.87544,43.45854 -57.16641,74.18955 -5.12687,28.86019 -0.14005,59.68585 17.33733,84.83392 11.90396,14.14692 23.49689,20.25572 40.37128,29.00039 27.82248,14.62475 75.45971,6.58985 107.86591,10.60779 36.64947,5.31476 91.62901,-0.45948 128.57739,-1.91672 33.26835,-2.18793 84.49979,-16.2439 92.90947,-11.80328 39.64999,-26.28548 35.50713,-48.51308 44.29843,-79.8859 7.88431,-27.5638 -1.80151,-39.90245 -18.54801,-64.56131 -13.48998,-19.58011 -36.12254,-32.97281 -60.02939,-41.18002 -40.71703,-14.53253 -83.49543,-26.00212 -127.62907,-28.06926 -6.93415,-0.32416 -13.88557,-0.43653 -20.82627,-0.21677 z"
       id="path3970-3"
       inkscape:connector-curvature="0"
       sodipodi:nodetypes="cccscsccccccc" />
    <path
       style="color:#000000;display:inline;overflow:visible;visibility:visible;fill:#ffffff;fill-opacity:1;fill-rule:nonzero;stroke:none;stroke-width:1px;marker:none;enable-background:accumulate"
       d="m 577.63531,468.51204 c 24.15675,-46.43871 15.15598,-67.79787 10.19676,-83.83511 -5.04081,0.18752 -14.08073,-1.23448 -14.08073,-1.23448 0,0 -7.00281,-32.37916 -13.50272,-43.8635 -6.49993,-11.48435 -19.9552,-4.33851 -19.9552,-4.33851 0,0 12.13026,63.2638 10.96525,77.57434 13.78917,-1.09946 20.70461,0.20644 25.45323,-2.31613 5.66701,8.19382 8.96155,41.29633 0.92341,58.01339 z"
       id="path4456-8"
       inkscape:connector-curvature="0" />
    <path
       style="color:#000000;display:inline;overflow:visible;visibility:visible;opacity:1;fill:#ffffff;fill-opacity:1;fill-rule:nonzero;stroke:none;stroke-width:0.869156px;marker:none;enable-background:accumulate"
       d="m 834.74936,618.1711 c 26.26221,-36.66686 184.91184,-48.17962 227.63634,10.79972 29.7747,41.10222 22.0796,105.83212 -7.2322,140.44273 -28.4031,33.53763 -148.7331,26.29848 -183.75219,15.84847 -31.49106,-9.39607 -64.54554,-29.62193 -66.28824,-83.45399 -0.71119,-21.97046 3.37407,-46.97008 29.63629,-83.63693 z"
       id="path4040-5"
       inkscape:connector-curvature="0"
       sodipodi:nodetypes="zssssz" />
    <path
       style="color:#000000;display:inline;overflow:visible;visibility:visible;fill:#ffffff;fill-opacity:1;fill-rule:nonzero;stroke:none;stroke-width:1px;marker:none;enable-background:accumulate"
       d="m 1172.2087,638.16525 c -22.426,10.78245 -21.9205,17.27525 -23.5228,31.76828 -1.6032,14.49315 -6.5002,31.6111 -27.1248,48.30404 -30.1996,17.58679 -94.1328,69.98654 -71.7029,5.83439 5.3345,-23.46958 48.5109,-22.99772 64.4153,-32.38817 15.9045,-9.39055 14.6245,-34.55514 25.6984,-44.48017 11.0738,-9.92492 18.2375,-9.80409 32.2368,-9.03837 z"
       id="path4538-0"
       inkscape:connector-curvature="0"
       sodipodi:nodetypes="ccccccc" />
    <path
       style="fill:#ffffff;stroke:none;stroke-width:0.889726"
       d="m 786.15411,530.38172 c -6.72721,-38.80164 11.57573,-88.11058 93.71527,-88.14796 86.26254,-0.0389 102.19265,25.32295 103.18227,89.39769 1.26228,81.72984 -47.37287,84.82282 -98.3169,86.44662 -78.26744,2.49471 -98.15918,-30.03767 -98.58064,-87.69635 z"
       id="path3280-10"
       inkscape:connector-curvature="0"
       sodipodi:nodetypes="csssc" />
    <path
       style="display:inline;fill:#ffffff;fill-rule:evenodd;stroke:none;stroke-width:1px;stroke-linecap:butt;stroke-linejoin:miter;stroke-opacity:1"
       d="m 1421.2564,2567.434 c 1.089,83.8516 -35.0397,98.5217 -98.466,62.4486 19.4207,51.0035 42.0508,106.1357 -7.7229,68.1251 32.2153,46.3097 18.6035,57.9675 -27.0299,45.4159 40.4808,42.6288 17.7471,66.3267 -21.2378,85.1558 26.133,0.6518 47.3808,3.6986 63.5087,9.2534 -27.0728,12.4132 -49.8447,11.9745 -49.8447,11.9745 0,0 26.051,9.5285 37.8586,21.6865 4.4967,8.6597 -1.1211,19.6686 -24.9366,2.4364 0,0 6.7373,10.8779 9.5778,16.9414 -7.6173,-1.3969 -13.9295,-6.5314 -35.0179,-22.6505 24.1109,28.0772 36.0489,49.6889 1.5196,46.6254 16.4995,20.8496 4.7236,23.4469 -14.1772,21.4408 31.4479,15.2823 14.4826,17.4302 19.2607,22.8207 35.3953,45.7999 -8.8237,28.149 -24.039,37.6092 77.6988,28.5826 50.5851,40.2902 42.4328,55.0515 53.5753,-4.1333 -12.6209,50.0078 -29.9156,88.2293 40.7897,-34.8506 69.1754,-57.7404 52.4591,-10.0395 44.1671,-42.2078 36.574,-22.2347 24.251,3.4203 25.3662,-23.0409 32.7842,-13.5695 10.7863,49.1851 32.8822,-50.1811 64.8771,-97.0467 71.9142,-50.4924 36.8947,-23.0829 41.7441,-13.0114 45.1466,-1.4465 62.2883,-24.8466 46.1852,-4.4338 50.1649,4.3866 13.4218,-1.1137 29.5597,-15.5051 34.9256,22.7717 20.6852,-28.3307 45.5096,-38.4104 82.4104,4.7471 14.3662,-46.911 27.438,-37.3251 50.5908,21.3978 3.2349,-89.4743 39.0355,-103.0978 98.7192,-61.0885 -16.2299,-55.4715 -27.5352,-62.7385 18.8049,-19.4259 -28.882,-51.1812 -15.0806,-62.8529 28.5458,-46.9194 -37.0887,-47.718 -13.823,-71.7168 24.9596,-89.6168 -20.0761,-1.7088 -37.0923,-4.8513 -50.9405,-9.4807 -0.8346,-2.6995 5.8867,-10.6253 26.2737,-13.6312 -28.599,0 -25.5952,-4.1241 -24.0901,-14.111 2.2836,-9.9868 13.2385,-7.5022 48.02,-0.941 -20.2879,-14.5193 -59.0967,-30.9922 -16.3764,-34.0263 -22.3198,-12.8123 -14.3102,-37.5699 37.3114,-5.5526 -26.1708,-24.9596 -39.5082,-44.5298 -3.8614,-43.5246 -17.99,-18.6102 -6.0138,-21.6717 13.5148,-20.8136 -33.0818,-12.5984 -15.7476,-15.522 -20.9252,-20.306 -38.6454,-40.9263 7.6816,-26.7997 22.8559,-36.4665 -81.2833,-22.5461 -53.989,-34.9567 -46.3369,-49.2008 -54.8706,6.7511 28.4364,-74.6852 59.8519,-123.0041 -62.8041,65.3664 -101.7125,96.6053 -86.8818,51.0942 -43.3207,41.8523 -36.5013,22.7651 -25.0992,-1.8914 -24.9392,22.9143 -33.0322,14.4558 -13.5149,-45.418 -31.3266,48.7012 -61.9055,94.2534 -71.4362,51.0943 -36.7883,23.5746 -42.2686,14.4173 -46.3371,3.7848 -62.8054,26.5917 -47.2587,6.6331 -51.7849,-1.4014 -13.7426,1.7644 -29.6231,16.0937 -37.0276,-19.4142 -19.8662,27.6094 -44.8884,38.3742 -84.9511,0 -12.4538,44.6455 -33.453,24.3792 -63.7134,-66.2335 z"
       id="path4508-2"
       inkscape:connector-curvature="0"
       sodipodi:nodetypes="ccccccccccccccccccccccccccccccccccccccccccccccccccc" />
    <path
       style="color:#000000;display:inline;overflow:visible;visibility:visible;fill:#ffffff;fill-opacity:1;fill-rule:nonzero;stroke:none;stroke-width:0.99999988px;marker:none;enable-background:accumulate"
       d="m 1159.215,2912.3636 c 24.9289,15.9696 53.0046,32.3355 73.7186,51.7212 l -4.4671,-22.5612 c 12.3017,3.6243 20.5576,9.2984 29.8695,16.4802 l 0.282,-14.4184 c 28.8782,8.8394 47.895,25.3613 71.6781,38.17 l -1.1627,-32.9839 c -26.1704,-10.6456 -58.8089,-18.5611 -82.5747,-33.2158 l 0.2558,18.7223 c -9.1838,-4.1156 -21.518,-9.7867 -29.518,-15.5652 l 2.2339,19.9359 z"
       id="path4032-7"
       inkscape:connector-curvature="0"
       sodipodi:nodetypes="cccccccccccc" />
    <path
       style="fill:#ffffff;fill-rule:evenodd;stroke:none;stroke-width:1px;stroke-linecap:butt;stroke-linejoin:miter;stroke-opacity:1"
       d="m 1753.7087,204.34351 c 1.185,-20.50278 15.4056,-58.09068 36.7365,-64.92493 21.3308,-6.83426 80.5831,-6.83426 92.4336,-3.41661 11.8505,3.41661 30.8112,28.4752 35.5515,38.72712 4.7402,10.25086 17.7757,46.69954 -3.5551,61.50728 -21.3309,14.80774 -42.6617,26.19782 -65.1777,25.0586 -22.5159,-1.13922 -67.5477,-9.1127 -78.2131,-22.78016 -10.6654,-13.66852 -17.7757,-34.1713 -17.7757,-34.1713 z"
       id="path1355"
       inkscape:connector-curvature="0" />
    <path
       style="fill:#ffffff;stroke:none"
       d="m 1847.3696,354.09054 c -13.8328,-28.3217 -7.9502,-36.13851 -0.501,-44.49778 7.4497,-8.36018 15.1632,-15.13458 14.5125,-22.36198 -0.6506,-7.22728 -5.6372,-15.60621 -10.1839,-21.34253 -4.5468,-5.73632 4.0413,-9.66514 7.9076,-16.31667 3.8657,-6.6508 10.7042,-47.80659 10.7042,-47.80659 0,0 -26.0852,17.5715 -32.236,25.43439 -6.1509,7.86277 -8.4405,10.70667 -10.0173,14.51431 -1.5759,3.80696 -4.0646,13.75357 -0.9533,20.82655 3.1118,7.07218 9.494,12.21912 13.0595,17.0376 3.5649,4.81933 -1.3116,12.15392 -5.5827,19.6909 -4.2712,7.53691 -6.1414,13.7099 -2.3508,27.83912 3.2494,12.11102 15.6412,26.98268 15.6412,26.98268 z"
       id="path3023-4"
       inkscape:connector-curvature="0"
       sodipodi:nodetypes="csssscssssssc" />
    <path
       style="color:#000000;display:inline;overflow:visible;visibility:visible;fill:#ffffff;fill-opacity:1;fill-rule:nonzero;stroke:none;stroke-width:1px;marker:none;enable-background:accumulate"
       d="m 1776.3464,1315.529 c 3.2527,-11.321 20.627,-46.387 25.7118,-9.291 37.4381,-49.672 83.6395,-32.169 93.8806,-24.931 -4.7258,-14.705 4.8022,-41.137 32.0153,-34.638 -5.1706,-14.206 2.6362,-24.873 22.022,-32.381 -27.4731,-6.646 -33.2796,-15.291 15.0553,-28.938 -37.6389,2.046 -72.8702,2.901 -32.2408,-33.757 -13.9008,0.297 -43.8343,30.571 -36.8893,-51.608 -21.0909,27.809 -44.9596,44.128 -82.345,-7.637 -7.5628,22.215 -20.6761,37.852 -51.7969,10.837 -3.8196,21.757 -37.5549,26.216 -50.4824,22.884 27.6128,21.802 28.2717,36.657 -5.6527,41.671 61.708,38.345 14.2263,35.6 6.113,47.213 46.5049,11.207 28.2717,31.183 22.1502,50.136 51.7672,-3.483 37.8708,27.229 42.4589,50.44 z"
       id="path3549-3-8"
       inkscape:connector-curvature="0"
       sodipodi:nodetypes="ccccccccccccccc" />
    <path
       style="color:#000000;display:inline;overflow:visible;visibility:visible;fill:#ffffff;fill-opacity:1;fill-rule:nonzero;stroke:none;stroke-width:1px;marker:none;enable-background:accumulate"
       d="m 1862.3291,1246.0499 c 14.3861,24.2296 28.6134,53.9163 31.3484,61.3263 -9.104,1.8541 -16.3446,4.7584 -22.9617,5.3139 6.2417,13.3724 31.8119,68.3466 45.0873,79.3414 -33.7825,-25.8525 -61.563,-70.2493 -70.1237,-92.8544 8.499,-2.3387 14.007,-2.5569 18.4447,-3.9047 -3.7254,-11.4708 -23.6989,-46.1206 -23.6989,-46.1206 z"
       id="path5066-8"
       inkscape:connector-curvature="0"
       sodipodi:nodetypes="cccccccc" />
    <path
       style="fill:#ffffff;stroke:none;stroke-width:0.99999988"
       d="m 585.04713,1483.669 c -1.37338,-27.1718 23.25103,-95.1953 143.36788,-90.0791 120.11691,5.1162 157.71158,35.0056 161.23156,83.3044 5.56834,76.4076 -57.625,96.826 -148.365,102.4861 -93.54306,5.8339 -157.68622,-46.6144 -156.23444,-95.7114 z"
       id="path3280-7"
       inkscape:connector-curvature="0"
       sodipodi:nodetypes="csssc" />
    <path
       style="color:#000000;display:inline;overflow:visible;visibility:visible;fill:#ffffff;fill-opacity:1;fill-rule:nonzero;stroke:none;stroke-width:1px;marker:none;enable-background:accumulate"
       d="m 869.08895,1636.9955 c -67.24677,1.2844 -93.00504,-48.0053 -100.0269,-87.4546 -9.92573,-55.7646 -2.09042,-31.0329 -2.09042,-31.0329 l -33.99104,26.0816 c -4.43616,0.2077 36.58553,127.7062 136.10836,92.4059 z"
       id="path3072-12"
       inkscape:connector-curvature="0"
       sodipodi:nodetypes="csccc" />
    <path
       style="fill:#ffffff;fill-rule:evenodd;stroke:none;stroke-width:1px;stroke-linecap:butt;stroke-linejoin:miter;stroke-opacity:1"
       d="m 542.83913,1378.9971 c 1.0808,-19.455 14.0506,-55.122 33.5054,-61.607 19.4547,-6.485 73.4956,-6.485 84.3038,-3.242 10.8082,3.242 28.1013,27.02 32.4246,36.748 4.3233,9.727 16.2123,44.313 -3.2424,58.364 -19.4548,14.051 -38.9095,24.859 -59.4451,23.778 -20.5356,-1.081 -61.6067,-8.647 -71.334,-21.616 -9.7274,-12.97 -16.2123,-32.425 -16.2123,-32.425 z"
       id="path1355-3"
       inkscape:connector-curvature="0" />
  </g>
  <g
     inkscape:groupmode="layer"
     id="layer1"
     inkscape:label="txt">
    <text
       xml:space="preserve"
       style="font-style:normal;font-variant:normal;font-weight:normal;font-stretch:normal;line-height:0%;font-family:Lavi;-inkscape-font-specification:Lavi;text-align:center;letter-spacing:0px;word-spacing:0px;text-anchor:middle;fill:#000000;fill-opacity:1;stroke:none"
       x="215.52534"
       y="182.54718"
       id="text4246-3-3"><tspan
         sodipodi:role="line"
         style="font-style:normal;font-variant:normal;font-weight:bold;font-stretch:normal;font-size:45px;line-height:1.25;font-family:Lavi;-inkscape-font-specification:'Lavi Bold'"
         x="215.52534"
         y="182.54718"
         id="tspan67">	Kapitáne!</tspan><tspan
         sodipodi:role="line"
         style="font-style:normal;font-variant:normal;font-weight:bold;font-stretch:normal;font-size:45px;line-height:1.25;font-family:Lavi;-inkscape-font-specification:'Lavi Bold'"
         x="222.55659"
         y="238.79718"
         id="tspan852"> </tspan></text>
    <text
       xml:space="preserve"
       style="font-style:normal;font-variant:normal;font-weight:normal;font-stretch:normal;line-height:0%;font-family:Lavi;-inkscape-font-specification:Lavi;text-align:center;letter-spacing:0px;word-spacing:0px;text-anchor:middle;fill:#000000;fill-opacity:1;stroke:none"
       x="472.40924"
       y="180.67336"
       id="text4246-3-5-9"><tspan
         sodipodi:role="line"
         style="font-size:45px;line-height:1.25"
         x="472.40924"
         y="180.67336"
         id="tspan75">Sehnal jste</tspan><tspan
         sodipodi:role="line"
         style="font-size:45px;line-height:1.25"
         x="472.40924"
         y="236.92336"
         id="tspan3409">čarodějku, jak</tspan><tspan
         sodipodi:role="line"
         style="font-size:45px;line-height:1.25"
         x="472.40924"
         y="293.17334"
         id="tspan868">jsem po Vás chtěl?</tspan></text>
    <text
       xml:space="preserve"
       style="font-style:normal;font-variant:normal;font-weight:normal;font-stretch:normal;line-height:0%;font-family:Lavi;-inkscape-font-specification:Lavi;text-align:center;letter-spacing:0px;word-spacing:0px;text-anchor:middle;fill:#000000;fill-opacity:1;stroke:none"
       x="883.4093"
       y="509.67288"
       id="text4246-1-6"><tspan
         sodipodi:role="line"
         style="font-style:normal;font-variant:normal;font-weight:normal;font-stretch:normal;font-size:45px;line-height:1.25;font-family:Lavi;-inkscape-font-specification:Lavi"
         x="883.4093"
         y="509.67288"
         id="tspan915">Ano,</tspan><tspan
         sodipodi:role="line"
         style="font-style:normal;font-variant:normal;font-weight:normal;font-stretch:normal;font-size:45px;line-height:1.25;font-family:Lavi;-inkscape-font-specification:Lavi"
         x="883.4093"
         y="565.92285"
         id="tspan3389">pane!</tspan></text>
    <text
       xml:space="preserve"
       style="font-style:normal;font-variant:normal;font-weight:normal;font-stretch:normal;line-height:0%;font-family:Lavi;-inkscape-font-specification:Lavi;text-align:center;letter-spacing:0px;word-spacing:0px;text-anchor:middle;display:inline;fill:#000000;fill-opacity:1;stroke:none"
       x="941.46912"
       y="678.03656"
       id="text4246-7-6-1-7-6-3-5"><tspan
         sodipodi:role="line"
         style="font-size:45px;line-height:1.25"
         x="941.46912"
         y="678.03656"
         id="tspan960">Stojí</tspan><tspan
         sodipodi:role="line"
         style="font-size:45px;line-height:1.25"
         x="941.46912"
         y="734.28656"
         id="tspan931">vedle Vás.</tspan></text>
    <text
       xml:space="preserve"
       style="font-style:normal;font-variant:normal;font-weight:normal;font-stretch:normal;line-height:0%;font-family:Lavi;-inkscape-font-specification:Lavi;text-align:center;letter-spacing:0px;word-spacing:0px;text-anchor:middle;fill:#000000;fill-opacity:1;stroke:none;stroke-width:1"
       x="1859.6963"
       y="214.15907"
       id="text4246-86-3-3"
       transform="scale(0.98795945,1.0121873)"><tspan
         sodipodi:role="line"
         style="font-size:59.6531px;line-height:1.2;stroke-width:1"
         x="1859.6963"
         y="214.15907"
         id="tspan1044-3"><tspan
           style="font-style:normal;font-variant:normal;font-weight:bold;font-stretch:normal;font-family:Lavi;-inkscape-font-specification:'Lavi Bold';stroke-width:1"
           id="tspan1046-9">...?</tspan></tspan></text>
    <text
       xml:space="preserve"
       style="font-style:normal;font-variant:normal;font-weight:normal;font-stretch:normal;line-height:0%;font-family:Lavi;-inkscape-font-specification:Lavi;text-align:center;letter-spacing:0px;word-spacing:0px;text-anchor:middle;fill:#000000;fill-opacity:1;stroke:none"
       x="622.40643"
       y="1389.9771"
       id="text4246-3-7-7-6-7-2-9-6-1-4"><tspan
         sodipodi:role="line"
         style="font-size:45px;line-height:1.2"
         x="622.40643"
         y="1389.9771"
         id="tspan1183-0">Ahoj!</tspan></text>
    <text
       xml:space="preserve"
       style="font-style:normal;font-variant:normal;font-weight:normal;font-stretch:normal;line-height:0%;font-family:Lavi;-inkscape-font-specification:Lavi;text-align:center;letter-spacing:0px;word-spacing:0px;text-anchor:middle;fill:#000000;fill-opacity:1;stroke:none"
       x="736.13556"
       y="1470.2469"
       id="text4246-7-5"><tspan
         sodipodi:role="line"
         style="font-size:45px;line-height:1.25"
         x="736.13556"
         y="1470.2469"
         id="tspan4169-1">Jmenuju </tspan><tspan
         sodipodi:role="line"
         style="font-size:45px;line-height:1.25"
         x="736.13556"
         y="1526.4969"
         id="tspan1089">se Fefe...</tspan></text>
    <text
       xml:space="preserve"
       style="font-style:normal;font-variant:normal;font-weight:normal;font-stretch:normal;line-height:0%;font-family:Lavi;-inkscape-font-specification:Lavi;text-align:center;letter-spacing:0px;word-spacing:0px;text-anchor:middle;display:inline;fill:#000000;fill-opacity:1;stroke:none"
       x="2271.7188"
       y="1112.7358"
       id="text4246-2-3-1-3-9-9-7"
       transform="matrix(0.89365154,0,-0.19329856,1.1190044,0,0)"><tspan
         sodipodi:role="line"
         style="font-size:104.296px;line-height:1.25;letter-spacing:-5px"
         x="2269.2188"
         y="1112.7358"
         id="tspan4161-6">?!!</tspan></text>
    <text
       xml:space="preserve"
       style="font-style:normal;font-variant:normal;font-weight:normal;font-stretch:normal;line-height:0%;font-family:Lavi;-inkscape-font-specification:Lavi;text-align:center;letter-spacing:29.109px;word-spacing:0px;text-anchor:middle;fill:#000000;fill-opacity:1;stroke:none;stroke-width:1"
       x="2270.311"
       y="2635.9817"
       id="text4246-6-6-3-6"
       transform="matrix(0.94427779,0,-0.21829887,1.0590104,0,0)"><tspan
         sodipodi:role="line"
         style="font-style:normal;font-variant:normal;font-weight:bold;font-stretch:normal;font-size:107.744px;line-height:1.2;font-family:Lavi;-inkscape-font-specification:'Lavi Bold';letter-spacing:4px;stroke-width:1"
         x="2272.311"
         y="2635.9817"
         id="tspan4252-00-4-7-3">TUPČE!!!</tspan></text>
    <text
       xml:space="preserve"
       style="font-style:normal;font-variant:normal;font-weight:normal;font-stretch:normal;line-height:0%;font-family:Lavi;-inkscape-font-specification:Lavi;text-align:center;letter-spacing:14.3px;word-spacing:0px;text-anchor:middle;fill:#000000;fill-opacity:1;stroke:none;stroke-width:1"
       x="1649.1097"
       y="2743.3806"
       id="text4246-6-3"
       transform="scale(0.94973823,1.0529217)"><tspan
         sodipodi:role="line"
         style="font-style:normal;font-variant:normal;font-weight:bold;font-stretch:normal;font-size:52.9302px;line-height:1.2;font-family:Lavi;-inkscape-font-specification:'Lavi Bold';letter-spacing:0.9px;stroke-width:1"
         x="1649.5597"
         y="2743.3806"
         id="tspan1117">Vy jste najal dítě?!</tspan></text>
    <text
       xml:space="preserve"
       style="font-style:normal;font-variant:normal;font-weight:normal;font-stretch:normal;line-height:0%;font-family:Lavi;-inkscape-font-specification:Lavi;text-align:center;letter-spacing:14.3px;word-spacing:0px;text-anchor:middle;fill:#000000;fill-opacity:1;stroke:none;stroke-width:1"
       x="1640.3445"
       y="2842.5552"
       id="text4246-6-3-4"
       transform="scale(0.94973823,1.0529217)"><tspan
         sodipodi:role="line"
         style="font-style:normal;font-variant:normal;font-weight:bold;font-stretch:normal;font-size:52.9302px;line-height:1.2;font-family:Lavi;-inkscape-font-specification:'Lavi Bold';letter-spacing:0.9px;stroke-width:1"
         x="1640.3445"
         y="2842.5552"
         id="tspan1117-6">Potřebuju pořádnou</tspan><tspan
         sodipodi:role="line"
         style="font-style:normal;font-variant:normal;font-weight:bold;font-stretch:normal;font-size:52.9302px;line-height:1.2;font-family:Lavi;-inkscape-font-specification:'Lavi Bold';letter-spacing:0.9px;stroke-width:1"
         x="1640.7944"
         y="2906.0715"
         id="tspan1142">bitevní čarodějku!</tspan></text>
  </g>
</svg>
