<?xml version="1.0" encoding="UTF-8" standalone="no"?>
<svg
   xmlns:dc="http://purl.org/dc/elements/1.1/"
   xmlns:cc="http://creativecommons.org/ns#"
   xmlns:rdf="http://www.w3.org/1999/02/22-rdf-syntax-ns#"
   xmlns:svg="http://www.w3.org/2000/svg"
   xmlns="http://www.w3.org/2000/svg"
   xmlns:xlink="http://www.w3.org/1999/xlink"
   xmlns:sodipodi="http://sodipodi.sourceforge.net/DTD/sodipodi-0.dtd"
   xmlns:inkscape="http://www.inkscape.org/namespaces/inkscape"
   id="svg2"
   version="1.1"
   inkscape:version="1.0 (4035a4fb49, 2020-05-01)"
   width="2481"
   height="3503"
   sodipodi:docname="E32P03.svg">
  <metadata
     id="metadata8">
    <rdf:RDF>
      <cc:Work
         rdf:about="">
        <dc:format>image/svg+xml</dc:format>
        <dc:type
           rdf:resource="http://purl.org/dc/dcmitype/StillImage" />
        <dc:title />
      </cc:Work>
    </rdf:RDF>
  </metadata>
  <defs
     id="defs6">
    <filter
       inkscape:collect="always"
       style="color-interpolation-filters:sRGB"
       id="filter4213-8-8"
       x="-0.0010298714"
       width="1.0020597"
       y="-0.0014578935"
       height="1.0029159">
      <feGaussianBlur
         inkscape:collect="always"
         stdDeviation="0.24308766"
         id="feGaussianBlur4215-7-9" />
    </filter>
    <filter
       inkscape:collect="always"
       style="color-interpolation-filters:sRGB"
       id="filter1266-5-1"
       x="-0.013221323"
       width="1.0264426"
       y="-0.024911748"
       height="1.0498235">
      <feGaussianBlur
         inkscape:collect="always"
         stdDeviation="0.78825367"
         id="feGaussianBlur1268-9-2" />
    </filter>
    <filter
       inkscape:collect="always"
       style="color-interpolation-filters:sRGB"
       id="filter1395"
       x="-0.01195875"
       width="1.0239176"
       y="-0.014728761"
       height="1.0294574">
      <feGaussianBlur
         inkscape:collect="always"
         stdDeviation="0.26634151"
         id="feGaussianBlur1397" />
    </filter>
    <filter
       inkscape:collect="always"
       style="color-interpolation-filters:sRGB"
       id="filter1266"
       x="-0.013221323"
       width="1.0264426"
       y="-0.024911748"
       height="1.0498235">
      <feGaussianBlur
         inkscape:collect="always"
         stdDeviation="0.78825367"
         id="feGaussianBlur1268" />
    </filter>
    <filter
       inkscape:collect="always"
       style="color-interpolation-filters:sRGB"
       id="filter1639"
       x="-0.022949615"
       width="1.0458992"
       y="-0.048711937"
       height="1.0974239">
      <feGaussianBlur
         inkscape:collect="always"
         stdDeviation="0.45636794"
         id="feGaussianBlur1641" />
    </filter>
    <filter
       inkscape:collect="always"
       style="color-interpolation-filters:sRGB"
       id="filter1266-5"
       x="-0.013221323"
       width="1.0264426"
       y="-0.024911748"
       height="1.0498235">
      <feGaussianBlur
         inkscape:collect="always"
         stdDeviation="0.78825367"
         id="feGaussianBlur1268-9" />
    </filter>
    <filter
       inkscape:collect="always"
       style="color-interpolation-filters:sRGB"
       id="filter4213-0"
       x="-0.0010298714"
       width="1.0020597"
       y="-0.0014578935"
       height="1.0029159">
      <feGaussianBlur
         inkscape:collect="always"
         stdDeviation="0.24308766"
         id="feGaussianBlur4215-2" />
    </filter>
    <filter
       inkscape:collect="always"
       style="color-interpolation-filters:sRGB"
       id="filter4213-1"
       x="-0.0010298714"
       width="1.0020597"
       y="-0.0014578935"
       height="1.0029159">
      <feGaussianBlur
         inkscape:collect="always"
         stdDeviation="0.24308766"
         id="feGaussianBlur4215-9" />
    </filter>
    <filter
       inkscape:collect="always"
       style="color-interpolation-filters:sRGB"
       id="filter4213"
       x="-0.0010298714"
       width="1.0020597"
       y="-0.0014578935"
       height="1.0029159">
      <feGaussianBlur
         inkscape:collect="always"
         stdDeviation="0.24308766"
         id="feGaussianBlur4215" />
    </filter>
    <filter
       style="color-interpolation-filters:sRGB"
       id="filter5561-1"
       inkscape:label="deevad outline effect">
      <feFlood
         id="feFlood5563-9"
         flood-opacity="1"
         flood-color="rgb(0,0,0)"
         result="flood" />
      <feComposite
         id="feComposite5565-0"
         in2="SourceGraphic"
         in="flood"
         operator="in"
         result="composite1" />
      <feMorphology
         id="feMorphology5567-7"
         operator="dilate"
         radius="1.8999999999999999 6.0999999999999996"
         result="result3" />
      <feComposite
         id="feComposite5569-2"
         in2="result3"
         in="SourceGraphic"
         operator="over"
         result="composite2" />
    </filter>
  </defs>
  <sodipodi:namedview
     pagecolor="#ffffff"
     bordercolor="#666666"
     borderopacity="1"
     objecttolerance="10"
     gridtolerance="10"
     guidetolerance="10"
     inkscape:pageopacity="0"
     inkscape:pageshadow="2"
     inkscape:window-width="1366"
     inkscape:window-height="705"
     id="namedview4"
     showgrid="false"
     inkscape:zoom="0.28695652"
     inkscape:cx="1107.316"
     inkscape:cy="2917.3482"
     inkscape:window-x="-8"
     inkscape:window-y="-8"
     inkscape:window-maximized="1"
     inkscape:current-layer="layer3"
     inkscape:snap-global="false"
     inkscape:document-rotation="0" />
  <g
     inkscape:groupmode="layer"
     id="layer2"
     inkscape:label="artwork"
     sodipodi:insensitive="true">
    <image
       sodipodi:absref="F:\ep32_The-Battlefield_lang-pack\csold\..\gfx_Pepper-and-Carrot_by-David-Revoy_E32P03.png"
       xlink:href="../gfx_Pepper-and-Carrot_by-David-Revoy_E32P03.png"
       width="2481"
       height="3503"
       id="image10"
       x="0"
       y="0" />
  </g>
  <g
     inkscape:groupmode="layer"
     id="layer3"
     inkscape:label="speechbubbles">
    <path
       style="fill:#ffffff;stroke:none;stroke-width:1"
       d="m 398.114,201.00414 c -5.05601,45.79219 -76.55264,52.87452 -109.55798,54.22809 -33.00527,1.35308 -120.78689,7.25916 -150.52661,-31.04489 -29.73963,-38.30354 -16.67731,-55.87424 2.66355,-74.53971 16.49319,-15.91759 55.26867,-23.61784 89.211,-27.388 42.14616,-4.68065 112.11842,6.19965 141.34046,25.78953 15.58378,10.44665 31.92572,7.16279 26.86958,52.95498 z"
       id="path3100-98"
       inkscape:connector-curvature="0"
       sodipodi:nodetypes="zsssssz" />
    <path
       style="color:#000000;display:inline;overflow:visible;visibility:visible;fill:#ffffff;fill-opacity:1;fill-rule:nonzero;stroke:none;stroke-width:1.02258px;marker:none;enable-background:accumulate"
       d="m 417.86988,225.88112 c 2.97863,-28.03193 3.40623,-55.0945 42.80497,-71.54827 39.39866,-16.45306 108.80853,-21.00883 195.99201,-16.92193 46.70012,2.18896 105.53023,5.13991 142.76994,16.51774 37.23969,11.37783 52.8891,31.18251 49.06757,72.23926 -3.82151,41.05674 -24.44413,58.99443 -67.46251,69.53996 -43.01829,10.54625 -108.43246,13.70035 -124.18411,14.87216 -15.75164,1.17181 -64.60623,0.16169 -113.07712,-4.57966 -48.4708,-4.74135 -81.62465,-8.05714 -95.84134,-21.81302 -22.28696,-17.42031 -31.42476,-37.90334 -30.06941,-58.30624 z"
       id="path4546-6-2-0"
       inkscape:connector-curvature="0"
       sodipodi:nodetypes="cssssssscc" />
    <path
       style="color:#000000;display:inline;overflow:visible;visibility:visible;fill:#ffffff;fill-opacity:1;fill-rule:nonzero;stroke:none;stroke-width:1.0566107px;marker:none;enable-background:accumulate"
       d="m 1013.1613,134.47461 c -35.57691,0.53823 -71.52918,5.82894 -104.51594,19.62298 -11.12591,5.27951 -18.64774,15.9051 -23.29618,26.99543 -8.64822,19.58471 -17.74528,39.48517 -20.21659,60.98254 -3.16387,23.96917 -1.36122,49.13444 8.62885,71.38846 8.32352,18.29257 24.39628,32.21755 42.53483,40.34836 21.15367,9.74475 43.95303,15.02125 66.41669,20.77345 28.64274,6.73326 58.33984,9.02682 87.67484,6.75011 22.6261,-2.07624 45.0464,-7.39349 65.9064,-16.47084 11.1678,-4.96773 22.1977,-10.90531 30.765,-19.79447 8.9067,-8.90201 15.2542,-20.14332 18.9414,-32.14487 4.9342,-15.70522 6.1272,-32.29209 6.3901,-48.66233 -0.041,-19.10583 -2.6825,-38.56345 -10.5703,-56.11051 -8.7873,-18.83635 -23.868,-34.23574 -41.3703,-45.19986 -25.5776,-16.48399 -55.7207,-24.7521 -85.8622,-27.17663 -13.7732,-1.18578 -27.6099,-1.37631 -41.4266,-1.30182 z"
       id="path4040-41"
       inkscape:connector-curvature="0"
       sodipodi:nodetypes="zssssz" />
    <path
       style="opacity:1;fill:#ffffff;fill-rule:evenodd;stroke:none;stroke-width:1px;stroke-linecap:butt;stroke-linejoin:miter;stroke-opacity:1"
       d="m 1027.5093,510.74622 c 79.9896,-25.34188 116.4009,-40.38771 130.7924,-88.3665 12.0423,-40.14692 -33.9999,-116.14332 -96.0942,-157.07156 -74.30428,-48.97611 -720.91559,-69.58576 -737.53456,-86.65613 -24.24194,-24.90039 -28.29447,37.40472 -7.48472,36.66367 110.11684,-3.92132 657.67116,25.43523 724.93768,68.50333 62.3575,39.92512 107.1789,103.00167 91.9981,146.96092 -14.5457,42.11997 -106.6147,79.96627 -106.6147,79.96627 z"
       id="path4324-2"
       inkscape:connector-curvature="0"
       sodipodi:nodetypes="cssssssc" />
    <path
       style="color:#000000;display:inline;overflow:visible;visibility:visible;fill:#ffffff;fill-opacity:1;fill-rule:nonzero;stroke:none;stroke-width:1px;marker:none;enable-background:accumulate"
       d="m 1465.1898,160.75586 c 4.6299,58.0424 -49.5818,45.56473 -74.1722,27.27436 -2.2983,-1.6925 -4.5282,-3.49395 -6.7758,-5.26655 7.5807,32.63909 7.9206,63.94917 -28.5896,57.06055 17.6245,29.50108 -22.7628,34.82714 -32.4199,35.84961 50.4025,10.44428 17.1056,27.33762 -9.6093,34.65625 27.2029,5.47045 67.5743,-1.33603 33.2099,37.39648 50.6888,-15.87086 70.8511,0.39261 45.7375,49.15625 47.3507,-36.63239 75.0265,-61.70826 80.5777,4.9375 28.8835,-53.579 59.4943,-66.95947 98.1178,2.65777 3.1938,-66.17428 52.588,-33.5212 69.4391,-6.88267 -4.6966,-47.05832 49.6774,-39.35867 63.5775,-27.18325 -6.4455,-46.93794 37.1742,-20.43662 55.0429,-12.24614 -28.23,-31.80398 -11.0524,-56.49275 13.6561,-53.41602 -50.9978,-27.61301 -52.336,-45.70415 -7.1629,-57.75977 -26.2698,-6.35909 -60.2859,-19.18971 -45.2079,-55.71679 -37.4661,17.91152 -50.6366,8.59899 -33.4404,-31.42383 -17.4112,22.94734 -61.7186,61.05751 -53.7496,3.58044 -38.6204,37.59194 -70.3357,43.77553 -98.3666,2.38831 -19.6524,31.9191 -30.7643,51.04462 -70.1378,-6.27184 z"
       id="path3549-3-7-1"
       inkscape:connector-curvature="0"
       sodipodi:nodetypes="ccccccccccccccccccccc" />
    <path
       style="color:#000000;display:inline;overflow:visible;visibility:visible;fill:#ffffff;fill-opacity:1;fill-rule:nonzero;stroke:none;stroke-width:1px;marker:none;enable-background:accumulate"
       d="m 1898.5376,423.83603 c -31.5172,-40.32544 -51.0315,-61.90879 -76.4783,-108.99711 l 3.258,50.97171 c -16.0686,-10.44733 -25.4093,-31.97446 -37.0346,-49.73896 l -2.127,38.51455 c -36.3006,-43.2467 -51.7192,-53.55742 -83.7945,-82.67547 l -29.5303,38.66317 c 49.3632,6.12619 92.5351,44.77214 122.6506,81.95014 l 4.6002,-30.96826 c 11.8245,10.93146 23.3216,22.49541 33.3564,36.88708 l 3.0413,-39.51242 z"
       id="path4032-8"
       inkscape:connector-curvature="0"
       sodipodi:nodetypes="cccccccccccc" />
    <path
       style="fill:#ffffff;fill-opacity:1;stroke:none;stroke-width:2.08585453"
       d="m 415.58919,1219.3743 c -65.9663,1.5041 -132.40718,2.2264 -197.44006,14.633 -26.90261,5.4633 -52.16539,21.8972 -65.64333,46.15 -9.96875,18.9528 -10.94089,41.4051 -6.88028,62.1015 2.38117,15.0931 7.56513,30.8381 19.53032,41.0752 12.602,10.7672 29.57561,14.1812 45.68812,15.1555 89.59365,7.9595 179.6716,9.3449 269.55037,6.926 38.66865,-1.5434 78.10664,-6.2496 113.65439,-22.4785 19.21555,-8.6659 38.00503,-20.6071 49.54599,-38.7197 15.54661,-24.428 18.05878,-57.4592 3.80251,-83.0462 -7.64767,-13.9525 -21.37736,-24.4666 -36.99237,-27.7646 -18.77632,-5.1091 -38.24443,-6.7121 -57.46199,-9.3389 -45.60682,-4.857 -91.54856,-4.7564 -137.35367,-4.6933 z"
       id="path3659-8-8"
       inkscape:connector-curvature="0"
       sodipodi:nodetypes="cssssc" />
    <path
       style="color:#000000;display:inline;overflow:visible;visibility:visible;fill:#ffffff;fill-opacity:1;fill-rule:nonzero;stroke:none;stroke-width:0.99999994px;marker:none;enable-background:accumulate"
       d="m 700.44297,1262.3053 c 41.76085,-49.1309 273.33371,-41.6168 345.36233,-28.9623 78.6061,13.8097 102.8078,33.3771 106.3227,76.2637 1.0858,13.2467 -5.2724,73.317 -43.9382,85.1428 -38.6656,11.8249 -149.38992,17.7378 -188.05562,17.7378 -38.6656,0 -162.09488,-7.5264 -193.32854,-24.8336 -29.87795,-16.5549 -68.12363,-76.2182 -26.36267,-125.3484 z"
       id="path3330-0"
       inkscape:connector-curvature="0"
       sodipodi:nodetypes="zsssssz" />
    <path
       style="color:#000000;display:inline;overflow:visible;visibility:visible;fill:#ffffff;fill-opacity:1;fill-rule:nonzero;stroke:none;stroke-width:0.99999994px;marker:none;enable-background:accumulate"
       d="M 1127.7031 1285.3086 C 1092.5552 1285.8441 1058.1064 1293.742 1024.0877 1301.9027 C 974.95395 1312.3109 924.54864 1316.9562 874.34321 1315.1816 C 836.49134 1313.2099 799.61632 1303.7026 762.13281 1298.7949 C 734.99975 1294.9525 707.63349 1292.7299 680.22775 1292.4274 C 658.61809 1291.7661 636.60413 1291.427 615.51233 1296.8313 C 608.81321 1299.6045 602.41087 1305.8472 602.80279 1313.588 C 604.18008 1322.0196 615.21381 1326.4833 622.27887 1321.9386 C 648.12281 1314.0716 675.51631 1315.2077 702.14578 1316.9461 C 755.63276 1320.7743 807.68268 1335.2218 861.09284 1339.6659 C 897.16535 1342.4662 933.45221 1340.346 969.27328 1335.6383 C 1010.5721 1330.9445 1050.9896 1320.9392 1091.8719 1313.7577 C 1142.0061 1306.2965 1192.7632 1310.9359 1243.1777 1311.2773 C 1277.8468 1310.6571 1312.049 1317.2944 1346.0336 1323.3061 C 1359.112 1325.5698 1371.8244 1329.4786 1384.6429 1332.8152 C 1404.9653 1336.6273 1425.9616 1337.2918 1445.666 1344.0329 C 1447.7405 1344.6023 1450.7004 1345.5883 1452.2182 1345.9087 C 1426.2276 1333.0901 1398.6868 1323.5532 1370.5334 1316.7771 C 1353.3729 1310.3776 1335.7739 1304.7944 1317.5815 1302.301 C 1302.8794 1298.015 1288.5209 1290.6437 1272.8192 1291.4657 C 1224.3424 1292.4539 1176.163 1284.9034 1127.7031 1285.3086 z "
       id="path5050-5"
       inkscape:connector-curvature="0"
       sodipodi:nodetypes="csccscccccccccccc" />
  </g>
  <g
     inkscape:groupmode="layer"
     id="layer1"
     inkscape:label="txt">
    <text
       xml:space="preserve"
       style="font-style:normal;font-variant:normal;font-weight:normal;font-stretch:normal;line-height:0%;font-family:Lavi;-inkscape-font-specification:Lavi;text-align:center;letter-spacing:0px;word-spacing:0px;text-anchor:middle;fill:#000000;fill-opacity:1;stroke:none"
       x="256.33432"
       y="201.81558"
       id="text4246-10"><tspan
         sodipodi:role="line"
         style="font-size:45px;line-height:1.25"
         x="256.33432"
         y="201.81558"
         id="tspan4262">Promiňte!</tspan></text>
    <text
       xml:space="preserve"
       style="font-style:normal;font-variant:normal;font-weight:normal;font-stretch:normal;line-height:0%;font-family:Lavi;-inkscape-font-specification:Lavi;text-align:center;letter-spacing:0px;word-spacing:0px;text-anchor:middle;fill:#000000;fill-opacity:1;stroke:none"
       x="634.14154"
       y="204.53128"
       id="text4246-10-3"><tspan
         sodipodi:role="line"
         style="font-size:45px;line-height:1.25"
         x="634.14154"
         y="204.53128"
         id="tspan4262-6">Já jsem řádnou</tspan><tspan
         sodipodi:role="line"
         style="font-size:45px;line-height:1.25"
         x="634.14154"
         y="260.78128"
         id="tspan3956">čarodějkou Chaosu.</tspan><tspan
         sodipodi:role="line"
         style="font-size:45px;line-height:1.25"
         x="641.17279"
         y="317.03128"
         id="tspan863"> </tspan></text>
    <text
       xml:space="preserve"
       style="font-style:normal;font-variant:normal;font-weight:normal;font-stretch:normal;line-height:0%;font-family:Lavi;-inkscape-font-specification:Lavi;text-align:center;letter-spacing:0px;word-spacing:0px;text-anchor:middle;fill:#000000;fill-opacity:1;stroke:none"
       x="1032.2063"
       y="214.79837"
       id="text4246-10-3-7"><tspan
         sodipodi:role="line"
         style="font-size:45px;line-height:1.25"
         x="1032.2063"
         y="214.79837"
         id="tspan4262-6-5">Dokonce</tspan><tspan
         sodipodi:role="line"
         style="font-size:45px;line-height:1.25"
         x="1032.2063"
         y="271.04837"
         id="tspan3946">mám diplom,</tspan><tspan
         sodipodi:role="line"
         style="font-size:45px;line-height:1.25"
         x="1032.2063"
         y="327.29837"
         id="tspan871">kde stojí...</tspan></text>
    <text
       xml:space="preserve"
       style="font-style:normal;font-variant:normal;font-weight:normal;font-stretch:normal;line-height:0%;font-family:Lavi;-inkscape-font-specification:Lavi;text-align:center;letter-spacing:0px;word-spacing:0px;text-anchor:middle;display:inline;opacity:0.6;fill:#000000;fill-opacity:1;stroke:none;stroke-width:0.61894;filter:url(#filter4213)"
       x="-447.29675"
       y="2872.5061"
       id="text4246-85"
       transform="matrix(1.3704538,0.1102569,-0.31618195,1.2861924,2504.3964,-3016.0417)"><tspan
         sodipodi:role="line"
         style="font-style:normal;font-variant:normal;font-weight:normal;font-stretch:normal;font-size:59.6695px;line-height:1.27;font-family:Fondamento;-inkscape-font-specification:Fondamento;stroke:#000000;stroke-width:0.709879;stroke-opacity:1"
         x="-447.29675"
         y="2872.5061"
         id="tspan4172">Čarodějka</tspan></text>
    <text
       xml:space="preserve"
       style="font-style:normal;font-variant:normal;font-weight:normal;font-stretch:normal;line-height:0%;font-family:Lavi;-inkscape-font-specification:Lavi;text-align:center;letter-spacing:0px;word-spacing:0px;text-anchor:middle;display:inline;opacity:0.6;fill:#000000;fill-opacity:1;stroke:none;stroke-width:0.886809;filter:url(#filter4213-1)"
       x="-447.29675"
       y="2872.5061"
       id="text4246-85-4"
       transform="matrix(0.95085692,0.02172708,-0.16692742,0.91705505,1882.16,-1925.4134)"><tspan
         sodipodi:role="line"
         style="font-style:normal;font-variant:normal;font-weight:normal;font-stretch:normal;font-size:68.8156px;line-height:1.27;font-family:Fondamento;-inkscape-font-specification:Fondamento;stroke:#000000;stroke-width:1.0171;stroke-opacity:1"
         x="-438.89642"
         y="2872.5061"
         id="tspan4172-78"> </tspan></text>
    <text
       xml:space="preserve"
       style="font-style:normal;font-variant:normal;font-weight:normal;font-stretch:normal;line-height:0%;font-family:Lavi;-inkscape-font-specification:Lavi;text-align:center;letter-spacing:0px;word-spacing:0px;text-anchor:middle;display:inline;opacity:0.6;fill:#000000;fill-opacity:1;stroke:none;stroke-width:0.763319;filter:url(#filter4213-0)"
       x="-447.29675"
       y="2872.5061"
       id="text4246-85-3"
       transform="matrix(1.1126099,0.07589889,-0.1953239,1.0489042,2013.3945,-2255.9389)"><tspan
         sodipodi:role="line"
         style="font-style:normal;font-variant:normal;font-weight:normal;font-stretch:normal;font-size:68.8156px;line-height:1.27;font-family:Fondamento;-inkscape-font-specification:Fondamento;stroke:#000000;stroke-width:0.875471;stroke-opacity:1"
         x="-447.29675"
         y="2872.5061"
         id="tspan4172-7">Chaosu</tspan></text>
    <text
       xml:space="preserve"
       style="font-style:normal;font-variant:normal;font-weight:normal;font-stretch:normal;line-height:0%;font-family:Lavi;-inkscape-font-specification:Lavi;text-align:center;letter-spacing:0px;word-spacing:0px;text-anchor:middle;display:inline;opacity:0.699;fill:#202020;fill-opacity:1;stroke:#000000;stroke-width:0.341967;stroke-miterlimit:4;stroke-dasharray:none;stroke-opacity:1;filter:url(#filter1266)"
       x="903.31201"
       y="2924.6372"
       id="text4246-8-3-7"
       transform="matrix(0.98507156,-0.49862606,0.34034107,1.288094,-1030.3969,-2414.1698)"><tspan
         sodipodi:role="line"
         style="font-style:normal;font-variant:normal;font-weight:normal;font-stretch:normal;font-size:51.0087px;line-height:1.25;font-family:Cursivah;-inkscape-font-specification:Cursivah;fill:#202020;fill-opacity:1;stroke:#000000;stroke-width:0.341967;stroke-miterlimit:4;stroke-dasharray:none;stroke-opacity:1"
         x="903.31201"
         y="2924.6372"
         id="tspan4150-8-6-5">Peprína</tspan></text>
    <text
       xml:space="preserve"
       style="font-style:normal;font-variant:normal;font-weight:normal;font-stretch:normal;line-height:0%;font-family:Lavi;-inkscape-font-specification:Lavi;text-align:center;letter-spacing:0px;word-spacing:0px;text-anchor:middle;display:inline;opacity:0.699;fill:#202020;fill-opacity:1;stroke:#000000;stroke-width:0.330534;stroke-miterlimit:4;stroke-dasharray:none;stroke-opacity:1;filter:url(#filter1266-5)"
       x="903.31201"
       y="2924.6372"
       id="text4246-8-3-7-2"
       transform="matrix(1.220593,-0.18795071,-0.05250243,1.4530381,80.048078,-3199.27)"><tspan
         sodipodi:role="line"
         style="font-size:38.3128px;line-height:1.25;fill:#202020;fill-opacity:1;stroke:#000000;stroke-width:0.330534;stroke-miterlimit:4;stroke-dasharray:none;stroke-opacity:1"
         x="903.31201"
         y="2924.6372"
         id="tspan4150-8-6-5-2">Kmína</tspan></text>
    <text
       xml:space="preserve"
       style="font-style:normal;font-variant:normal;font-weight:normal;font-stretch:normal;line-height:0%;font-family:Lavi;-inkscape-font-specification:Lavi;text-align:center;letter-spacing:-0.0334897px;word-spacing:0px;text-anchor:middle;display:inline;opacity:0.699;fill:#202020;fill-opacity:1;stroke:#000000;stroke-width:0.314035;stroke-miterlimit:4;stroke-dasharray:none;stroke-opacity:1;filter:url(#filter1266-5-1)"
       x="903.31201"
       y="2924.6372"
       id="text4246-8-3-7-2-9"
       transform="matrix(1.4560413,-0.02137803,-0.63767126,1.180929,1526.7936,-2452.2189)"><tspan
         sodipodi:role="line"
         style="font-style:normal;font-variant:normal;font-weight:normal;font-stretch:normal;font-size:38.3128px;line-height:1.25;font-family:Fondamento;-inkscape-font-specification:Fondamento;letter-spacing:-0.0334897px;fill:#202020;fill-opacity:1;stroke:#000000;stroke-width:0.314035;stroke-miterlimit:4;stroke-dasharray:none;stroke-opacity:1"
         x="903.29529"
         y="2924.6372"
         id="tspan4150-8-6-5-2-3">Tymiána</tspan></text>
    <text
       xml:space="preserve"
       style="font-style:normal;font-variant:normal;font-weight:normal;font-stretch:normal;line-height:0%;font-family:Lavi;-inkscape-font-specification:Lavi;text-align:center;letter-spacing:0px;word-spacing:0px;text-anchor:middle;display:inline;opacity:0.6;fill:#000000;fill-opacity:1;stroke:none;stroke-width:0.738759;filter:url(#filter4213-8-8)"
       x="-447.29675"
       y="2872.5061"
       id="text4246-85-9-7"
       transform="matrix(1.1265079,-0.01406056,-0.02918254,1.1204037,1504.6499,-2132.9222)"><tspan
         sodipodi:role="line"
         style="font-style:normal;font-variant:normal;font-weight:normal;font-stretch:normal;font-size:49.1939px;line-height:1.27;font-family:Fondamento;-inkscape-font-specification:Fondamento;stroke:#000000;stroke-width:0.847303;stroke-opacity:1"
         x="-447.29675"
         y="2872.5061"
         id="tspan1120-6">~ Feferonce ~</tspan></text>
    <text
       xml:space="preserve"
       style="font-style:normal;font-variant:normal;font-weight:normal;font-stretch:normal;line-height:0%;font-family:Lavi;-inkscape-font-specification:Lavi;text-align:center;letter-spacing:0px;word-spacing:0px;text-anchor:middle;fill:#000000;fill-opacity:1;stroke:#000000;stroke-width:1.3;stroke-miterlimit:4;stroke-dasharray:none;stroke-opacity:1"
       x="1612.0697"
       y="303.90353"
       id="text4246-7-6-4-0"
       transform="matrix(0.99650308,0,-0.23158448,1.0035092,0,0)"><tspan
         sodipodi:role="line"
         style="font-style:normal;font-variant:normal;font-weight:bold;font-stretch:normal;font-size:74.8582px;line-height:1.25;font-family:Lavi;-inkscape-font-specification:'Lavi Bold';stroke:#000000;stroke-width:1.3;stroke-miterlimit:4;stroke-dasharray:none;stroke-opacity:1"
         x="1612.0697"
         y="303.90353"
         id="tspan4212-7">TICHO!</tspan></text>
    <path
       style="opacity:0.69899998;fill:none;fill-rule:evenodd;stroke:#202020;stroke-width:1.0516634;stroke-linecap:butt;stroke-linejoin:miter;stroke-miterlimit:4;stroke-dasharray:none;stroke-opacity:1;filter:url(#filter1639)"
       d="m 1547.1934,2802.853 c 3.8646,-3.5133 9.3102,-3.689 12.2965,-3.5133 2.9863,0.1757 7.0265,-4.7429 9.8371,-5.6212 2.8106,-0.8783 12.8234,0.1756 13.8774,-0.8783 1.054,-1.054 11.2425,-2.108 11.5938,-3.8646 0.3513,-1.7567 -0.086,-5.8644 -0.086,-5.8644"
       id="path1409"
       inkscape:connector-curvature="0"
       transform="matrix(2.332865,0.27867164,-0.32316546,2.0116733,-1731.1758,-5165.5624)"
       sodipodi:nodetypes="cssccc" />
    <path
       style="opacity:0.69899998;fill:none;fill-opacity:1;fill-rule:evenodd;stroke:#202020;stroke-width:0.32464391;stroke-linecap:butt;stroke-linejoin:miter;stroke-miterlimit:4;stroke-dasharray:none;stroke-dashoffset:0;stroke-opacity:1;filter:url(#filter1395)"
       d="m 1077.1201,752.52314 c 0.8783,-6.4995 5.6852,-7.2186 2.699,3.8482 -2.9863,11.0668 -52.5234,35.3083 -52.5234,35.3083"
       id="path910"
       inkscape:connector-curvature="0"
       sodipodi:nodetypes="ccc"
       transform="matrix(2.3551423,0,0,2.0308834,-1611.2802,-660.39768)" />
    <text
       xml:space="preserve"
       style="font-style:normal;font-variant:normal;font-weight:normal;font-stretch:normal;line-height:0%;font-family:Lavi;-inkscape-font-specification:Lavi;text-align:center;letter-spacing:0px;word-spacing:0px;text-anchor:middle;fill:#000000;fill-opacity:1;stroke:none"
       x="400.79132"
       y="1296.3143"
       id="text4246-5-5"><tspan
         sodipodi:role="line"
         style="font-style:normal;font-variant:normal;font-weight:normal;font-stretch:normal;font-size:45px;line-height:1.25;font-family:Lavi;-inkscape-font-specification:Lavi;text-align:center;text-anchor:middle"
         x="400.79132"
         y="1296.3143"
         id="tspan1094">V mojí armádě </tspan><tspan
         sodipodi:role="line"
         style="font-style:normal;font-variant:normal;font-weight:normal;font-stretch:normal;font-size:45px;line-height:1.25;font-family:Lavi;-inkscape-font-specification:Lavi;text-align:center;text-anchor:middle"
         x="400.79132"
         y="1352.5643"
         id="tspan3940">není místo pro děti.</tspan><tspan
         sodipodi:role="line"
         style="font-style:normal;font-variant:normal;font-weight:normal;font-stretch:normal;font-size:45px;line-height:1.25;font-family:Lavi;-inkscape-font-specification:Lavi;text-align:center;text-anchor:middle"
         x="407.82257"
         y="1408.8143"
         id="tspan1096"> </tspan></text>
    <text
       xml:space="preserve"
       style="font-style:normal;font-variant:normal;font-weight:normal;font-stretch:normal;line-height:0%;font-family:Lavi;-inkscape-font-specification:Lavi;text-align:center;letter-spacing:0px;word-spacing:0px;text-anchor:middle;fill:#000000;fill-opacity:1;stroke:none"
       x="923.17175"
       y="1300.0614"
       id="text4246-5-5-3"><tspan
         sodipodi:role="line"
         style="font-style:normal;font-variant:normal;font-weight:normal;font-stretch:normal;font-size:45px;line-height:1.25;font-family:Lavi;-inkscape-font-specification:Lavi;text-align:center;text-anchor:middle"
         x="923.17175"
         y="1300.0614"
         id="tspan1096-6">Běž si domů</tspan><tspan
         sodipodi:role="line"
         style="font-style:normal;font-variant:normal;font-weight:normal;font-stretch:normal;font-size:45px;line-height:1.25;font-family:Lavi;-inkscape-font-specification:Lavi;text-align:center;text-anchor:middle"
         x="923.17175"
         y="1356.3114"
         id="tspan3942">hrát s panenkama.</tspan><tspan
         sodipodi:role="line"
         style="font-style:normal;font-variant:normal;font-weight:normal;font-stretch:normal;font-size:45px;line-height:1.25;font-family:Lavi;-inkscape-font-specification:Lavi;text-align:center;text-anchor:middle"
         x="930.203"
         y="1412.5614"
         id="tspan1127"> </tspan></text>
    <text
       xml:space="preserve"
       style="color:#000000;font-style:normal;font-variant:normal;font-weight:normal;font-stretch:normal;line-height:0%;font-family:Arial;-inkscape-font-specification:Arial;letter-spacing:0.0273496px;word-spacing:0px;clip-rule:nonzero;display:inline;overflow:visible;visibility:visible;opacity:1;isolation:auto;mix-blend-mode:normal;color-interpolation:sRGB;color-interpolation-filters:linearRGB;solid-color:#000000;solid-opacity:1;fill:#ffffff;fill-opacity:1;fill-rule:nonzero;stroke:#ffffff;stroke-width:0.968549;stroke-linecap:butt;stroke-linejoin:miter;stroke-miterlimit:4;stroke-dasharray:none;stroke-dashoffset:0;stroke-opacity:1;marker:none;filter:url(#filter5561-1);color-rendering:auto;image-rendering:auto;shape-rendering:auto;text-rendering:auto;enable-background:accumulate"
       id="text4251-1-3"
       inkscape:transform-center-x="-270.60518"
       inkscape:transform-center-y="60.453122"
       y="1742.2045"
       x="1705.2566"
       transform="matrix(0.91879135,-0.67832788,0.07526662,1.411228,-949.41897,401.37966)"><tspan
         sodipodi:role="line"
         id="tspan4253-5-1"
         x="1705.2566"
         y="1742.2045"
         style="font-style:normal;font-variant:normal;font-weight:normal;font-stretch:normal;font-size:45.5771px;line-height:1.25;font-family:Lavi;-inkscape-font-specification:Lavi;letter-spacing:6.3599px;stroke-width:0.968549">Švih!</tspan></text>
    <flowRoot
       xml:space="preserve"
       id="flowRoot971"
       style="font-style:normal;font-variant:normal;font-weight:normal;font-stretch:normal;line-height:0.01%;font-family:Lavi;-inkscape-font-specification:Lavi;text-align:center;letter-spacing:22.66px;word-spacing:-79.64px;writing-mode:lr-tb;text-anchor:middle;fill:#000000;fill-opacity:1;stroke:none;stroke-width:1px;stroke-linecap:butt;stroke-linejoin:miter;stroke-opacity:1"><flowRegion
         id="flowRegion973"><rect
           id="rect975"
           width="33.872047"
           height="9.9623671"
           x="1695.5948"
           y="340.94467" /></flowRegion><flowPara
         id="flowPara977"
         style="font-size:0.666667px;line-height:0"> </flowPara></flowRoot>
    <text
       xml:space="preserve"
       style="font-style:normal;font-variant:normal;font-weight:normal;font-stretch:normal;line-height:0%;font-family:Lavi;-inkscape-font-specification:Lavi;text-align:center;letter-spacing:0px;word-spacing:0px;text-anchor:middle;fill:#000000;fill-opacity:1;stroke:#000000;stroke-width:3.72;stroke-miterlimit:4;stroke-dasharray:none;stroke-opacity:1"
       x="2098.6653"
       y="2255.6174"
       id="text4246-6-5-6-0-2-1"
       transform="matrix(0.88228376,0,-0.23605329,1.1334222,0,0)"><tspan
         sodipodi:role="line"
         style="font-style:normal;font-variant:normal;font-weight:bold;font-stretch:normal;font-size:35.8717px;line-height:1.25;font-family:Lavi;-inkscape-font-specification:'Lavi Bold';fill:#000000;fill-opacity:1;stroke:none;stroke-width:3.72;stroke-miterlimit:4;stroke-dasharray:none;stroke-opacity:1"
         x="2098.6653"
         y="2255.6174"
         id="tspan4252-7-3-1-2-9-2">HAHA HA HA!</tspan></text>
    <text
       xml:space="preserve"
       style="font-style:normal;font-variant:normal;font-weight:normal;font-stretch:normal;line-height:0%;font-family:Lavi;-inkscape-font-specification:Lavi;text-align:center;letter-spacing:0px;word-spacing:0px;text-anchor:middle;fill:#000000;fill-opacity:1;stroke:#000000;stroke-width:3.72;stroke-miterlimit:4;stroke-dasharray:none;stroke-opacity:1"
       x="2367.9607"
       y="2228.4077"
       id="text4246-6-5-6-0-2-1-9"
       transform="matrix(0.88228376,0,-0.23605329,1.1334222,0,0)"><tspan
         sodipodi:role="line"
         style="font-style:normal;font-variant:normal;font-weight:bold;font-stretch:normal;font-size:35.8717px;line-height:1.25;font-family:Lavi;-inkscape-font-specification:'Lavi Bold';fill:#000000;fill-opacity:1;stroke:none;stroke-width:3.72;stroke-miterlimit:4;stroke-dasharray:none;stroke-opacity:1"
         x="2367.9607"
         y="2228.4077"
         id="tspan4252-7-3-1-2-9-2-3">HAHA HA HA!</tspan></text>
    <text
       xml:space="preserve"
       style="font-style:normal;font-variant:normal;font-weight:normal;font-stretch:normal;line-height:0%;font-family:Lavi;-inkscape-font-specification:Lavi;text-align:center;letter-spacing:0px;word-spacing:0px;text-anchor:middle;fill:#000000;fill-opacity:1;stroke:#000000;stroke-width:3.72;stroke-miterlimit:4;stroke-dasharray:none;stroke-opacity:1"
       x="2640.1641"
       y="2240.2549"
       id="text4246-6-5-6-0-2-1-9-6"
       transform="matrix(0.88228376,0,-0.23605329,1.1334222,0,0)"><tspan
         sodipodi:role="line"
         style="font-style:normal;font-variant:normal;font-weight:bold;font-stretch:normal;font-size:35.8717px;line-height:1.25;font-family:Lavi;-inkscape-font-specification:'Lavi Bold';fill:#000000;fill-opacity:1;stroke:none;stroke-width:3.72;stroke-miterlimit:4;stroke-dasharray:none;stroke-opacity:1"
         x="2640.1641"
         y="2240.2549"
         id="tspan4252-7-3-1-2-9-2-3-0">HAHA HA HA!</tspan></text>
    <text
       xml:space="preserve"
       style="font-style:normal;font-variant:normal;font-weight:normal;font-stretch:normal;line-height:0%;font-family:Lavi;-inkscape-font-specification:Lavi;text-align:center;letter-spacing:0px;word-spacing:0px;text-anchor:middle;fill:#000000;fill-opacity:1;stroke:#000000;stroke-width:3.72;stroke-miterlimit:4;stroke-dasharray:none;stroke-opacity:1"
       x="3150.7107"
       y="2239.4143"
       id="text4246-6-5-6-0-2-1-9-6-6"
       transform="matrix(0.88228376,0,-0.23605329,1.1334222,0,0)"><tspan
         sodipodi:role="line"
         style="font-style:normal;font-variant:normal;font-weight:bold;font-stretch:normal;font-size:35.8717px;line-height:1.25;font-family:Lavi;-inkscape-font-specification:'Lavi Bold';fill:#000000;fill-opacity:1;stroke:none;stroke-width:3.72;stroke-miterlimit:4;stroke-dasharray:none;stroke-opacity:1"
         x="3150.7107"
         y="2239.4143"
         id="tspan4252-7-3-1-2-9-2-3-0-2">HA HA HAHA!</tspan></text>
    <text
       xml:space="preserve"
       style="font-style:normal;font-weight:normal;line-height:0%;font-family:sans-serif;letter-spacing:0px;word-spacing:0px;fill:#000000;fill-opacity:1;stroke:none;stroke-width:1px;stroke-linecap:butt;stroke-linejoin:miter;stroke-opacity:1"
       x="780.60608"
       y="1032.2424"
       id="text3936"><tspan
         sodipodi:role="line"
         id="tspan3938"
         x="780.60608"
         y="1032.2424"
         style="font-size:40px;line-height:1.25"> </tspan></text>
  </g>
</svg>
