<?xml version="1.0" encoding="UTF-8" standalone="no"?>
<svg
   xmlns:dc="http://purl.org/dc/elements/1.1/"
   xmlns:cc="http://creativecommons.org/ns#"
   xmlns:rdf="http://www.w3.org/1999/02/22-rdf-syntax-ns#"
   xmlns:svg="http://www.w3.org/2000/svg"
   xmlns="http://www.w3.org/2000/svg"
   xmlns:xlink="http://www.w3.org/1999/xlink"
   xmlns:sodipodi="http://sodipodi.sourceforge.net/DTD/sodipodi-0.dtd"
   xmlns:inkscape="http://www.inkscape.org/namespaces/inkscape"
   sodipodi:docname="E19P01.svg"
   height="3503"
   width="2481"
   inkscape:version="1.0 (4035a4fb49, 2020-05-01)"
   version="1.1"
   id="svg2">
  <sodipodi:namedview
     inkscape:document-rotation="0"
     inkscape:window-maximized="0"
     inkscape:window-y="26"
     inkscape:window-x="0"
     inkscape:current-layer="layer1"
     inkscape:cy="2666.9641"
     inkscape:cx="1419.7148"
     inkscape:zoom="0.42773946"
     showgrid="false"
     id="namedview70"
     inkscape:window-height="955"
     inkscape:window-width="1212"
     inkscape:pageshadow="2"
     inkscape:pageopacity="0"
     bordercolor="#666666"
     pagecolor="#ffffff" />
  <metadata
     id="metadata8">
    <rdf:RDF>
      <cc:Work
         rdf:about="">
        <dc:format>image/svg+xml</dc:format>
        <dc:type
           rdf:resource="http://purl.org/dc/dcmitype/StillImage" />
        <dc:title />
      </cc:Work>
    </rdf:RDF>
  </metadata>
  <defs
     id="defs6" />
  <sodipodi:namedview
     showguides="false"
     inkscape:current-layer="layer1"
     inkscape:window-maximized="1"
     inkscape:window-y="26"
     inkscape:window-x="0"
     inkscape:cy="585.67346"
     inkscape:cx="1410.2665"
     inkscape:zoom="0.31941595"
     showgrid="false"
     id="namedview4"
     inkscape:window-height="1025"
     inkscape:window-width="1920"
     inkscape:pageshadow="2"
     inkscape:pageopacity="0"
     guidetolerance="10"
     gridtolerance="10"
     objecttolerance="10"
     borderopacity="1"
     bordercolor="#666666"
     pagecolor="#ffffff" />
  <g
     sodipodi:insensitive="true"
     inkscape:label="artwork"
     id="layer2"
     inkscape:groupmode="layer">
    <image
       sodipodi:absref="C:\Users\stero\Documents\Kernewek\Pepper and Carrot\webcomics\ep19_Pollution\lang\gfx_Pepper-and-Carrot_by-David-Revoy_E19P01.png"
       xlink:href="../gfx_Pepper-and-Carrot_by-David-Revoy_E19P01.png"
       width="2481"
       height="3503"
       id="image10"
       x="0"
       y="0" />
  </g>
  <g
     inkscape:label="speechbubbles"
     id="layer3"
     inkscape:groupmode="layer">
    <path
       sodipodi:nodetypes="csssssc"
       inkscape:connector-curvature="0"
       id="path3365"
       d="m 922.55717,1944.6884 c -7.14917,-29.8516 48.85626,-65.8653 251.61683,-57.9056 202.7611,7.9598 242.6484,21.984 248.6372,60.2936 2.4829,15.8826 -51.5209,40.5945 -81.4365,44.5744 -29.9156,3.9798 -153.9338,4.5754 -203.7933,1.3916 -49.8588,-3.1839 -156.85505,-10.1473 -186.77066,-24.4749 -29.91578,-14.3274 -24.92946,-20.6952 -28.25357,-23.8791 z"
       style="color:#000000;display:inline;overflow:visible;visibility:visible;fill:#ffffff;fill-opacity:1;fill-rule:nonzero;stroke:none;stroke-width:1.33476317px;marker:none;enable-background:accumulate" />
    <path
       inkscape:connector-curvature="0"
       id="path3365-3"
       d="m 1428.0737,2083.716 c -13.7187,64.8622 -75.8035,93.8587 -127.3236,111.4475 -96.1507,27.859 -196.9096,13.8761 -293.7822,-1.1599 -50.25995,-10.6884 -102.03146,-56.7681 -96.77634,-118.9871 5.07861,-55.7719 53.80337,-92.1169 100.76634,-97.2978 68.8466,-18.0814 140.6471,-26.8894 210.6484,-11.5068 60.1078,8.7825 124.4813,11.1633 178.0172,45.8519 17.891,18.3287 24.765,45.7724 28.4502,71.6522 z"
       style="color:#000000;display:inline;overflow:visible;visibility:visible;fill:#ffffff;fill-opacity:1;fill-rule:nonzero;stroke:none;stroke-width:1.36049783px;marker:none;enable-background:accumulate" />
    <path
       sodipodi:nodetypes="cccccccc"
       inkscape:connector-curvature="0"
       id="path3065"
       d="m 989.62764,2289.3832 c 6.1144,-66.4936 53.87686,-102.4743 123.98316,-111.736 85.9485,-19.7637 166.0598,-28.8184 251.8293,-9.8815 56.0864,15.6646 102.1812,17.443 145.756,62.406 28.8957,32.9768 39.2998,157.7732 -7.5027,190.1171 -48.7219,47.2866 -179.2761,57.7626 -245.3298,56.4701 -95.0731,1.9461 -178.3955,-6.665 -225.3472,-46.0498 -43.90234,-37.7868 -49.36857,-92.1027 -43.38876,-141.3259 z"
       style="fill:#ffffff;stroke:none;stroke-width:1.0663476" />
    <path
       sodipodi:nodetypes="cscccc"
       inkscape:connector-curvature="0"
       id="path3063-1"
       d="m 1639.5841,2318.3167 c -21.9558,36.2988 -64.6442,61.9501 -96.7367,35.7869 -19.4449,-15.8524 -29.1134,-28.291 -29.1134,-28.291 l -6.3679,30.9322 20.7854,19.5483 c 0,0 65.508,31.9103 111.4326,-57.9764 z"
       style="display:inline;fill:#ffffff;stroke:none" />
    <path
       sodipodi:nodetypes="ssssssss"
       inkscape:connector-curvature="0"
       id="path4040"
       d="m 1913.7084,2316.0905 c 22.0218,-13.3189 108.7391,-24.7604 195.348,-23.3633 86.6089,1.3973 169.6176,8.7123 220.3618,41.5616 74.763,48.3976 40.7099,159.054 1.9878,177.6746 -28.0636,13.4952 -112.0563,25.6034 -192.5037,26.965 -80.4472,1.3618 -157.3491,-8.023 -194.921,-20.2182 -32.4257,-10.5249 -79.6687,-39.1662 -83.5261,-108.4363 -1.5743,-28.2721 9.21,-67.5451 53.2532,-94.1834 z"
       style="color:#000000;display:inline;overflow:visible;visibility:visible;fill:#ffffff;fill-opacity:1;fill-rule:nonzero;stroke:none;stroke-width:0.94752258px;marker:none;enable-background:accumulate" />
    <path
       inkscape:connector-curvature="0"
       id="path5010"
       d="m 2091.5868,2309.6031 c -12.6779,-33.6245 -30.9699,-60.7293 -65.977,-55.676 52.3023,-18.546 92.9308,35.3617 103.6224,53.2726 10.6914,17.9109 -37.6454,2.4034 -37.6454,2.4034 z"
       style="color:#000000;display:inline;overflow:visible;visibility:visible;fill:#ffffff;fill-opacity:1;fill-rule:nonzero;stroke:none;stroke-width:1px;marker:none;enable-background:accumulate" />
    <path
       sodipodi:nodetypes="zsssssssz"
       inkscape:connector-curvature="0"
       id="path3373"
       d="m 562.58442,2726.3612 c -1.37287,-26.3558 13.79115,-45.2414 71.44796,-62.4534 57.65706,-17.2119 139.48366,-9.0026 160.95329,-8.4347 100.75142,2.665 134.51023,11.5648 155.10193,30.9284 20.59181,19.3634 25.85252,15.1087 25.12479,48.6465 -0.65152,30.0255 -6.47187,44.1361 -31.18195,50.5905 -24.71024,6.4545 -214.54087,13.8487 -243.76683,13.5611 -28.61445,-0.2816 -65.04685,-3.5096 -93.41652,-14.0823 -26.78168,-9.9808 -42.88991,-32.4002 -44.26267,-58.7561 z"
       style="color:#000000;display:inline;overflow:visible;visibility:visible;fill:#ffffff;fill-opacity:1;fill-rule:nonzero;stroke:none;stroke-width:1.2002492px;marker:none;enable-background:accumulate" />
    <path
       sodipodi:nodetypes="csssssc"
       inkscape:connector-curvature="0"
       id="path4546"
       d="m 653.17027,2853.9321 c 9.91133,-71.4433 85.33335,-96.2842 300.62391,-100.5518 56.30772,-1.1161 151.16032,7.4337 195.37852,24.0922 44.2183,16.6585 69.3963,73.9993 62.7888,126.3501 -13.2151,104.7015 -151.2975,87.2502 -189.2911,88.4821 -37.99357,1.2319 -299.48532,4.6116 -336.9684,-42.9057 -35.94549,-45.5681 -34.1836,-73.2947 -32.53173,-95.4669 z"
       style="color:#000000;display:inline;overflow:visible;visibility:visible;fill:#ffffff;fill-opacity:1;fill-rule:nonzero;stroke:none;stroke-width:1px;marker:none;enable-background:accumulate" />
    <path
       sodipodi:nodetypes="zsssssz"
       inkscape:connector-curvature="0"
       id="path3330"
       d="m 847.67224,2976.6074 c 32.61893,-45.5269 210.03646,-41.6404 269.06646,-21.9159 59.0299,19.7243 84.5489,25.0843 83.7401,65.7479 -0.7572,38.0696 -19.7934,73.6453 -49.9949,84.6034 -30.2013,10.9579 -101.0118,10.7311 -131.2132,10.7311 -30.20128,0 -126.6106,-6.9747 -151.00686,-23.0119 -23.33742,-15.3411 -53.21068,-70.6278 -20.5916,-116.1546 z"
       style="color:#000000;display:inline;overflow:visible;visibility:visible;fill:#ffffff;fill-opacity:1;fill-rule:nonzero;stroke:none;stroke-width:1.03515482px;marker:none;enable-background:accumulate" />
    <path
       inkscape:connector-curvature="0"
       id="path3072"
       d="m 929.99953,3158.9683 c 39.78505,-10.9584 53.20162,-17.1208 58.43434,-65.1641 5.23266,-48.0433 23.16173,-44.6696 23.16173,-44.6696 l 14.7504,30.3838 c 0,0 -18.3423,101.2684 -96.34647,79.4499 z"
       style="color:#000000;display:inline;overflow:visible;visibility:visible;fill:#ffffff;fill-opacity:1;fill-rule:nonzero;stroke:none;stroke-width:1px;marker:none;enable-background:accumulate" />
    <path
       sodipodi:nodetypes="cccccccccccsssc"
       inkscape:connector-curvature="0"
       id="path4584"
       d="m 1892.5378,3239.5273 c 31.1381,2.1524 71.6909,-8.5621 46.517,-40.9681 45.3068,25.9662 88.2258,30.83 133.4096,2.4031 -6.605,28.6978 67.274,30.9119 92.5885,11.9225 -7.7238,29.906 27.7924,31.0596 57.4706,32.0091 -62.7813,36.5615 -29.8141,48.1891 -5.0763,61.9598 -61.6989,-10.1884 -46.7768,10.4551 -54.1462,22.1285 -52.9283,-26.449 -91.4196,-20.1718 -121.8289,4.4257 -15.9043,-13.3768 -20.8964,-41.0242 -79.527,1.4752 21.5599,-36.6892 -6.7003,-32.8382 -52.4542,-14.7522 10.5267,-8.4337 54.8326,-30.9658 -16.9531,-28.9705 11.2097,-2.97 20.2047,-6.2033 26.5441,-9.7524 6.3394,-3.5491 -34.4243,-13.0242 -33.8367,-17.2571 0.5877,-4.2329 42.5269,-3.2235 36.4813,-8.2451 -6.0456,-5.0215 -15.6283,-10.4635 -29.1887,-16.3785 z"
       style="fill:#ffffff;fill-rule:evenodd;stroke:none;stroke-width:1.08624578px;stroke-linecap:butt;stroke-linejoin:miter;stroke-opacity:1" />
    <path
       sodipodi:nodetypes="cccccccc"
       inkscape:connector-curvature="0"
       id="path5066"
       d="m 1929.0839,3276.1051 c -26.7744,0.1934 -96.6935,-12.0611 -103.8888,-13.0148 6.0705,-5.4371 10.1298,-10.8932 13.4021,-15.1162 -13.7156,-0.9263 -59.5001,-2.596 -79.7676,1.5975 50.7453,-11.4228 73.8083,-12.6417 95.8809,-9.8645 -2.9601,5.998 -5.8701,9.4267 -7.3188,12.6033 18.7307,6.708 117.9634,8.8349 106.078,1.4065 z"
       style="color:#000000;display:inline;overflow:visible;visibility:visible;fill:#ffffff;fill-opacity:1;fill-rule:nonzero;stroke:none;stroke-width:1px;marker:none;enable-background:accumulate" />
  </g>
  <g
     style="display:inline"
     inkscape:label="txt"
     id="layer1"
     inkscape:groupmode="layer">
    <text
       id="text4246-3-9"
       y="1950.6425"
       x="1177.4561"
       style="font-style:normal;font-variant:normal;font-weight:normal;font-stretch:normal;line-height:0%;font-family:Lavi;-inkscape-font-specification:Lavi;text-align:center;letter-spacing:0px;word-spacing:0px;text-anchor:middle;fill:#000000;fill-opacity:1;stroke:none"
       xml:space="preserve"><tspan
         id="tspan4183-8"
         y="1950.6425"
         x="1177.4561"
         style="font-size:45px;line-height:1.25"
         sodipodi:role="line">Yth esov ow mos a-ji...</tspan></text>
    <text
       id="text4246"
       y="2378.491"
       x="2132.0017"
       style="font-style:normal;font-variant:normal;font-weight:normal;font-stretch:normal;line-height:0%;font-family:Lavi;-inkscape-font-specification:Lavi;text-align:center;letter-spacing:0px;word-spacing:0px;text-anchor:middle;fill:#000000;fill-opacity:1;stroke:none"
       xml:space="preserve"><text
   id="text4246-3"
   y="2046.2527"
   x="1169.7997"
   style="font-style:normal;font-variant:normal;font-weight:normal;font-stretch:normal;font-size:45px;line-height:1.25;font-family:Lavi;-inkscape-font-specification:Lavi;text-align:center;letter-spacing:0px;word-spacing:0px;text-anchor:middle;fill:#000000;fill-opacity:1;stroke:none"
   xml:space="preserve"><tspan
     id="tspan4183"
     y="2046.2527"
     x="1169.7997"
     style="font-size:45px;line-height:1.25"
     sodipodi:role="line">Ny amont dhymm</tspan><tspan
     id="tspan3951"
     y="2102.5027"
     x="1169.7997"
     style="font-size:45px;line-height:1.25"
     sodipodi:role="line">mires orthis</tspan><tspan
     id="tspan166"
     y="2158.7527"
     x="1169.7997"
     style="font-size:45px;line-height:1.25"
     sodipodi:role="line">ow palas...</tspan></text> <tspan
   id="tspan860"
   style="font-size:45px;line-height:1.25" /><tspan
   id="tspan148"
   style="font-size:45px;line-height:1.25" /></text>
    <text
       id="text4246-3-7"
       y="2247.5215"
       x="1268.4561"
       style="font-style:normal;font-variant:normal;font-weight:normal;font-stretch:normal;line-height:0%;font-family:Lavi;-inkscape-font-specification:Lavi;text-align:center;letter-spacing:0px;word-spacing:0px;text-anchor:middle;fill:#000000;fill-opacity:1;stroke:none"
       xml:space="preserve"><tspan
         id="tspan181"
         y="2247.5215"
         x="1275.4873"
         style="font-size:45px;line-height:1.25"
         sodipodi:role="line">Ynkleudh oll an </tspan><tspan
         id="tspan189"
         y="2303.7715"
         x="1275.4873"
         style="font-size:45px;line-height:1.25"
         sodipodi:role="line">ismegennow fyllys ma </tspan><tspan
         id="tspan183"
         y="2360.0215"
         x="1275.4873"
         style="font-size:45px;line-height:1.25"
         sodipodi:role="line">ragov ha deus a-ji </tspan><tspan
         id="tspan185"
         y="2416.2715"
         x="1268.4561"
         style="font-size:45px;line-height:1.25"
         sodipodi:role="line">skaffa gylli rag powes.</tspan></text>
    <text
       id="text4246-3-7-6"
       y="2376.8721"
       x="2118.6521"
       style="font-style:normal;font-variant:normal;font-weight:normal;font-stretch:normal;line-height:0%;font-family:Lavi;-inkscape-font-specification:Lavi;text-align:center;letter-spacing:0px;word-spacing:0px;text-anchor:middle;fill:#000000;fill-opacity:1;stroke:none"
       xml:space="preserve"><tspan
         id="tspan3983"
         y="2376.8721"
         x="2125.6833"
         style="font-size:45px;line-height:1.25"
         sodipodi:role="line">Mar sewenni a-vorow </tspan><tspan
         id="tspan200"
         y="2433.1221"
         x="2125.6833"
         style="font-size:45px;line-height:1.25"
         sodipodi:role="line">y fien sowdhenys, </tspan><tspan
         id="tspan202"
         y="2489.3721"
         x="2118.6521"
         style="font-size:45px;line-height:1.25"
         sodipodi:role="line">mes piw a wor!</tspan></text>
    <text
       id="text4246-3-7-6-7"
       y="2707.4324"
       x="775.45044"
       style="font-style:normal;font-variant:normal;font-weight:normal;font-stretch:normal;line-height:0%;font-family:Lavi;-inkscape-font-specification:Lavi;text-align:center;letter-spacing:0px;word-spacing:0px;text-anchor:middle;fill:#000000;fill-opacity:1;stroke:none"
       xml:space="preserve"><tspan
         id="tspan3987"
         y="2707.4324"
         x="782.48169"
         style="font-size:45px;line-height:1.25"
         sodipodi:role="line">Da lowr, </tspan><tspan
         id="tspan206"
         y="2763.6824"
         x="775.45044"
         style="font-size:45px;line-height:1.25"
         sodipodi:role="line">my a wra fistena!</tspan></text>
    <text
       id="text4246-3-7-6-7-0"
       y="2832.0046"
       x="942.81274"
       style="font-style:normal;font-variant:normal;font-weight:normal;font-stretch:normal;line-height:0%;font-family:Lavi;-inkscape-font-specification:Lavi;text-align:center;letter-spacing:0px;word-spacing:0px;text-anchor:middle;fill:#000000;fill-opacity:1;stroke:none"
       xml:space="preserve"><tspan
         id="tspan4778"
         y="2832.0046"
         x="942.81274"
         style="font-size:45px;line-height:1.25"
         sodipodi:role="line">Mes, yth ombrederav, </tspan><tspan
         id="tspan210"
         y="2888.2546"
         x="942.81274"
         style="font-size:45px;line-height:1.25"
         sodipodi:role="line">prag y hwrewgh hwi</tspan><tspan
         id="tspan4770"
         y="2944.5046"
         x="949.84399"
         style="font-size:45px;line-height:1.25"
         sodipodi:role="line"><tspan
   id="tspan4772"
   style="stroke:#000000;stroke-width:1.3;stroke-miterlimit:4;stroke-dasharray:none;stroke-opacity:1">ynkleudhyas puptra</tspan>? </tspan></text>
    <text
       id="text4246-3-7-6-7-0-9"
       y="3025.0105"
       x="1026.5442"
       style="font-style:normal;font-variant:normal;font-weight:normal;font-stretch:normal;line-height:0%;font-family:Lavi;-inkscape-font-specification:Lavi;text-align:center;letter-spacing:0px;word-spacing:0px;text-anchor:middle;fill:#000000;fill-opacity:1;stroke:none"
       xml:space="preserve"><tspan
         id="tspan4782"
         y="3025.0105"
         x="1033.5754"
         style="font-size:45px;line-height:1.25"
         sodipodi:role="line">A ny via gwell </tspan><tspan
         id="tspan214"
         y="3081.2605"
         x="1033.5754"
         style="font-size:45px;line-height:1.25"
         sodipodi:role="line">mar kwren... </tspan></text>
    <text
       id="text4246-3-7-6-7-0-9-3"
       y="3281.2891"
       x="2059.533"
       style="font-style:normal;font-variant:normal;font-weight:normal;font-stretch:normal;line-height:0%;font-family:Lavi;-inkscape-font-specification:Lavi;text-align:center;letter-spacing:0px;word-spacing:0px;text-anchor:middle;fill:#000000;fill-opacity:1;stroke:none"
       xml:space="preserve"><tspan
         id="tspan4464-5"
         y="3281.2891"
         x="2059.533"
         style="font-size:45px;line-height:1.25"
         sodipodi:role="line">Mar <tspan
   id="tspan4493"
   style="stroke:#000000;stroke-width:2.6;stroke-miterlimit:4;stroke-dasharray:none;stroke-opacity:1">PYTH</tspan>?</tspan></text>
    <flowRoot
       style="font-style:normal;font-weight:normal;font-size:40px;line-height:1.25;font-family:sans-serif;letter-spacing:0px;word-spacing:0px;fill:#000000;fill-opacity:1;stroke:none"
       id="flowRoot150"
       xml:space="preserve"><flowRegion
         id="flowRegion152"><rect
           y="2100.2769"
           x="1414.4125"
           height="81.825516"
           width="11.689359"
           id="rect154" /></flowRegion><flowPara
         id="flowPara156" /></flowRoot>
    <flowRoot
       style="font-style:normal;font-weight:normal;font-size:40px;line-height:1.25;font-family:sans-serif;letter-spacing:0px;word-spacing:0px;fill:#000000;fill-opacity:1;stroke:none"
       id="flowRoot158"
       xml:space="preserve"><flowRegion
         id="flowRegion160"><rect
           y="2037.1544"
           x="1171.2738"
           height="70.136154"
           width="39.74382"
           id="rect162" /></flowRegion><flowPara
         id="flowPara164" /></flowRoot>
  </g>
</svg>
