<?xml version="1.0" encoding="UTF-8" standalone="no"?>
<!-- Created with Inkscape (http://www.inkscape.org/) -->

<svg
   xmlns:dc="http://purl.org/dc/elements/1.1/"
   xmlns:cc="http://creativecommons.org/ns#"
   xmlns:rdf="http://www.w3.org/1999/02/22-rdf-syntax-ns#"
   xmlns:svg="http://www.w3.org/2000/svg"
   xmlns="http://www.w3.org/2000/svg"
   xmlns:xlink="http://www.w3.org/1999/xlink"
   xmlns:sodipodi="http://sodipodi.sourceforge.net/DTD/sodipodi-0.dtd"
   xmlns:inkscape="http://www.inkscape.org/namespaces/inkscape"
   id="svg2"
   version="1.1"
   inkscape:version="0.92.2 (5c3e80d, 2017-08-06)"
   width="2481"
   height="3503"
   sodipodi:docname="Pepper-and-Carrot_by-David-Revoy_E14P04.svg">
  <metadata
     id="metadata8">
    <rdf:RDF>
      <cc:Work
         rdf:about="">
        <dc:format>image/svg+xml</dc:format>
        <dc:type
           rdf:resource="http://purl.org/dc/dcmitype/StillImage" />
        <dc:title />
      </cc:Work>
    </rdf:RDF>
  </metadata>
  <defs
     id="defs6">
    <inkscape:path-effect
       effect="simplify"
       id="path-effect4575"
       is_visible="true"
       steps="1"
       threshold="0.0001"
       smooth_angles="360"
       helper_size="0"
       simplify_individual_paths="false"
       simplify_just_coalesce="false"
       simplifyindividualpaths="false"
       simplifyJustCoalesce="false" />
    <inkscape:path-effect
       effect="simplify"
       id="path-effect4571"
       is_visible="true"
       steps="1"
       threshold="0.0001"
       smooth_angles="360"
       helper_size="0"
       simplify_individual_paths="false"
       simplify_just_coalesce="false"
       simplifyindividualpaths="false"
       simplifyJustCoalesce="false" />
    <inkscape:path-effect
       effect="simplify"
       id="path-effect4567"
       is_visible="true"
       steps="1"
       threshold="0.0001"
       smooth_angles="360"
       helper_size="0"
       simplify_individual_paths="false"
       simplify_just_coalesce="false"
       simplifyindividualpaths="false"
       simplifyJustCoalesce="false" />
    <inkscape:path-effect
       effect="simplify"
       id="path-effect4563"
       is_visible="true"
       steps="1"
       threshold="0.0001"
       smooth_angles="360"
       helper_size="0"
       simplify_individual_paths="false"
       simplify_just_coalesce="false"
       simplifyindividualpaths="false"
       simplifyJustCoalesce="false" />
    <inkscape:path-effect
       effect="simplify"
       id="path-effect870"
       is_visible="true"
       steps="1"
       threshold="0.0093627"
       smooth_angles="360"
       helper_size="0"
       simplify_individual_paths="false"
       simplify_just_coalesce="false"
       simplifyindividualpaths="false"
       simplifyJustCoalesce="false" />
    <filter
       inkscape:collect="always"
       style="color-interpolation-filters:sRGB"
       id="filter4583"
       x="-0.22662816"
       width="1.4532563"
       y="-0.25235351"
       height="1.504707">
      <feGaussianBlur
         inkscape:collect="always"
         stdDeviation="19.77255"
         id="feGaussianBlur4585" />
    </filter>
  </defs>
  <sodipodi:namedview
     pagecolor="#ffffff"
     bordercolor="#666666"
     borderopacity="1"
     objecttolerance="10"
     gridtolerance="10"
     guidetolerance="10"
     inkscape:pageopacity="0"
     inkscape:pageshadow="2"
     inkscape:window-width="489"
     inkscape:window-height="405"
     id="namedview4"
     showgrid="false"
     inkscape:zoom="0.24595019"
     inkscape:cx="1616.6733"
     inkscape:cy="1613.1755"
     inkscape:window-x="104"
     inkscape:window-y="104"
     inkscape:window-maximized="0"
     inkscape:current-layer="layer3"
     showguides="false" />
  <g
     inkscape:groupmode="layer"
     id="layer2"
     inkscape:label="artwork"
     sodipodi:insensitive="true">
    <image
       sodipodi:absref="E:\Users\jamesmichael\Downloads\Compressed\eps\peppercarrot_ep14_translation-master\peppercarrot_ep14_translation-master\ph\../gfx_Pepper-and-Carrot_by-David-Revoy_E14P04.png"
       xlink:href="../gfx_Pepper-and-Carrot_by-David-Revoy_E14P04.png"
       y="0"
       x="0"
       id="image10"
       height="3503"
       width="2481" />
  </g>
  <g
     inkscape:groupmode="layer"
     id="layer3"
     inkscape:label="speechbubbles">
    <path
       style="color:#000000;display:inline;overflow:visible;visibility:visible;fill:#ffffff;fill-opacity:1;fill-rule:nonzero;stroke:none;stroke-width:1.07318687px;marker:none;enable-background:accumulate"
       d="m 1656.5578,390.61099 c 11.1277,-22.19026 58.0545,-19.29371 74.6622,-12.8314 -31.457,-29.36515 -28.2682,-45.2588 19.0777,-42.88066 -73.1383,-54.62459 -9.5447,-40.92566 4.6273,-51.39282 -59.9587,-22.41948 -29.7823,-39.48171 -16.3017,-58.17965 -71.1083,-8.04509 -43.8778,-37.43579 -43.7465,-63.07322 -7.505,11.26033 -40.6517,44.47656 -37.3952,4.01196 -51.8425,33.56453 -111.6309,52.52517 -107.817,-15.20234 -23.1576,31.87505 -43.8423,44.21958 -37.3954,4.01196 -53.5006,47.62864 -93.4089,24.36483 -134.0693,5.13349 -13.1203,14.6886 -17.4305,38.89356 -52.834,29.45489 3.121,16.22695 -10.4057,25.76029 -38.7316,29.32258 35.4143,13.27025 40.9473,23.75218 -28.2893,27.25511 51.5682,6.3654 99.5153,13.43812 34.4264,43.07412 18.9194,2.83694 67.7686,-22.4572 35.8771,63.05464 36.1897,-24.68812 73.0131,-36.57146 109.5183,26.76078 24.3503,-27.23454 62.0819,-38.05492 73.1774,0.25683 7.5532,-15.06244 31.5795,-18.5359 51.4466,-17.20359 6.8801,7.00507 13.7249,16.26112 20.5896,28.1705 16.3259,-21.82702 38.3917,-35.42612 73.1774,0.25682 z"
       id="path3549-3-7"
       inkscape:connector-curvature="0"
       sodipodi:nodetypes="cccccccccccccccccccc" />
    <path
       style="color:#000000;display:inline;overflow:visible;visibility:visible;fill:#ffffff;fill-opacity:1;fill-rule:nonzero;stroke:none;stroke-width:0.8685019px;marker:none;enable-background:accumulate"
       d="m 1720.9888,519.68474 c 11.0144,-60.15843 34.1828,-110.74619 64.5676,-131.25475 30.3847,-20.50855 86.5965,-15.03968 96.4716,-8.20339 9.875,6.83612 64.1877,31.44632 75.9618,65.62729 11.7741,34.18098 27.7261,76.56536 31.1444,120.31683 3.4183,43.75165 0.3798,149.02896 -10.6346,172.27203 -11.0145,23.24308 -61.1494,73.83085 -90.3947,76.5652 -29.2453,2.73451 -97.2312,-19.14131 -116.6015,-34.18082 -19.3702,-15.03968 -39.88,-34.18099 -45.9569,-82.03424 -6.077,-47.85342 -17.4712,-110.74635 -4.5577,-179.10815 z"
       id="path3533"
       inkscape:connector-curvature="0" />
    <ellipse
       style="opacity:0.128;fill:#000000;fill-opacity:1;fill-rule:nonzero;stroke:none;stroke-width:19.79999924;stroke-miterlimit:4;stroke-dasharray:39.6, 19.8, 9.9, 19.8;stroke-dashoffset:0;stroke-opacity:1;filter:url(#filter4583)"
       id="path4577"
       cx="1703.597"
       cy="970.4751"
       rx="104.69599"
       ry="94.023102" />
    <path
       style="color:#000000;display:inline;overflow:visible;visibility:visible;fill:#ffffff;fill-opacity:1;fill-rule:nonzero;stroke:none;stroke-width:1.24327707px;marker:none;enable-background:accumulate"
       d="m 1600.2966,933.08116 c 0.6543,-85.11866 13.4006,-165.61496 126.3943,-162.8293 84.7231,2.08871 107.2853,67.67075 109.1624,153.70857 1.323,60.63247 -44.5128,116.75517 -117.3046,113.78217 -69.5749,-2.8415 -113.164,-39.75 -118.2521,-104.66144 z"
       id="path5026"
       inkscape:connector-curvature="0"
       sodipodi:nodetypes="csssc" />
    <path
       style="color:#000000;display:inline;overflow:visible;visibility:visible;fill:#ffffff;fill-opacity:1;fill-rule:nonzero;stroke:none;stroke-width:1.0621798px;marker:none;enable-background:accumulate"
       d="m 288.00252,2011.3557 c 5.7723,-97.2009 17.80676,-198.6993 127.69364,-178.889 109.8869,19.8102 134.37825,107.653 134.63985,208.551 0.34266,132.1699 -28.36318,153.0913 -44.48098,168.9742 -16.11773,15.883 -53.83939,32.8003 -80.96088,36.9904 -14.58264,2.2532 -102.9633,-15.4442 -119.49768,-66.4308 -16.47542,-50.8048 -18.96215,-99.2476 -17.39395,-169.1958 z"
       id="path3365"
       inkscape:connector-curvature="0"
       sodipodi:nodetypes="csssssc" />
    <path
       style="fill:#ffffff;stroke:none;stroke-width:0.77320015"
       d="m 736.42452,2243.3396 c -4.13292,107.9493 -62.57558,124.645 -89.55474,127.8354 -26.97914,3.1904 -98.73347,17.1129 -123.04325,-73.1835 -24.30978,-90.2964 -13.63239,-131.7168 2.1772,-175.7185 13.48185,-37.5231 45.17766,-55.6767 72.92276,-64.5635 34.45106,-11.0346 91.64766,14.6149 115.53431,60.795 12.73848,24.6269 26.09667,16.886 21.96372,124.8351 z"
       id="path3100"
       inkscape:connector-curvature="0"
       sodipodi:nodetypes="zsssssz" />
    <path
       style="fill:#ffffff;fill-rule:evenodd;stroke:none;stroke-width:1px;stroke-linecap:butt;stroke-linejoin:miter;stroke-opacity:1"
       d="m 639.44964,2197.1887 c 25.7289,58.6047 41.46023,-76.7638 24.30763,-26.7354 -17.15259,50.0284 1.42939,104.345 -12.86445,141.509 -14.29383,37.1639 -38.54491,47.2584 -11.43506,107.2037 19.79941,43.7805 -85.08462,39.3605 -44.31895,127.2554 -63.78914,-78.8501 40.07923,-99.8873 25.7289,-127.2151 -28.88282,-55.0024 -7.13885,-80.0858 2.86684,-105.8147 10.00568,-25.7289 -6.87995,-119.2204 10.00568,-151.5146 18.13588,-34.6853 -4.35428,152.7308 -9.93263,128.6843 -7.17205,-30.9164 15.64204,-93.3726 15.64204,-93.3726 z"
       id="path4313"
       inkscape:connector-curvature="0"
       sodipodi:nodetypes="cssscssssc" />
    <path
       sodipodi:nodetypes="cccccccccccccccccccc"
       inkscape:connector-curvature="0"
       id="path862"
       d="m 1668.2322,446.18346 c 11.1277,-22.19026 58.0545,-19.29371 74.6622,-12.8314 -31.457,-29.36515 -28.2682,-45.2588 19.0777,-42.88066 -73.1383,-54.62459 -9.5447,-40.92566 4.6273,-51.39282 -59.9587,-22.41948 -29.7823,-39.48171 -16.3017,-58.17965 -71.1083,-8.04509 -43.8778,-37.43579 -43.7465,-63.07322 -7.505,11.26033 -40.6517,44.47656 -37.3952,4.01196 -51.8425,33.56453 -111.6309,52.52517 -107.817,-15.20234 -23.1576,31.87505 -43.8423,44.21958 -37.3954,4.01196 -53.5006,47.62864 -93.4089,24.36483 -134.0693,5.13349 -13.1203,14.6886 -17.4305,38.89356 -52.834,29.45489 3.121,16.22695 -10.4057,25.76029 -38.7316,29.32258 35.4143,13.27025 40.9473,23.75218 -28.2893,27.25511 51.5682,6.3654 99.5153,13.43812 34.4264,43.07412 18.9194,2.83694 67.7686,-22.4572 35.8771,63.05464 36.1897,-24.68812 73.0131,-36.57146 109.5183,26.76078 24.3503,-27.23454 62.0819,-38.05492 73.1774,0.25683 7.5532,-15.06244 31.5795,-18.5359 51.4466,-17.20359 6.8801,7.00507 13.7249,16.26112 20.5896,28.1705 16.3259,-21.82702 38.3917,-35.42612 73.1774,0.25682 z"
       style="color:#000000;display:inline;overflow:visible;visibility:visible;fill:#ffffff;fill-opacity:1;fill-rule:nonzero;stroke:none;stroke-width:1.07318687px;marker:none;enable-background:accumulate" />
    <path
       style="fill:#ffffff;fill-opacity:1;stroke:none;stroke-width:1px;stroke-linecap:butt;stroke-linejoin:miter;stroke-opacity:1"
       d="m 1619.1653,1050.4694 c 2.9483,0.423 5.9748,-0.047 8.7501,-1.0873 3.5138,-1.3165 6.6728,-3.4591 9.4262,-5.9857 3.6199,-3.3217 6.6241,-7.2979 8.9255,-11.6324 2.1768,-4.0999 3.7684,-8.5469 4.3852,-13.1586 0.222,-1.6599 -0.6989,-3.6276 0.2437,-5.0124 1.7021,-2.5008 3.863,-4.6783 6.2886,-6.4771 1.9872,-1.4737 4.1546,-2.755 6.5213,-3.5047 1.4793,-0.4686 3.0646,-0.7448 4.6119,-0.4813 1.117,0.1902 2.1747,0.7538 2.9129,1.6226 0.9158,1.0778 1.3392,2.4846 1.5038,3.8663 0.2574,2.1605 0.021,4.3492 -0.389,6.4743 -0.7362,3.8155 -1.9847,7.5126 -3.4068,11.1213 -1.5627,3.9655 -3.9131,7.6067 -5.2542,11.6514 -0.6933,2.0909 -2.0575,3.8948 -3.6342,5.4038 -2.1775,2.0841 -4.7439,3.721 -7.4157,5.093 -3.7492,1.9253 -7.7235,3.3972 -11.7897,4.4911 -2.9648,0.7976 -5.9813,1.4565 -9.0437,1.7142 -1.3846,0.1165 -2.7881,0.1956 -4.1678,-0.01 -0.3074,-0.045 -0.6136,-0.1078 -0.9008,-0.2311 -0.9707,-0.4168 -1.9148,-0.8928 -2.8558,-1.3719 -1.4987,-0.7631 -3.0003,-1.5228 -4.4661,-2.3474 -0.082,-0.046 -0.1644,-0.093 -0.2454,-0.1413 z"
       id="path4561"
       inkscape:connector-curvature="0"
       inkscape:path-effect="#path-effect4563"
       inkscape:original-d="m 1619.1653,1050.4694 c 15.5081,2.192 32.467,-19.3498 31.7307,-36.8764 8.821,-13.0557 35.9911,-22.22088 12.7885,24.2728 -3.8341,11.6007 -30.1477,18.1525 -36.6262,16.5849 -0.925,-0.2643 -6.9889,-3.4388 -7.893,-3.9813"
       sodipodi:nodetypes="ccccc" />
  </g>
  <g
     inkscape:groupmode="layer"
     id="layer1"
     inkscape:label="txt">
    <text
       xml:space="preserve"
       style="font-style:normal;font-variant:normal;font-weight:normal;font-stretch:normal;line-height:0%;font-family:Lavi;-inkscape-font-specification:Lavi;text-align:center;letter-spacing:0px;word-spacing:0px;text-anchor:middle;fill:#ff6600;fill-opacity:1;stroke:none;"
       x="1540.4446"
       y="253.96664"
       id="text4246"><tspan
         sodipodi:role="line"
         style="font-size:67.89629364px;line-height:1.25;fill:#ff6600;"
         x="1540.4446"
         y="253.96664"
         id="tspan4252">Carrot! ...</tspan></text>
    <text
       xml:space="preserve"
       style="font-style:normal;font-variant:normal;font-weight:normal;font-stretch:normal;line-height:0%;font-family:Lavi;-inkscape-font-specification:Lavi;text-align:center;letter-spacing:0px;word-spacing:0px;text-anchor:middle;fill:#333333;fill-opacity:1;stroke:none;"
       x="1558.1307"
       y="330.51968"
       id="text4246-1"><tspan
         sodipodi:role="line"
         style="font-size:45px;line-height:1.25;fill:#333333;"
         x="1566.0409"
         y="330.51968"
         id="tspan856">bumalik </tspan><tspan
         sodipodi:role="line"
         style="font-size:45px;line-height:1.25;fill:#333333;"
         x="1558.1307"
         y="386.76968"
         id="tspan860">ka dito ...</tspan></text>
    <text
       xml:space="preserve"
       style="font-style:normal;font-variant:normal;font-weight:normal;font-stretch:normal;line-height:0%;font-family:Lavi;-inkscape-font-specification:Lavi;text-align:center;letter-spacing:0px;word-spacing:0px;text-anchor:middle;fill:#333333;fill-opacity:1;stroke:none;"
       x="1857.6743"
       y="510.97424"
       id="text4246-1-3"><tspan
         sodipodi:role="line"
         style="font-size:45px;line-height:1.25;fill:#333333;"
         x="1857.6743"
         y="510.97424"
         id="tspan3510">... sabi nila</tspan><tspan
         sodipodi:role="line"
         style="font-size:45px;line-height:1.25;fill:#333333;"
         x="1865.5845"
         y="567.22424"
         id="tspan864">mababait </tspan><tspan
         sodipodi:role="line"
         style="font-size:45px;line-height:1.25;fill:#333333;"
         x="1865.5845"
         y="623.47424"
         id="tspan850">ang mga </tspan><tspan
         sodipodi:role="line"
         style="font-size:45px;line-height:1.25;fill:#333333;"
         x="1865.5845"
         y="679.72424"
         id="tspan852">Swamp </tspan><tspan
         sodipodi:role="line"
         style="font-size:45px;line-height:1.25;fill:#333333;"
         x="1857.6743"
         y="735.97424"
         id="tspan854">dragons!</tspan></text>
    <text
       xml:space="preserve"
       style="font-style:normal;font-variant:normal;font-weight:normal;font-stretch:normal;line-height:0%;font-family:Lavi;-inkscape-font-specification:Lavi;text-align:center;letter-spacing:0px;word-spacing:0px;text-anchor:middle;fill:#333333;fill-opacity:1;stroke:none;"
       x="1718.1781"
       y="855.99261"
       id="text4246-1-3-6"><tspan
         sodipodi:role="line"
         style="font-size:35.54689407px;line-height:1.25;fill:#333333;"
         x="1718.1781"
         y="855.99261"
         id="tspan4212">at least</tspan><tspan
         sodipodi:role="line"
         style="font-size:35.54689407px;line-height:1.25;fill:#333333;"
         x="1724.4266"
         y="900.42621"
         id="tspan3506">yun ang </tspan><tspan
         sodipodi:role="line"
         style="font-size:35.54689407px;line-height:1.25;fill:#333333;"
         x="1724.4266"
         y="944.85986"
         id="tspan841">tantya </tspan><tspan
         sodipodi:role="line"
         style="font-size:35.54689407px;line-height:1.25;fill:#333333;"
         x="1718.1781"
         y="989.29346"
         id="tspan843">ko...</tspan></text>
    <text
       xml:space="preserve"
       style="font-style:normal;font-variant:normal;font-weight:normal;font-stretch:normal;line-height:0%;font-family:Lavi;-inkscape-font-specification:Lavi;text-align:center;letter-spacing:0px;word-spacing:0px;text-anchor:middle;fill:#000000;fill-opacity:1;stroke:none"
       x="412.55716"
       y="1935.1211"
       id="text4246-10"><tspan
         sodipodi:role="line"
         style="font-size:45px;line-height:1.25"
         x="420.46732"
         y="1935.1211"
         id="tspan4262">Hmm... </tspan><tspan
         sodipodi:role="line"
         style="font-size:45px;line-height:1.25"
         x="412.55716"
         y="1991.3711"
         id="tspan4591">siguro</tspan><tspan
         sodipodi:role="line"
         style="font-size:45px;line-height:1.25"
         x="420.46732"
         y="2047.6211"
         id="tspan3514">para sa </tspan><tspan
         sodipodi:role="line"
         style="font-size:45px;line-height:1.25"
         x="420.46732"
         y="2103.8711"
         id="tspan4587">Lightning </tspan><tspan
         sodipodi:role="line"
         style="font-size:45px;line-height:1.25"
         x="412.55716"
         y="2160.1211"
         id="tspan4589">Dragon...</tspan></text>
    <text
       xml:space="preserve"
       style="font-style:normal;font-variant:normal;font-weight:normal;font-stretch:normal;line-height:0%;font-family:Lavi;-inkscape-font-specification:Lavi;text-align:center;letter-spacing:0px;word-spacing:0px;text-anchor:middle;fill:#000000;fill-opacity:1;stroke:none"
       x="629.46832"
       y="2151.7209"
       id="text4246-10-5"><tspan
         sodipodi:role="line"
         style="font-size:45px;line-height:1.25"
         x="637.37848"
         y="2151.7209"
         id="tspan3531">... </tspan><tspan
         sodipodi:role="line"
         style="font-size:45px;line-height:1.25"
         x="637.37848"
         y="2207.9709"
         id="tspan4600">pwede </tspan><tspan
         sodipodi:role="line"
         style="font-size:45px;line-height:1.25"
         x="637.37848"
         y="2264.2209"
         id="tspan4602">kaya </tspan><tspan
         sodipodi:role="line"
         style="font-size:45px;line-height:1.25"
         x="629.46832"
         y="2320.4709"
         id="tspan4598">to..?</tspan></text>
  </g>
</svg>
