<?xml version="1.0" encoding="UTF-8" standalone="no"?>
<!-- Created with Inkscape (http://www.inkscape.org/) -->

<svg
   xmlns:dc="http://purl.org/dc/elements/1.1/"
   xmlns:cc="http://creativecommons.org/ns#"
   xmlns:rdf="http://www.w3.org/1999/02/22-rdf-syntax-ns#"
   xmlns:svg="http://www.w3.org/2000/svg"
   xmlns="http://www.w3.org/2000/svg"
   xmlns:xlink="http://www.w3.org/1999/xlink"
   xmlns:sodipodi="http://sodipodi.sourceforge.net/DTD/sodipodi-0.dtd"
   xmlns:inkscape="http://www.inkscape.org/namespaces/inkscape"
   id="svg2"
   version="1.1"
   inkscape:version="0.91 r"
   width="2481"
   height="4503"
   sodipodi:docname="Pepper-and-Carrot_by-David-Revoy_E15P09.svg">
  <metadata
     id="metadata8">
    <rdf:RDF>
      <cc:Work
         rdf:about="">
        <dc:format>image/svg+xml</dc:format>
        <dc:type
           rdf:resource="http://purl.org/dc/dcmitype/StillImage" />
        <dc:title />
      </cc:Work>
    </rdf:RDF>
  </metadata>
  <defs
     id="defs6" />
  <sodipodi:namedview
     pagecolor="#ffffff"
     bordercolor="#666666"
     borderopacity="1"
     objecttolerance="10"
     gridtolerance="10"
     guidetolerance="10"
     inkscape:pageopacity="0"
     inkscape:pageshadow="2"
     inkscape:window-width="1600"
     inkscape:window-height="837"
     id="namedview4"
     showgrid="false"
     inkscape:zoom="0.69217786"
     inkscape:cx="1103.9079"
     inkscape:cy="540.16097"
     inkscape:window-x="0"
     inkscape:window-y="27"
     inkscape:window-maximized="1"
     inkscape:current-layer="layer2"
     inkscape:object-nodes="true"
     showguides="true"
     inkscape:guide-bbox="true">
    <sodipodi:guide
       position="3653.5365,4415.3377"
       orientation="0,1"
       id="guide4214" />
  </sodipodi:namedview>
  <g
     inkscape:groupmode="layer"
     id="layer1"
     inkscape:label="artwork"
     style="display:inline"
     transform="translate(0,1024)"
     sodipodi:insensitive="true">
    <image
       sodipodi:absref="/home/deevad/peppercarrot/webcomics/New/lang/fr/../gfx_Pepper-and-Carrot_by-David-Revoy_E15P09.png"
       xlink:href="../gfx_Pepper-and-Carrot_by-David-Revoy_E15P09.png"
       width="2481.4438"
       height="4504.5391"
       preserveAspectRatio="none"
       style="image-rendering:optimizeQuality"
       id="image4223"
       x="0.54707891"
       y="-1023.3771" />
  </g>
  <g
     inkscape:groupmode="layer"
     id="layer3"
     inkscape:label="speechbubbles"
     style="display:inline"
     transform="translate(0,1024)">
    <path
       style="fill:#ffffff;stroke:none"
       d="m -2021.8885,646.19917 c 1.0628,-51.0158 26.5707,-103.09442 170.0526,-112.65988 143.4819,-9.56546 203.0004,48.89014 207.2517,90.34047 4.2513,41.45033 -82.9007,96.71744 -162.6129,97.78027 -79.7121,1.06282 -214.6914,-11.69112 -214.6914,-75.46086 z"
       id="path4279"
       inkscape:connector-curvature="0" />
    <path
       style="fill:#ffffff;stroke:none"
       d="m -1788.0661,898.08964 c 70.1467,-44.63882 88.2148,-124.35099 45.7016,-190.24639 -42.5132,-65.8954 -82.9007,-54.20428 -82.9007,-54.20428 l 35.0734,41.45033 c 0,0 97.7803,97.78027 2.1257,203.00034 z"
       id="path4281"
       inkscape:connector-curvature="0"
       sodipodi:nodetypes="csccc" />
  </g>
  <g
     inkscape:groupmode="layer"
     id="layer2"
     inkscape:label="text"
     style="display:inline;opacity:0.855"
     transform="translate(0,1024)">
    <text
       xml:space="preserve"
       style="font-style:normal;font-variant:normal;font-weight:normal;font-stretch:normal;font-size:12.29317284px;line-height:125%;font-family:Arial;-inkscape-font-specification:Arial;text-align:center;letter-spacing:0px;word-spacing:0px;text-anchor:middle;display:inline;fill:#000000;fill-opacity:1;stroke:none"
       x="1240.49"
       y="2901.1709"
       id="text4221"
       sodipodi:linespacing="125%"><tspan
         sodipodi:role="line"
         id="tspan4223"
         x="1240.49"
         y="2901.1709"
         style="font-style:normal;font-variant:normal;font-weight:normal;font-stretch:normal;font-size:41.25px;font-family:Lavi;-inkscape-font-specification:Lavi">Voor de volgende aflevering kun jij ook een Patron van Pepper&amp;Carrot worden op</tspan></text>
    <text
       xml:space="preserve"
       style="font-style:normal;font-variant:normal;font-weight:normal;font-stretch:normal;font-size:14.84348011px;line-height:125%;font-family:Arial;-inkscape-font-specification:Arial;text-align:center;letter-spacing:0px;word-spacing:0px;text-anchor:middle;display:inline;fill:#a72f14;fill-opacity:1;stroke:none"
       x="1240.5439"
       y="2978.8181"
       id="text4225"
       sodipodi:linespacing="125%"><tspan
         sodipodi:role="line"
         id="tspan4227"
         x="1240.5439"
         y="2978.8181"
         style="font-style:normal;font-variant:normal;font-weight:normal;font-stretch:normal;font-size:60px;font-family:Lavi;-inkscape-font-specification:Lavi">https://www.patreon.com/davidrevoy</tspan></text>
    <text
       xml:space="preserve"
       style="font-style:normal;font-variant:normal;font-weight:normal;font-stretch:normal;font-size:13.71540833px;line-height:125%;font-family:Arial;-inkscape-font-specification:Arial;text-align:center;letter-spacing:0px;word-spacing:0px;text-anchor:middle;display:inline;opacity:0.85500004;fill:#000000;fill-opacity:1;stroke:none"
       x="1240.4587"
       y="-863.37921"
       id="text4162"
       sodipodi:linespacing="125%"><tspan
         sodipodi:role="line"
         id="tspan4164"
         x="1250.3464"
         y="-863.37921"
         style="font-style:normal;font-variant:normal;font-weight:normal;font-stretch:normal;font-size:56.25px;font-family:Lavi;-inkscape-font-specification:Lavi">Pepper&amp;Carrot is geheel vrij, open-bron en gesponsord</tspan><tspan
         sodipodi:role="line"
         x="1240.4587"
         y="-793.06671"
         style="font-style:normal;font-variant:normal;font-weight:normal;font-stretch:normal;font-size:56.25px;font-family:Lavi;-inkscape-font-specification:Lavi"
         id="tspan4168">door de hulp van mijn patrons.</tspan><tspan
         sodipodi:role="line"
         x="1240.4587"
         y="-722.75421"
         style="font-style:normal;font-variant:normal;font-weight:normal;font-stretch:normal;font-size:56.25px;font-family:Lavi;-inkscape-font-specification:Lavi"
         id="tspan4166">Voor deze aflevering bedank ik de 686 Patrons:</tspan></text>
    <text
       xml:space="preserve"
       style="font-style:normal;font-variant:normal;font-weight:normal;font-stretch:normal;font-size:11.66025162px;line-height:125%;font-family:Arial;-inkscape-font-specification:Arial;text-align:center;letter-spacing:0px;word-spacing:0px;text-anchor:middle;display:inline;opacity:0.85500004;fill:#000000;fill-opacity:1;stroke:none"
       x="1240.6536"
       y="3146.1946"
       id="text4170"
       sodipodi:linespacing="125%"><tspan
         sodipodi:role="line"
         id="tspan4172"
         x="1240.6536"
         y="3146.1946"
         style="font-style:normal;font-variant:normal;font-weight:normal;font-stretch:normal;font-size:29.96623421px;font-family:Lavi;-inkscape-font-specification:Lavi">Licentie: Creative Commons Naamsvermelding 4.0</tspan><tspan
         sodipodi:role="line"
         x="1240.6536"
         y="3183.6523"
         style="font-style:normal;font-variant:normal;font-weight:normal;font-stretch:normal;font-size:29.96623421px;font-family:Lavi;-inkscape-font-specification:Lavi"
         id="tspan4174">Bronbestanden: beschikbaar op www.peppercarrot.com</tspan><tspan
         sodipodi:role="line"
         x="1240.6536"
         y="3221.1101"
         style="font-style:normal;font-variant:normal;font-weight:normal;font-stretch:normal;font-size:29.96623421px;font-family:Lavi;-inkscape-font-specification:Lavi"
         id="tspan4176">Software: deze aflevering is 100% gemaakt met vrije software</tspan><tspan
         sodipodi:role="line"
         x="1245.921"
         y="3258.5679"
         style="font-style:normal;font-variant:normal;font-weight:normal;font-stretch:normal;font-size:29.96623421px;font-family:Lavi;-inkscape-font-specification:Lavi"
         id="tspan4178">Krita 2.9.11, Inkscape 0.91 op Linux Mint 17</tspan></text>
  </g>
</svg>
