<?xml version="1.0" encoding="UTF-8" standalone="no"?>
<svg
   xmlns:dc="http://purl.org/dc/elements/1.1/"
   xmlns:cc="http://creativecommons.org/ns#"
   xmlns:rdf="http://www.w3.org/1999/02/22-rdf-syntax-ns#"
   xmlns:svg="http://www.w3.org/2000/svg"
   xmlns="http://www.w3.org/2000/svg"
   xmlns:xlink="http://www.w3.org/1999/xlink"
   xmlns:sodipodi="http://sodipodi.sourceforge.net/DTD/sodipodi-0.dtd"
   xmlns:inkscape="http://www.inkscape.org/namespaces/inkscape"
   id="svg2"
   version="1.1"
   inkscape:version="1.0.2-2 (e86c870879, 2021-01-15)"
   width="2481"
   height="3503"
   sodipodi:docname="E24P02.svg">
  <metadata
     id="metadata8">
    <rdf:RDF>
      <cc:Work
         rdf:about="">
        <dc:format>image/svg+xml</dc:format>
        <dc:type
           rdf:resource="http://purl.org/dc/dcmitype/StillImage" />
        <dc:title />
      </cc:Work>
    </rdf:RDF>
  </metadata>
  <defs
     id="defs6">
    <filter
       style="color-interpolation-filters:sRGB"
       id="filter4375-4-1-1-1-9"
       inkscape:label="deevad outline effect">
      <feFlood
         id="feFlood4377-7-9-0-8-1"
         flood-opacity="1"
         flood-color="rgb(0,0,0)"
         result="flood" />
      <feComposite
         id="feComposite4379-3-8-8-2-77"
         in2="SourceGraphic"
         in="flood"
         operator="in"
         result="composite1" />
      <feMorphology
         id="feMorphology4393-1-0-49-8-9"
         operator="dilate"
         radius="4"
         result="result3" />
      <feComposite
         id="feComposite4385-9-5-7-0-8"
         in2="result3"
         in="SourceGraphic"
         operator="over"
         result="composite2" />
    </filter>
  </defs>
  <sodipodi:namedview
     pagecolor="#ffffff"
     bordercolor="#666666"
     borderopacity="1"
     objecttolerance="10"
     gridtolerance="10"
     guidetolerance="10"
     inkscape:pageopacity="0"
     inkscape:pageshadow="2"
     inkscape:window-width="1920"
     inkscape:window-height="1057"
     id="namedview4"
     showgrid="false"
     inkscape:zoom="1.0071367"
     inkscape:cx="765.65713"
     inkscape:cy="545.40383"
     inkscape:window-x="1358"
     inkscape:window-y="-8"
     inkscape:window-maximized="1"
     inkscape:current-layer="layer1"
     inkscape:snap-global="false"
     showguides="true"
     inkscape:document-rotation="0" />
  <g
     inkscape:groupmode="layer"
     id="layer2"
     inkscape:label="artwork"
     sodipodi:insensitive="true">
    <image
       sodipodi:absref="C:\Users\quentinlipeck\Downloads\webcomics-master-ec7d62e6553c2c63bb1cf2e799ee31f9cb9ce5e2\webcomics-master-ec7d62e6553c2c63bb1cf2e799ee31f9cb9ce5e2\ep24_The-Unity-Tree\lang\gfx_Pepper-and-Carrot_by-David-Revoy_E24P02.png"
       xlink:href="../gfx_Pepper-and-Carrot_by-David-Revoy_E24P02.png"
       y="0"
       x="0"
       id="image10"
       height="3503"
       width="2481" />
  </g>
  <g
     inkscape:groupmode="layer"
     id="layer3"
     inkscape:label="speechbubbles">
    <path
       style="fill:#ffffff;stroke:none;stroke-width:1.22605"
       d="m 1018.5676,946.57059 c 93.7795,-8.94766 174.977,2.83172 196.4214,11.56064 21.4442,8.72893 42.779,25.58705 54.8924,32.13195 40.4376,21.84822 27.488,138.15982 10.2101,150.18992 -13.5582,9.4402 -22.8553,38.8127 -80.0651,48.6158 -57.2102,9.8032 -162.4645,14.413 -197.6328,5.3097 -35.16831,-9.1033 -109.84221,-2.4869 -130.49516,-60.863 -20.65296,-58.3762 -2.52832,-150.55707 63.62215,-169.75006 37.29206,-10.81992 83.04701,-17.19495 83.04701,-17.19495 z"
       id="path3286"
       inkscape:connector-curvature="0"
       sodipodi:nodetypes="csssssssc" />
    <path
       style="color:#000000;display:inline;overflow:visible;visibility:visible;fill:#ffffff;fill-opacity:1;fill-rule:nonzero;stroke:none;stroke-width:0.894614px;marker:none;enable-background:accumulate"
       d="m 2235.2039,1351.7302 c -166.3352,-2.4006 -213.7021,-10.5067 -212.7392,-134.4249 0.9628,-123.9182 62.36,-155.51 151.8783,-157.9817 86.9037,-2.4716 154.5086,12.8174 172.0646,47.1468 20.2832,36.6742 12.8475,78.9168 18.9072,111.8213 9.3188,28.2142 -0.5678,84.4634 -18.8001,100.4267 -18.1675,15.9066 -77.4171,33.6935 -111.3108,33.0118 z"
       id="path3365"
       inkscape:connector-curvature="0"
       sodipodi:nodetypes="cscccsc" />
    <path
       style="color:#000000;display:inline;overflow:visible;visibility:visible;fill:#ffffff;fill-opacity:1;fill-rule:nonzero;stroke:none;stroke-width:1px;marker:none;enable-background:accumulate"
       d="m 1190.4458,1312.0824 c -70.0617,-6.5837 -91.3329,-16.7984 -111.4751,-72.4567 -20.1421,-55.6582 0.6832,-59.9839 0.6832,-59.9839 0,0 10.9679,110.8571 110.7919,132.4406 z"
       id="path5002"
       inkscape:connector-curvature="0" />
    <path
       style="color:#000000;display:inline;overflow:visible;visibility:visible;fill:#ffffff;fill-opacity:1;fill-rule:nonzero;stroke:none;stroke-width:1px;marker:none;enable-background:accumulate"
       d="m 2050.7762,1376.6106 c 37.4574,14.4492 67.4988,-7.5666 86.7222,-51.9063 19.2234,-44.3397 35.3495,-35.8085 35.3495,-35.8085 l 5.0926,33.3889 c 0,0 -35.4044,96.209 -127.1643,54.3259 z"
       id="path3072"
       inkscape:connector-curvature="0"
       sodipodi:nodetypes="csccc" />
    <path
       style="color:#000000;display:inline;overflow:visible;visibility:visible;fill:#ffffff;fill-opacity:1;fill-rule:nonzero;stroke:none;stroke-width:1px;marker:none;enable-background:accumulate"
       d="M 65.403388,2355.4056 C 55.172407,2228.5179 -53.502477,2147.2044 321.77182,2137.0085 c 101.24878,-2.7508 218.14975,-18.828 234.29382,166.9053 16.14392,185.7331 -147.13283,201.8436 -180.16511,210.4713 -33.03226,8.628 -189.30752,10.624 -241.37058,-37.2555 -29.24172,-26.892 -64.701043,-82.5873 -69.126562,-121.724 z"
       id="path4546"
       inkscape:connector-curvature="0"
       sodipodi:nodetypes="cssssc" />
    <path
       style="color:#000000;display:inline;overflow:visible;visibility:visible;fill:#ffffff;fill-opacity:1;fill-rule:nonzero;stroke:none;stroke-width:1.07941px;marker:none;enable-background:accumulate"
       d="m 938.70001,2693.1073 c -71.41147,5.1953 -179.79659,-7.919 -211.98111,-74.3648 -32.18436,-66.4457 -43.15958,-156.2188 -9.60104,-205.2708 33.5584,-49.052 97.0422,-99.2996 159.46069,-100.7986 62.41841,-1.4994 149.47195,27.3952 179.73305,89.7616 30.2613,62.3662 37.9814,208.9957 -34.6179,255.3927 -72.59943,46.397 -82.99369,35.2799 -82.99369,35.2799 z"
       id="path3970"
       inkscape:connector-curvature="0" />
    <path
       style="color:#000000;display:inline;overflow:visible;visibility:visible;fill:#ffffff;fill-opacity:1;fill-rule:nonzero;stroke:none;stroke-width:1px;marker:none;enable-background:accumulate"
       d="m 967.99896,2989.7664 c -51.74784,3.1643 -130.28832,-4.8231 -153.6106,-45.2931 -23.32216,-40.4698 -31.27528,-95.1476 -6.95732,-125.0235 24.31785,-29.8759 70.32092,-60.48 115.55202,-61.393 45.23103,-0.9132 108.31384,16.6854 130.24224,54.6708 21.9286,37.9851 27.5229,127.2922 -25.0856,155.551 -52.60864,28.2589 -60.14074,21.4878 -60.14074,21.4878 z"
       id="path3970-4"
       inkscape:connector-curvature="0" />
    <path
       style="fill:#ffffff;fill-rule:evenodd;stroke:none;stroke-width:1px;stroke-linecap:butt;stroke-linejoin:miter;stroke-opacity:1"
       d="m 346.57119,2616.5493 c -63.2798,-44.5839 -68.79168,-98.8369 -22.99541,-144.2951 18.90772,-28.5006 -29.49137,-44.6932 -49.46806,0.8803 2.52314,18.0735 -60.406,94.8559 72.46347,143.4148 z"
       id="path4278"
       inkscape:connector-curvature="0"
       sodipodi:nodetypes="cccc" />
    <path
       style="color:#000000;display:inline;overflow:visible;visibility:visible;fill:#ffffff;fill-opacity:1;fill-rule:nonzero;stroke:none;stroke-width:1px;marker:none;enable-background:accumulate"
       d="m 759.98513,2733.1259 c 40.56205,-7.5931 54.44696,-12.612 63.67875,-60.0495 9.2317,-47.4376 26.81589,-42.5763 26.81589,-42.5763 l 12.15811,31.5107 c 0,0 -26.74612,99.3801 -102.65275,71.1151 z"
       id="path3072-5"
       inkscape:connector-curvature="0" />
    <path
       style="color:#000000;display:inline;overflow:visible;visibility:visible;fill:#ffffff;fill-opacity:1;fill-rule:nonzero;stroke:none;stroke-width:1px;marker:none;enable-background:accumulate"
       d="m 739.08809,2819.3997 c 21.8597,19.4259 25.84476,19.8547 38.08065,11.9234 12.23579,-7.9313 27.1542,-23.1621 53.13132,-17.7581 84.05943,-18.1201 113.76084,72.1324 -3.48563,23.5751 -17.33625,-6.3711 -39.16416,13.5701 -53.85665,11.2775 -14.69258,-2.2926 -25.60297,-17.6945 -33.86969,-29.0179 z"
       id="path4538"
       inkscape:connector-curvature="0"
       sodipodi:nodetypes="cccccc" />
    <path
       style="fill:#ffffff;fill-rule:evenodd;stroke:none;stroke-width:1.03179px;stroke-linecap:butt;stroke-linejoin:miter;stroke-opacity:1"
       d="m 1279.3218,3127.8607 c 0.6053,10.4744 -0.1203,23.6329 -10.5679,30.0553 -12.7305,5.1653 -25.7714,-3.1255 -35.9793,-9.3933 -3.3466,-2.7404 0.5905,3.3653 0.3204,4.9057 2.4739,9.271 3.856,21.7394 -5.2872,28.3296 -11.2792,6.3827 -25.5079,0.906 -36.1634,-3.162 4.4084,10.5219 9.7765,23.7411 2.2715,34.1459 -4.9367,4.8605 -13.3147,4.7389 -19.5621,3.7188 4.9129,7.7867 5.5246,20.5116 -4.6464,24.9576 -4.6063,2.4985 -11.6605,1.9958 -15.6049,2.1307 8.6215,8.223 16.5283,21.3496 9.6439,32.4552 -3.7758,5.6104 -10.1309,9.2526 -16.6015,11.8075 10.0943,1.4638 22.8556,6.897 22.9333,17.699 0.3323,6.2044 -5.305,12.6724 -8.2084,16.3021 11.7594,-3.657 26.1338,-8.0578 37.6428,-1.6865 5.2199,4.3376 6.5172,11.3206 5.6099,17.4659 12.0679,-6.7451 24.6624,-3.1032 39.1884,1.8665 8.8689,4.2687 13.5257,13.1731 15.7432,21.7415 15.7413,-10.3056 34.675,-22.2696 55.0497,-17.5322 14.432,3.8127 23.3517,15.884 32.4392,25.9104 4.4186,-10.9197 12.6271,-23.586 26.603,-24.7084 13.874,0.893 20.4087,14.1398 26.9718,23.4681 1.2745,4.7372 4.6405,8.3689 5.9342,6.2627 5.8315,-11.4025 13.7515,-24.5647 28.089,-27.8824 14.9807,-0.713 25.1392,11.7618 33.2555,21.4821 3.3967,-11.9549 10.3388,-26.1665 24.981,-28.8733 14.5657,-0.3696 23.7471,12.2415 30.499,22.3163 3.0835,4.0011 5.5996,8.3384 8.6189,12.3783 2.3816,-10.476 7.8019,-31.4008 20.8882,-31.6483 12.2324,0.042 21.8283,8.1687 30.7796,14.7361 0.1043,-11.7615 13.3363,-22.7171 26.2037,-18.7604 16.4673,3.1866 31.7515,1.9502 45.693,9.7419 -4.0748,-8.8412 -7.509,-21.9949 2.3067,-28.7949 5.5224,-3.1806 12.4849,-2.7263 18.5657,-1.4012 -5.7585,-9.4286 -5.0613,-23.7535 6.2156,-29.4501 6.1357,-3.7818 13.5842,-4.9573 20.539,-6.8545 -12.5152,-8.1121 -32.0127,-18.531 -28.4201,-33.6239 1.2251,-6.7661 14.2789,-16.0495 17.3297,-20.6553 -33.0345,10.0843 -31.3887,-4.7448 -10.9037,-20.9795 2.4965,-4.0947 1.3979,-4.0272 -2.766,-1.2676 -11.3174,5.9221 -23.5516,13.2363 -37.0518,12.5342 -9.912,-3.9731 -7.0422,-24.6408 -0.3806,-31.1349 -15.2447,5.4243 -32.1756,12.0428 -48.7376,7.7328 -10.7675,-6.361 -9.4737,-20.5119 -4.3433,-29.7637 1.8707,-3.7857 -0.6408,-1.2802 -2.9718,0.4924 -8.8846,6.5677 -19.2133,14.1483 -31.1332,13.9181 -11.1146,-3.2638 -13.3428,-16.5572 -9.5386,-25.4179 0.033,-2.2162 2.8239,-8.5102 -0.8559,-4.0524 -7.1433,6.5087 -19.2696,23.2331 -30.092,21.0586 -5.2648,-1.9101 -5.9866,-15.6961 -7.6036,-20.4596 -5.1651,7.596 -16.8044,24.2342 -27.649,21.0402 -10.0106,-4.129 -11.4118,-15.5551 -11.7202,-24.3988 -3.5981,8.1531 -10.5797,14.4007 -21.7031,14.8017 -11.6091,-0.9284 -16.5657,-35.0387 -19.1762,-43.9573 -0.8068,-2.7677 -4.0961,-8.8656 -2.5631,4.4042 -3.2091,7.6932 -10.1247,39.4139 -20.3278,37.0392 -12.4395,-3.9107 -13.9638,-11.7297 -17.65,-21.7233 -3.0731,8.8678 -10.6147,19.6049 -22.1717,18.5393 -14.2314,-2.4059 -19.7911,-17.0643 -25.9755,-26.8331 -1.0504,11.3796 -4.3868,25.5407 -16.7746,30.8533 -12.5755,2.7867 -22.6302,-7.4797 -28.6839,-16.2296 -4.541,-5.4437 -8.5941,-11.2099 -12.5893,-16.9956 l 0.067,1.0273 z m 189.0747,240.3398 c 0,0.015 0.014,-0.05 0,0 z"
       id="path1504"
       inkscape:connector-curvature="0"
       sodipodi:nodetypes="cccccccccccccccccccccccccccccccccccccccccccccccccccccccccccccccccc" />
    <path
       style="fill:#ffffff;stroke:none;stroke-width:1"
       d="m 1452.7195,2949.0485 c 13.6365,51.0487 1.8285,73.4399 -12.8291,87.351 -14.6575,13.9112 -29.2574,24.6287 -30.4169,39.0049 -1.1585,14.3763 4.3679,32.4449 9.991,45.1906 5.6233,12.7459 -8.7567,28.7391 -16.1641,41.0823 -7.4074,12.3434 -32.4176,87.9891 -32.4176,87.9891 0,0 45.6605,-29.3056 57.0155,-43.5686 11.3552,-14.2629 -1.5936,-24.3112 1.6003,-31.5097 3.1938,-7.1984 16.2252,-28.4819 13.3417,-43.3703 -2.8832,-14.8884 -6.8861,-37.3598 -11.1969,-47.9831 -4.3108,-10.6233 8.1814,-20.8918 17.4263,-34.2439 9.2448,-13.3519 26.0549,-36.6775 19.2727,-60.0623 -6.7821,-23.3848 -15.6229,-39.88 -15.6229,-39.88 z"
       id="path3023"
       inkscape:connector-curvature="0"
       sodipodi:nodetypes="csssscssssssc" />
    <path
       style="color:#000000;display:inline;overflow:visible;visibility:visible;fill:#ffffff;fill-opacity:1;fill-rule:nonzero;stroke:none;stroke-width:0.865913px;marker:none;enable-background:accumulate"
       d="m 1834.6516,2338.3329 c -1.6524,-30.8269 -1.0282,-60.9007 68.3704,-81.0325 69.3988,-20.1318 190.7246,-10.1945 216.4826,-8.8076 42.0433,2.2637 152.8122,8.0487 177.5974,30.6971 24.7853,22.6483 28.5059,49.5788 25.9968,73.9893 -2.3114,22.488 -13.2444,54.7107 -42.9868,62.2601 -29.7423,7.5495 -242.5664,18.7732 -277.2657,13.7403 -34.6994,-5.0329 -88.2333,-12.0804 -117.9753,-27.1794 -30.1528,-15.3071 -48.5672,-32.8404 -50.2194,-63.6673 z"
       id="path3373"
       inkscape:connector-curvature="0"
       sodipodi:nodetypes="zsssssssz" />
    <path
       style="color:#000000;display:inline;overflow:visible;visibility:visible;fill:#ffffff;fill-opacity:1;fill-rule:nonzero;stroke:none;stroke-width:1px;marker:none;enable-background:accumulate"
       d="m 2031.8102,2507.7263 c 30.9235,-44.7181 56.4448,-90.7801 41.0641,-127.8508 -21.7419,-52.4025 -15.1545,-27.3052 -15.1545,-27.3052 l 48.1596,27.1477 c 4.0617,-2.2231 16.5042,46.8286 -74.0692,128.0083 z"
       id="path3072-1"
       inkscape:connector-curvature="0"
       sodipodi:nodetypes="csccc" />
    <path
       style="display:inline;fill:#ffffff;stroke:none;stroke-width:1"
       d="m 1769.3287,3257.7326 c 3.8546,-82.4794 41.3235,-122.0071 95.0114,-142.1316 53.6879,-20.1246 370.1638,-14.5343 434.2911,7.8264 64.1269,22.3607 69.3441,79.8897 71.6455,143.2494 0.8717,73.3656 -74.5044,104.2317 -111.7878,113.1759 -37.2831,8.9443 -336.3681,16.077 -416.3375,-16.8413 -72.8227,-30.0594 -72.8227,-105.2788 -72.8227,-105.2788 z"
       id="path3008"
       inkscape:connector-curvature="0"
       sodipodi:nodetypes="ccccccc" />
    <path
       style="color:#000000;display:inline;overflow:visible;visibility:visible;fill:#ffffff;fill-opacity:1;fill-rule:nonzero;stroke:none;stroke-width:1px;marker:none;enable-background:accumulate"
       d="m 2046.452,3138.2749 c 31.2021,-26.3616 74.0861,-59.4473 33.587,-95.3422 1.3128,2.6276 75.7675,26.7026 -7.7455,112.4393 -83.5133,85.7365 -101.538,90.3039 -101.538,90.3039 z"
       id="path4064"
       inkscape:connector-curvature="0"
       sodipodi:nodetypes="ccscc"
       inkscape:transform-center-x="86.439437"
       inkscape:transform-center-y="119.77252" />
    <g
       id="g5381"
       transform="matrix(-1.5611989,-0.03507888,0.01694649,-1.1694129,2313.7286,4709.8659)"
       style="display:inline;fill:#ffffff;stroke-width:0.827001">
      <path
         inkscape:connector-curvature="0"
         id="path5263"
         d="m 1231.4261,3164.2107 c -4.7051,-6.6655 -8.3522,-20.2367 -8.3522,-21.805 0,-1.5684 0.3921,-7.4497 0.3921,-7.4497 l -3.1367,-1.1763 2.7446,-5.0971 -3.1367,0.3921 c 0,0 8.4753,-16.4011 10.0436,-19.1457 1.5684,-2.7446 4.313,-9.018 4.313,-9.018 0,0 11.2013,-0.9423 14.338,-2.1186 3.1367,-1.1762 12.5468,-11.3705 12.5468,-11.3705 0,0 11.3706,5.4892 15.6836,6.2734 4.3129,0.7842 24.3095,1.9604 27.8383,0 3.5288,-1.9605 7.0576,-4.7051 7.0576,-4.7051 0,0 9.018,-0.7841 11.3705,-1.9604 2.3526,-1.1763 6.6655,-3.9209 6.6655,-3.9209 0,0 7.4497,0.7842 10.5864,0.3921 3.1367,-0.3921 17.644,0 19.2124,0 1.5683,0 12.5468,6.6655 12.5468,6.6655 l 7.0576,6.6655 c 0,0 5.8813,-0.3921 8.626,-1.1763 2.7446,-0.7841 5.0971,3.1367 5.0971,3.1367 0,0 10.3649,28.9788 11.9333,33.6838 1.5683,4.7051 2.3525,14.1152 2.3525,14.1152 0,0 -4.313,7.4497 -6.6655,10.5864 -2.3525,3.1367 -9.018,10.5864 -12.5468,13.331 -3.5288,2.7446 -7.8418,7.0576 -12.1548,4.313 -4.313,-2.7446 -8.6259,-2.3525 -10.1943,-0.3921 -1.5684,1.9604 -12.9389,15.6836 -16.8598,14.1152 -3.9209,-1.5684 -17.2519,-3.9209 -21.1728,-7.4497 -3.9209,-3.5288 -10.1943,4.7051 -12.9389,2.3525 -2.7446,-2.3525 -6.6655,-6.6655 -9.4102,-6.6655 -2.7446,0 -40.639,11.3296 -44.5599,9.7612 -3.9209,-1.5684 -13.5936,-9.7859 -15.9461,-11.3542 -2.3526,-1.5684 -8.2339,-10.9785 -8.2339,-10.9785 z"
         style="color:#000000;display:inline;overflow:visible;visibility:visible;fill:#ffffff;fill-opacity:1;fill-rule:nonzero;stroke:none;stroke-width:0.827001px;marker:none;enable-background:accumulate"
         sodipodi:nodetypes="cscccccccccccccssccccccsssssscssccc" />
    </g>
    <path
       style="color:#000000;display:inline;overflow:visible;visibility:visible;fill:#ffffff;fill-opacity:1;fill-rule:nonzero;stroke:none;stroke-width:1px;marker:none;enable-background:accumulate"
       d="m 214.82896,1030.4867 c 6.80442,0.878 -13.01369,58.3529 -13.01369,58.3529 0,0 37.57996,20.9895 40.57677,25.605 -3.12032,14.3994 -21.44854,49.3771 -21.44854,49.3771 l 47.969,66.5041 -32.27308,-66.6621 30.22524,-55.2358 -42.64068,-25.4823 18.48922,-41.6529 z"
       id="path4448-7"
       inkscape:connector-curvature="0"
       sodipodi:nodetypes="cccccccccc" />
    <path
       style="color:#000000;display:inline;overflow:visible;visibility:visible;fill:#ffffff;fill-opacity:1;fill-rule:nonzero;stroke:none;stroke-width:1px;marker:none;enable-background:accumulate"
       d="m 1181.3418,1264.7261 c -13.8665,-3.5055 -55.1437,-19.0159 -6.106,-17.5657 -59.3797,-25.0538 -32.5866,-43.8491 -10.6916,-63.0001 -18.1994,-6.138 -47.6034,-8.1294 -37.3738,-24.7898 -19.517,1.4993 -31.4964,-4.8263 -36.7506,-18.1339 -14.8623,16.6729 -27.349,19.2808 -33.8988,-13.2573 -5.9732,24.2527 -19.7877,28.8493 -57.79865,-1.6874 -2.7979,8.899 11.59785,29.2427 -92.86732,14.4217 31.06193,16.9622 71.33888,54.7798 -4.02112,72.0652 26.93842,7.6306 44.11746,17.9678 2.13299,34.3899 27.2039,5.1866 25.23782,27.2561 17.97888,35.0755 34.45627,-14.845 53.77794,-13.3862 52.4848,8.8739 63.60652,-34.4878 49.19912,-4.5663 62.32942,2.0745 25.1052,-28.2285 46.7116,-14.0788 69.7714,-7.7794 7.3512,-33.4408 43.8059,-20.6979 74.8104,-20.6871 z"
       id="path3549-3-78"
       inkscape:connector-curvature="0"
       sodipodi:nodetypes="ccccccccccccccc" />
  </g>
  <g
     inkscape:groupmode="layer"
     id="layer1"
     inkscape:label="txt"
     style="display:inline">
    <text
       xml:space="preserve"
       style="font-style:normal;font-variant:normal;font-weight:normal;font-stretch:normal;line-height:0%;font-family:Lavi;-inkscape-font-specification:Lavi;letter-spacing:0px;word-spacing:0px;fill:#000000;fill-opacity:1;stroke:#000000;stroke-width:1.03244;stroke-miterlimit:4;stroke-dasharray:none;stroke-opacity:1;filter:url(#filter4375-4-1-1-1-9)"
       x="787.65729"
       y="1584.5073"
       id="text4580"
       transform="matrix(0.99628009,-0.49104872,-0.18392799,1.3011878,1393.6124,-1187.4855)"><tspan
         sodipodi:role="line"
         id="tspan4582"
         x="787.65729"
         y="1584.5073"
         style="font-size:70px;line-height:1.25;fill:#ffffff;stroke-width:1.03244"><tspan
           style="font-size:80.4001px;stroke-width:1.03244"
           id="tspan4617">Kalama!</tspan></tspan></text>
    <text
       xml:space="preserve"
       style="font-style:normal;font-variant:normal;font-weight:normal;font-stretch:normal;line-height:0%;font-family:Lavi;-inkscape-font-specification:Lavi;text-align:center;letter-spacing:0px;word-spacing:0px;text-anchor:middle;fill:#000000;fill-opacity:1;stroke:none;stroke-width:1.6;stroke-miterlimit:4;stroke-dasharray:none"
       x="1087.5315"
       y="1034.0934"
       id="text4246-7-6-2-04"><tspan
         sodipodi:role="line"
         style="font-size:45px;line-height:1.25;stroke:none;stroke-width:1.6;stroke-miterlimit:4;stroke-dasharray:none;stroke-opacity:1"
         x="1087.5315"
         y="1034.0934"
         id="tspan98">kasi pi kama wan </tspan><tspan
         sodipodi:role="line"
         style="font-size:45px;line-height:1.25;stroke:none;stroke-width:1.6;stroke-miterlimit:4;stroke-dasharray:none;stroke-opacity:1"
         x="1087.5315"
         y="1090.3434"
         id="tspan104">li weka tan tenpo </tspan><tspan
         sodipodi:role="line"
         style="font-size:45px;line-height:1.25;stroke:none;stroke-width:1.6;stroke-miterlimit:4;stroke-dasharray:none;stroke-opacity:1"
         x="1087.5315"
         y="1146.5934"
         id="tspan134">lete anu seme?!</tspan></text>
    <text
       xml:space="preserve"
       style="font-style:normal;font-variant:normal;font-weight:normal;font-stretch:normal;line-height:0%;font-family:Lavi;-inkscape-font-specification:Lavi;text-align:center;letter-spacing:0px;word-spacing:0px;text-anchor:middle;fill:#000000;fill-opacity:1;stroke:none;stroke-width:1.6;stroke-miterlimit:4;stroke-dasharray:none"
       x="2204.6575"
       y="1139.6553"
       id="text4246-7-6-2-04-3"><tspan
         sodipodi:role="line"
         style="font-size:45px;line-height:1.25;stroke:none;stroke-width:1.6;stroke-miterlimit:4;stroke-dasharray:none;stroke-opacity:1"
         x="2204.6575"
         y="1139.6553"
         id="tspan1525">mi ken pali e </tspan><tspan
         sodipodi:role="line"
         style="font-size:45px;line-height:1.25;stroke:none;stroke-width:1.6;stroke-miterlimit:4;stroke-dasharray:none;stroke-opacity:1"
         x="2204.6575"
         y="1195.9053"
         id="tspan122">kasi suli mi </tspan><tspan
         sodipodi:role="line"
         style="font-size:45px;line-height:1.25;stroke:none;stroke-width:1.6;stroke-miterlimit:4;stroke-dasharray:none;stroke-opacity:1"
         x="2204.6575"
         y="1252.1553"
         id="tspan124">kepeken wawa </tspan><tspan
         sodipodi:role="line"
         style="font-size:45px;line-height:1.25;stroke:none;stroke-width:1.6;stroke-miterlimit:4;stroke-dasharray:none;stroke-opacity:1"
         x="2204.6575"
         y="1308.4053"
         id="tspan126">pi mi taso!</tspan></text>
    <text
       xml:space="preserve"
       style="font-style:normal;font-variant:normal;font-weight:normal;font-stretch:normal;line-height:0%;font-family:Lavi;-inkscape-font-specification:Lavi;text-align:center;letter-spacing:0px;word-spacing:0px;text-anchor:middle;fill:#000000;fill-opacity:1;stroke:none;stroke-width:1.6;stroke-miterlimit:4;stroke-dasharray:none"
       x="320.74161"
       y="2266.5608"
       id="text4246-7-6-2-04-3-5"><tspan
         sodipodi:role="line"
         style="font-size:45px;line-height:1.25;stroke:none;stroke-width:1.6;stroke-miterlimit:4;stroke-dasharray:none;stroke-opacity:1"
         x="320.74161"
         y="2266.5608"
         id="tspan150">ken la, mi ken </tspan><tspan
         sodipodi:role="line"
         style="font-size:45px;line-height:1.25;stroke:none;stroke-width:1.6;stroke-miterlimit:4;stroke-dasharray:none;stroke-opacity:1"
         x="320.74161"
         y="2322.8108"
         id="tspan154">pali e sin. mi ken </tspan><tspan
         sodipodi:role="line"
         style="font-size:45px;line-height:1.25;stroke:none;stroke-width:1.6;stroke-miterlimit:4;stroke-dasharray:none;stroke-opacity:1"
         x="320.74161"
         y="2379.0608"
         id="tspan156">wan e nasin Piponaa </tspan><tspan
         sodipodi:role="line"
         style="font-size:45px;line-height:1.25;stroke:none;stroke-width:1.6;stroke-miterlimit:4;stroke-dasharray:none;stroke-opacity:1"
         x="320.74161"
         y="2435.3108"
         id="tspan166">e nasin Pakalaa!</tspan><tspan
         sodipodi:role="line"
         x="320.74161"
         y="2453.8179"
         id="tspan1139" /></text>
    <text
       xml:space="preserve"
       style="font-style:normal;font-variant:normal;font-weight:normal;font-stretch:normal;line-height:0%;font-family:Lavi;-inkscape-font-specification:Lavi;text-align:center;letter-spacing:0px;word-spacing:0px;text-anchor:middle;fill:#000000;fill-opacity:1;stroke:none;stroke-width:1.6;stroke-miterlimit:4;stroke-dasharray:none"
       x="899.23981"
       y="2425.7971"
       id="text4246-7-6-2-04-3-5-0"><tspan
         sodipodi:role="line"
         style="font-size:45px;line-height:1.25;stroke:none;stroke-width:1.6;stroke-miterlimit:4;stroke-dasharray:none;stroke-opacity:1"
         x="899.23981"
         y="2425.7971"
         id="tspan182">kasi mi li suli, </tspan><tspan
         sodipodi:role="line"
         style="font-size:45px;line-height:1.25;stroke:none;stroke-width:1.6;stroke-miterlimit:4;stroke-dasharray:none;stroke-opacity:1"
         x="899.23981"
         y="2482.0471"
         id="tspan186">li laso. mun lili </tspan><tspan
         sodipodi:role="line"
         style="font-size:45px;line-height:1.25;stroke:none;stroke-width:1.6;stroke-miterlimit:4;stroke-dasharray:none;stroke-opacity:1"
         x="899.23981"
         y="2538.2971"
         id="tspan188">en suno lili en </tspan><tspan
         sodipodi:role="line"
         style="font-size:45px;line-height:1.25;stroke:none;stroke-width:1.6;stroke-miterlimit:4;stroke-dasharray:none;stroke-opacity:1"
         x="899.23981"
         y="2594.5471"
         id="tspan194">kulupu suno lili </tspan><tspan
         sodipodi:role="line"
         style="font-size:45px;line-height:1.25;stroke:none;stroke-width:1.6;stroke-miterlimit:4;stroke-dasharray:none;stroke-opacity:1"
         x="899.23981"
         y="2650.7971"
         id="tspan196">li lon ona!</tspan></text>
    <text
       xml:space="preserve"
       style="font-style:normal;font-variant:normal;font-weight:normal;font-stretch:normal;font-size:10.771px;line-height:0%;font-family:Lavi;-inkscape-font-specification:Lavi;text-align:center;letter-spacing:0px;word-spacing:0px;text-anchor:middle;fill:#000000;fill-opacity:1;stroke:none;stroke-width:1.6;stroke-miterlimit:4;stroke-dasharray:none"
       x="922.15674"
       y="2868.6753"
       id="text4246-7-6-2-04-3-5-0-7"
       transform="scale(1.0118702,0.98826905)"><tspan
         sodipodi:role="line"
         style="font-size:40.3913px;line-height:1.25;stroke:none;stroke-width:1.6;stroke-miterlimit:4;stroke-dasharray:none;stroke-opacity:1"
         x="922.15674"
         y="2868.6753"
         id="tspan1257">ona li </tspan><tspan
         sodipodi:role="line"
         style="font-size:40.3913px;line-height:1.25;stroke:none;stroke-width:1.6;stroke-miterlimit:4;stroke-dasharray:none;stroke-opacity:1"
         x="922.15674"
         y="2919.1643"
         id="tspan203">pona suli </tspan><tspan
         sodipodi:role="line"
         style="font-size:40.3913px;line-height:1.25;stroke:none;stroke-width:1.6;stroke-miterlimit:4;stroke-dasharray:none;stroke-opacity:1"
         x="922.15674"
         y="2969.6536"
         id="tspan205">lukin!</tspan></text>
    <flowRoot
       xml:space="preserve"
       id="flowRoot1245"
       style="font-style:normal;font-variant:normal;font-weight:normal;font-stretch:normal;font-size:0.666667px;line-height:318%;font-family:Neuropolitical;-inkscape-font-specification:Neuropolitical;text-align:center;letter-spacing:0px;word-spacing:0px;writing-mode:lr-tb;text-anchor:middle;fill:#000000;fill-opacity:1;stroke:none;stroke-width:1px;stroke-linecap:butt;stroke-linejoin:miter;stroke-opacity:1"><flowRegion
         id="flowRegion1247"><rect
           id="rect1249"
           width="13.224999"
           height="3.3062499"
           x="790.19373"
           y="2848.3625" /></flowRegion><flowPara
         id="flowPara1251" /></flowRoot>
    <text
       xml:space="preserve"
       style="font-style:normal;font-variant:normal;font-weight:normal;font-stretch:normal;line-height:0%;font-family:Lavi;-inkscape-font-specification:Lavi;text-align:center;letter-spacing:0px;word-spacing:0px;text-anchor:middle;fill:#000000;fill-opacity:1;stroke:none"
       x="1410.1737"
       y="3233.3367"
       id="text4246"><tspan
         sodipodi:role="line"
         style="font-size:45px;line-height:1.25"
         x="1410.1737"
         y="3233.3367"
         id="tspan4252">ni li</tspan></text>
    <text
       xml:space="preserve"
       style="font-style:normal;font-variant:normal;font-weight:normal;font-stretch:normal;line-height:0%;font-family:Lavi;-inkscape-font-specification:Lavi;text-align:center;letter-spacing:0px;word-spacing:0px;text-anchor:middle;fill:#000000;fill-opacity:1;stroke:none"
       x="2289.2227"
       y="3300.3694"
       id="text4246-6"
       transform="skewX(-14.861122)"><tspan
         sodipodi:role="line"
         style="font-size:74.6667px;line-height:1.25"
         x="2289.2227"
         y="3300.3694"
         id="tspan4252-1">pali pona kin!</tspan></text>
    <text
       xml:space="preserve"
       style="font-style:normal;font-variant:normal;font-weight:normal;font-stretch:normal;line-height:0%;font-family:Lavi;-inkscape-font-specification:Lavi;text-align:center;letter-spacing:0px;word-spacing:0px;text-anchor:middle;fill:#000000;fill-opacity:1;stroke:none"
       x="2081.5322"
       y="2326.3386"
       id="text4246-2"><tspan
         sodipodi:role="line"
         style="font-size:45px;line-height:1.25"
         x="2081.5322"
         y="2326.3386"
         id="tspan1426">taso mi ken ala pali </tspan><tspan
         sodipodi:role="line"
         style="font-size:45px;line-height:1.25"
         x="2081.5322"
         y="2382.5886"
         id="tspan212">e ni lon tomo ni...</tspan></text>
    <text
       xml:space="preserve"
       style="font-style:normal;font-variant:normal;font-weight:normal;font-stretch:normal;line-height:0%;font-family:Lavi;-inkscape-font-specification:Lavi;text-align:center;letter-spacing:0px;word-spacing:0px;text-anchor:middle;fill:#000000;fill-opacity:1;stroke:none"
       x="2070.7913"
       y="3177.5769"
       id="text4246-2-3"><tspan
         sodipodi:role="line"
         style="font-size:45px;line-height:1.25"
         x="2070.7913"
         y="3177.5769"
         id="tspan223">...mi kepeken wawa pi </tspan><tspan
         sodipodi:role="line"
         style="font-size:45px;line-height:1.25"
         x="2070.7913"
         y="3233.8269"
         id="tspan229">nasin ante la, jan sona mi li </tspan><tspan
         sodipodi:role="line"
         style="font-size:45px;line-height:1.25"
         x="2070.7913"
         y="3290.0769"
         id="tspan233">sona. ona li wile e </tspan><tspan
         sodipodi:role="line"
         style="font-size:45px;line-height:1.25"
         x="2070.7913"
         y="3346.3269"
         id="tspan235">wawa pakala taso.</tspan></text>
    <text
       xml:space="preserve"
       style="font-style:normal;font-variant:normal;font-weight:normal;font-stretch:normal;font-size:9.8646px;line-height:0%;font-family:Lavi;-inkscape-font-specification:Lavi;text-align:center;letter-spacing:0px;word-spacing:0px;text-anchor:middle;opacity:0.553;fill:#ffffff;fill-opacity:1;stroke:#ffffff;stroke-width:0.410156;stroke-miterlimit:4;stroke-dasharray:none;stroke-opacity:1"
       x="1723.8367"
       y="993.6333"
       id="text4246-8"
       transform="matrix(1.0148684,-0.23351779,-0.23771225,1.0400462,0,0)"><tspan
         sodipodi:role="line"
         style="font-size:25.2876px;line-height:1.25;fill:#ffffff;stroke:#ffffff;stroke-width:0.410156;stroke-miterlimit:4;stroke-dasharray:none;stroke-opacity:1"
         x="1723.8367"
         y="993.6333"
         id="tspan4150-8">luka</tspan></text>
    <text
       xml:space="preserve"
       style="font-style:normal;font-variant:normal;font-weight:normal;font-stretch:normal;font-size:9.8646px;line-height:0%;font-family:Lavi;-inkscape-font-specification:Lavi;text-align:center;letter-spacing:0px;word-spacing:0px;text-anchor:middle;opacity:0.553;fill:#ffffff;fill-opacity:1;stroke:#ffffff;stroke-width:0.410156;stroke-miterlimit:4;stroke-dasharray:none;stroke-opacity:1"
       x="659.43341"
       y="516.69019"
       id="text4246-8-3"
       transform="matrix(1.0294788,0.15704104,-0.60436617,0.87917276,0,0)"><tspan
         sodipodi:role="line"
         style="font-size:25.2876px;line-height:1.25;fill:#ffffff;stroke:#ffffff;stroke-width:0.410156;stroke-miterlimit:4;stroke-dasharray:none;stroke-opacity:1"
         x="659.43341"
         y="516.69019"
         id="tspan4150-8-6">Konnn</tspan></text>
    <text
       xml:space="preserve"
       style="font-style:normal;font-variant:normal;font-weight:normal;font-stretch:normal;font-size:13.8721px;line-height:0%;font-family:Lavi;-inkscape-font-specification:Lavi;text-align:center;letter-spacing:0px;word-spacing:0px;text-anchor:middle;fill:#000000;fill-opacity:1;stroke:#000000;stroke-width:1.6;stroke-miterlimit:4;stroke-dasharray:none;stroke-opacity:1"
       x="1265.1823"
       y="1245.3379"
       id="text4246-7-6-2-04-7"
       transform="skewX(-10.479117)"><tspan
         sodipodi:role="line"
         style="font-size:52.0204px;line-height:1.25;stroke:#000000;stroke-width:1.6;stroke-miterlimit:4;stroke-dasharray:none;stroke-opacity:1"
         x="1265.1823"
         y="1245.3379"
         id="tspan1010-2">ala!</tspan></text>
    <text
       xml:space="preserve"
       style="font-style:normal;font-variant:normal;font-weight:normal;font-stretch:normal;line-height:0%;font-family:Lavi;-inkscape-font-specification:Lavi;text-align:center;letter-spacing:0px;word-spacing:0px;text-anchor:middle;display:inline;fill:#000000;fill-opacity:1;stroke:#000000;stroke-width:1.1;stroke-miterlimit:4;stroke-dasharray:none;stroke-opacity:1"
       x="811.54419"
       y="1010.7184"
       id="text4246-7-6-2"
       transform="skewX(-26.235822)"><tspan
         sodipodi:role="line"
         style="font-size:45px;line-height:1.25;stroke:#000000;stroke-width:1.1;stroke-miterlimit:4;stroke-dasharray:none;stroke-opacity:1"
         x="811.54419"
         y="1010.7184"
         id="tspan1069-6">pakala</tspan></text>
  </g>
</svg>
